ts,p0,p1,p2,p3
1.0807090,0.1252977,145.9667328,115.6299603,118.3511905
1.0946800,0.4895076,144.3331598,114.8548933,117.9960958
1.1167120,0.8881142,144.7588496,114.8782535,117.7752473
1.1287280,1.0775393,144.7588496,114.8782535,117.7752473
1.1716830,1.0417737,143.9449174,114.2786378,117.5772059
1.1856800,0.8722709,143.9449174,114.2786378,117.5772059
1.2326800,0.6673297,140.4192466,111.6654412,115.4189886
1.3049660,0.4850541,134.6420924,108.1703431,111.0304438
1.3179940,0.3416637,134.6420924,108.1703431,111.0304438
1.3716750,0.2295844,134.6813080,108.1340299,111.0235423
1.4243930,0.1340621,134.8967363,108.2921827,111.1100361
1.4826040,0.0408801,135.0336687,108.3546827,110.8085655
1.5446860,-0.0556044,134.9167957,108.7251677,111.4152477
1.5556860,-0.1465840,134.9167957,108.7251677,111.4152477
1.6156840,-0.2230457,135.0031605,108.9446594,111.3122420
1.6276850,-0.2851712,135.0031605,108.9446594,111.3122420
1.6556850,-0.3329473,134.8500387,108.8511352,111.3724200
1.6666890,-0.3647894,134.8500387,108.8511352,111.3724200
1.7286860,-0.3839195,135.2223942,108.6286120,111.1237100
1.7396850,-0.3945703,135.2223942,108.6286120,111.1237100
1.7859020,-0.3943645,135.3720975,108.2957301,111.5279283
1.7972170,-0.3789047,135.3720975,108.2957301,111.5279283
1.8287520,-0.3510002,134.6931760,108.2433566,111.2970201
1.8926230,-0.3191372,135.1266770,108.2728973,111.0738519
1.9036300,-0.2903438,135.1266770,108.2728973,111.0738519
1.9851930,-0.2683740,134.7897317,108.2199432,111.3025026
2.0021930,-0.2546929,134.7897317,108.2199432,111.3025026
2.0272190,-0.2489811,134.4465944,108.4319530,110.9665893
2.0391920,-0.2487722,134.4465944,108.4319530,110.9665893
2.0651900,-0.2488682,134.8639061,108.3468137,110.8948658
2.1561850,-0.2477500,134.9447239,108.2733488,110.5132224
2.1982240,-0.2465559,134.6742131,108.1679567,111.1356424
2.2101980,-0.2389657,134.6742131,108.1679567,111.1356424
2.2469250,-0.2171248,134.8964138,108.0537926,111.1505418
2.2985680,-0.1841417,134.0550181,108.3873194,110.7104618
2.4431580,-0.1536434,134.1849200,107.9426600,109.4729102
2.4862870,-0.1378127,134.0409572,107.5543731,109.6947239
2.4984750,-0.1381303,134.0409572,107.5543731,109.6947239
2.5522290,-0.1507024,134.0550181,107.4049278,108.8739680
2.5652280,-0.1702511,134.0550181,107.4049278,108.8739680
2.6308860,-0.1854504,133.8294634,107.2997936,108.4449819
2.6793090,-0.1862588,136.7002709,109.4554309,111.1126806
2.6908810,-0.1731335,136.7002709,109.4554309,111.1126806
2.7272100,-0.1493711,136.1175181,109.6449303,111.4745227
2.7949680,-0.1147825,136.7865712,109.3542312,111.3744840
2.8594310,-0.0714066,136.0817208,109.6181631,111.2318111
2.8704340,-0.0269871,136.0817208,109.6181631,111.2318111
2.9236840,0.0109537,136.3514577,109.3943498,111.3812564
2.9958170,0.0400358,136.6024252,109.5272833,111.4122807
3.0589250,0.0603225,136.2469685,110.1111971,112.0630805
3.0699680,0.0742967,136.2469685,110.1111971,112.0630805
3.1069140,0.0827987,136.8043086,110.0515351,110.8909959
3.1209330,0.0796189,136.8043086,110.0515351,110.8909959
3.1699140,0.0630101,136.7049149,109.9680083,111.2431631
3.2313340,0.0407323,136.7098813,109.8476522,111.0212203
3.2927440,0.0220928,136.7970201,109.7022059,111.6751161
3.3642960,0.0168981,136.3867389,109.8117905,111.4694917
3.4232280,0.0322607,136.9837461,109.8801600,111.9002193
3.4342290,0.0646641,136.9837461,109.8801600,111.9002193
3.4963510,0.1044818,137.0080624,110.0374097,112.6375774
3.5077300,0.1434821,137.0080624,110.0374097,112.6375774
3.5285820,0.1726773,137.3453947,110.1761481,112.2933437
3.5402220,0.1851836,137.3453947,110.1761481,112.2933437
3.5935410,0.1825307,137.0932663,110.4142157,112.9118937
3.6543810,0.1685234,137.5772059,110.7781218,112.6889190
3.6673810,0.1419831,137.5772059,110.7781218,112.6889190
3.8153150,0.1040584,137.5815918,110.6230005,111.9950980
3.8453490,0.0614856,137.2807018,111.1046182,112.4515609
3.8563070,0.0194405,137.2807018,111.1046182,112.4515609
3.8933080,-0.0205472,136.9038313,111.4749742,112.2585784
3.9610120,-0.0563302,137.6137126,111.6017157,112.6838880
4.0193810,-0.0819960,138.0082559,112.0201883,113.3385578
4.0315370,-0.0919862,138.0082559,112.0201883,113.3385578
4.0930670,-0.0855775,138.4251806,111.5830108,113.5424407
4.1040680,-0.0637648,138.4251806,111.5830108,113.5424407
4.1325990,-0.0315422,137.9053793,111.6059727,112.9876806
4.2007200,0.0014867,137.9439499,111.2469685,113.4278251
4.2625450,0.0300972,137.7911507,111.1917570,113.1618937
4.2765450,0.0510877,137.7911507,111.1917570,113.1618937
4.3245970,0.0587460,138.0812693,111.0071594,112.5375387
4.3359930,0.0525416,138.0812693,111.0071594,112.5375387
4.3767150,0.0380760,137.6993034,111.1018447,112.6934985
4.3874690,0.0194054,137.6993034,111.1018447,112.6934985
4.4358480,0.0018310,137.8308179,111.0069014,113.2136223
4.4468460,-0.0058392,137.8308179,111.0069014,113.2136223
4.5043530,-0.0018866,137.5028380,111.2665119,112.5801084
4.5160870,0.0045463,137.5028380,111.2665119,112.5801084
4.5632230,0.0050888,137.5081914,111.3094685,112.5981682
4.6145030,-0.0025318,137.7034959,111.0945562,112.6359649
4.6828210,-0.0179465,137.6641512,111.2101393,112.6942724
4.6948210,-0.0354105,137.6641512,111.2101393,112.6942724
4.7407550,-0.0451622,137.9528509,111.9147962,113.4034443
4.7517560,-0.0431187,137.9528509,111.9147962,113.4034443
4.8042150,-0.0336862,138.3441692,111.9805857,113.3644866
4.8152190,-0.0240640,138.3441692,111.9805857,113.3644866
4.8533090,-0.0179660,138.4578173,111.7482585,113.2100103
4.8653080,-0.0149828,138.4578173,111.7482585,113.2100103
4.9194810,-0.0140001,137.8221749,111.5859778,112.9320820
4.9851870,-0.0150015,137.3640351,111.4650413,112.4961300
5.0282220,-0.0166173,137.6088751,111.0986197,112.7183953
5.0907600,-0.0142622,137.2954076,111.0531476,112.8891254
5.1017560,-0.0050369,137.2954076,111.0531476,112.8891254
5.1604060,0.0084188,137.1177761,111.1414474,112.6041022
5.2191280,0.0214940,137.5961687,111.0572755,112.4571078
5.3424920,0.0342261,127.7427116,101.8070820,104.2432276
5.3544960,0.0495891,127.7427116,101.8070820,104.2432276
5.4124870,0.0684119,128.0989422,101.7394866,104.6146156
5.4244890,0.0921272,128.0989422,101.7394866,104.6146156
5.5082070,0.1216715,127.5683695,101.9552374,104.4789087
5.5198180,0.1489645,127.5683695,101.9552374,104.4789087
5.6377870,0.1614974,127.5892673,102.2172988,104.9338235
5.6532000,0.1553682,127.5892673,102.2172988,104.9338235
5.7152060,0.1362424,128.1452528,102.7400026,105.9057663
5.7270040,0.1155566,128.1452528,102.7400026,105.9057663
5.8244630,0.1010299,127.5492776,102.3899639,105.0596620
5.8411800,0.0891680,127.5492776,102.3899639,105.0596620
5.9099720,0.0740664,127.4760707,102.1599587,104.9321465
5.9229740,0.0531659,127.4760707,102.1599587,104.9321465
6.0476410,0.0252258,127.5136094,101.7908927,104.6117776
6.0686310,-0.0056515,127.5136094,101.7908927,104.6117776
6.1156310,-0.0310197,127.4871001,101.8913184,104.6431244
6.1276300,-0.0474567,127.4871001,101.8913184,104.6431244
6.2187190,-0.0561988,127.5421827,101.7429051,104.7978586
6.2386750,-0.0581192,127.5421827,101.7429051,104.7978586
6.3186890,-0.0562683,127.7349716,101.9216331,104.6578302
6.3366880,-0.0558164,127.7349716,101.9216331,104.6578302
6.4269800,-0.0579194,127.5272188,101.9320175,104.8195949
6.4449800,-0.0609350,127.5272188,101.9320175,104.8195949
6.5206960,-0.0668467,127.4714267,102.1354489,104.6130031
6.5326900,-0.0776964,127.4714267,102.1354489,104.6130031
6.6196910,-0.0883817,127.4127322,101.7665119,104.6395124
6.6396970,-0.0922917,127.4127322,101.7665119,104.6395124
6.7090950,-0.0870685,127.2814757,101.5414087,104.9116357
6.7230900,-0.0702724,127.2814757,101.5414087,104.9116357
6.8406950,-0.0406732,127.0477941,101.5966202,104.9336300
6.8556940,-0.0042808,127.0477941,101.5966202,104.9336300
6.9161610,0.0273451,127.4627193,101.6524123,104.7309082
6.9288370,0.0433558,127.4627193,101.6524123,104.7309082
7.0185110,0.0399591,127.5078689,101.6666022,104.8917054
7.0380920,0.0231071,127.5078689,101.6666022,104.8917054
7.1081040,0.0022519,127.6727296,101.9244711,105.1544763
7.1201030,-0.0147966,127.6727296,101.9244711,105.1544763
7.2325300,-0.0212974,127.7748323,102.0239938,105.5863648
7.2515210,-0.0148779,127.7748323,102.0239938,105.5863648
7.3265290,-0.0025556,127.6492518,102.4365970,105.4471749
7.4114580,0.0043983,127.5988777,102.3108230,105.3109520
7.4244580,0.0011076,127.5988777,102.3108230,105.3109520
7.5086370,-0.0084665,127.9202786,101.9101522,105.6066821
7.5220050,-0.0169839,127.9202786,101.9101522,105.6066821
7.6386130,-0.0192884,127.7759288,101.9523994,105.3644221
7.6536110,-0.0136620,127.7759288,101.9523994,105.3644221
7.7151150,-0.0033249,127.7830882,101.9380805,105.0479876
7.7269240,0.0020869,127.7830882,101.9380805,105.0479876
7.8270550,-0.0055287,128.1109391,102.1090041,105.4409830
7.8420480,-0.0227054,128.1109391,102.1090041,105.4409830
7.9130470,-0.0400901,127.9983875,102.3584881,105.5207688
7.9240490,-0.0515673,127.9983875,102.3584881,105.5207688
8.0354180,-0.0531365,127.9268576,102.4071852,105.7898607
8.0544210,-0.0444781,127.9268576,102.4071852,105.7898607
8.1167230,-0.0304629,128.4122807,102.3134030,105.8548117
8.1287330,-0.0152316,128.4122807,102.3134030,105.8548117
8.2223230,-0.0015610,128.2819272,102.4125387,105.5848168
8.2433380,0.0055715,128.2819272,102.4125387,105.5848168
8.3193340,0.0043619,128.2172988,102.1916925,105.7103328
8.3312960,-0.0005785,128.2172988,102.1916925,105.7103328
8.4379890,-0.0052940,127.9663313,101.8030831,105.2683824
8.5204620,-0.0063264,128.0172214,101.6219685,105.3811275
8.5324840,0.0016955,128.0172214,101.6219685,105.3811275
8.6189500,0.0177072,127.8793215,101.4921956,105.2329076
8.6339830,0.0335732,127.8793215,101.4921956,105.2329076
8.7117250,0.0422451,127.7851522,101.5882353,104.9411120
8.7240330,0.0393436,127.7851522,101.5882353,104.9411120
8.8388360,0.0262195,128.0729489,101.4204721,105.2547085
8.8528630,0.0112967,128.0729489,101.4204721,105.2547085
8.9177080,-0.0001252,128.1388029,101.7796053,105.2705753
8.9287440,-0.0081699,128.1388029,101.7796053,105.2705753
9.0196600,-0.0151187,127.9825206,102.0950722,104.8418473
9.0336600,-0.0286844,127.9825206,102.0950722,104.8418473
9.1249050,-0.0515156,128.1368679,101.5391512,105.1428019
9.1381020,-0.0722556,128.1368679,101.5391512,105.1428019
9.1869540,-0.0846788,124.2467105,98.5744969,100.9842621
9.2591330,-0.0916059,124.2833462,98.5804309,101.6037797
9.2711350,-0.0886369,124.2833462,98.5804309,101.6037797
9.3173880,-0.0770901,124.1523478,98.7840557,101.4694272
9.3293610,-0.0711385,124.1523478,98.7840557,101.4694272
9.3641890,-0.0719468,124.1600877,98.5772704,101.6026187
9.4293890,-0.0682717,123.9505289,98.5811404,101.2353586
9.4903720,-0.0617504,124.3802245,98.7632224,101.0871388
9.5615210,-0.0590727,122.3510707,96.6490583,99.2640609
9.6065680,-0.0568281,122.3537797,96.8954463,99.5668215
9.6711210,-0.0498578,122.5964267,97.0070949,100.0709494
9.7346400,-0.0367895,122.2205237,97.3075980,100.1299665
9.7874480,-0.0173166,122.6266770,97.6784056,100.3907379
9.8345210,0.0072479,122.9079592,97.8385578,100.6753741
9.8494490,0.0321979,122.9079592,97.8385578,100.6753741
9.8974970,0.0497121,121.7454850,96.4523349,99.0372807
9.9635550,0.0553671,121.4903251,95.9369840,98.9907766
9.9755520,0.0551538,121.4903251,95.9369840,98.9907766
10.0808130,0.0549203,118.6761481,93.6646672,96.2507740
10.0947970,0.0522845,118.6761481,93.6646672,96.2507740
10.1357810,0.0466525,119.3624226,93.5932663,96.3619066
10.1478080,0.0406018,119.3624226,93.5932663,96.3619066
10.2071170,0.0339897,118.6279025,93.4548504,96.3568756
10.2664980,0.0290738,119.0593395,93.2434211,96.2697368
10.2784280,0.0311048,119.0593395,93.2434211,96.2697368
10.3295560,0.0384198,118.6275800,93.5376677,96.0519221
10.3426490,0.0428049,118.6275800,93.5376677,96.0519221
10.3910340,0.0385682,119.1509288,93.8508127,96.3252064
10.4572480,0.0256531,119.2951496,93.9866486,96.6457688
10.5178410,0.0063528,116.8789345,91.9179567,94.0835913
10.5754780,-0.0153071,116.6079076,91.7381966,94.1083591
10.5874880,-0.0319441,116.6079076,91.7381966,94.1083591
10.6413320,-0.0410436,116.5052245,92.0301858,93.8617776
10.7083440,-0.0464470,116.7718008,91.8674536,94.2827012
10.7718930,-0.0474668,116.7132998,91.9317595,94.3365583
10.7828920,-0.0409279,116.7132998,91.9317595,94.3365583
10.8403850,-0.0287217,116.6457043,91.7618034,94.2222652
10.8953030,-0.0102293,114.9722652,90.1309985,93.1738261
10.9070860,0.0185462,114.9722652,90.1309985,93.1738261
10.9472680,0.0547847,114.6488648,89.9760707,93.3165635
10.9596450,0.0931199,114.6488648,89.9760707,93.3165635
11.0106210,0.1286050,115.3586816,90.1260965,93.2399381
11.0756150,0.1500603,113.0405057,87.9390480,90.5889448
11.0869810,0.1457228,113.0405057,87.9390480,90.5889448
11.1401890,0.1189123,112.8181760,87.9129257,91.2801858
11.2039310,0.0836376,113.2977941,87.9599458,90.9944530
11.2159430,0.0498153,113.2977941,87.9599458,90.9944530
11.2575860,0.0241827,112.6230650,88.1675697,90.9134417
11.2686380,0.0108436,112.6230650,88.1675697,90.9134417
11.3224760,0.0048825,112.8599716,88.3421053,91.1974329
11.3333640,-0.0026113,112.8599716,88.3421053,91.1974329
11.4601110,-0.0150646,111.1632482,86.8159185,89.2507095
11.5194040,-0.0301154,111.4484649,86.6709236,89.5371517
11.5314120,-0.0413385,111.4484649,86.6709236,89.5371517
11.5759770,-0.0444376,111.2025284,86.6713751,89.6363519
11.6407570,-0.0446952,111.1840170,86.8998323,88.9931631
11.6517070,-0.0508757,111.1840170,86.8998323,88.9931631
11.7064200,-0.0632397,111.0363777,86.4713622,88.9533669
11.7184190,-0.0765397,111.0363777,86.4713622,88.9533669
11.7722350,-0.0872867,111.4387255,86.5061920,89.1850490
11.7832340,-0.0901939,111.4387255,86.5061920,89.1850490
11.8547350,-0.0804702,110.7246517,86.3686146,88.5372807
11.9120350,-0.0617711,109.4494324,84.5743034,87.2485165
11.9778970,-0.0431134,108.9394995,84.8582301,87.0005160
11.9908960,-0.0327968,108.9394995,84.8582301,87.0005160
12.0494910,-0.0310868,109.1526058,84.4167957,87.2917957
12.0615560,-0.0271151,109.1526058,84.4167957,87.2917957
12.1123050,-0.0132233,107.2425181,83.1010707,85.8698400
12.1814520,0.0063813,107.5653380,83.1969814,85.6150026
12.2583150,0.0257332,107.0630160,83.3012126,85.7739293
12.3196300,0.0410868,107.6138416,83.4165377,86.1584752
12.3316300,0.0482506,107.6138416,83.4165377,86.1584752
12.3849630,0.0488258,107.5793989,83.6483488,86.7984391
12.3972590,0.0523971,107.5793989,83.6483488,86.7984391
12.4525710,0.0658365,107.4435630,83.8811275,86.9048633
12.4641770,0.0853597,107.4435630,83.8811275,86.9048633
12.5204540,0.1042458,107.4059598,83.7286507,87.0735939
12.5319980,0.1188763,107.4059598,83.7286507,87.0735939
12.5915500,0.1256476,107.4287926,83.5705624,86.9718782
12.6085120,0.1241539,107.4287926,83.5705624,86.9718782
12.6660950,0.1185815,107.3401058,83.6046182,87.0281218
12.6798080,0.1110917,107.3401058,83.6046182,87.0281218
12.7219590,0.0997273,107.5055470,83.4839396,86.9158927
12.7329890,0.0832810,107.5055470,83.4839396,86.9158927
12.7904250,0.0620705,107.1658282,83.6824045,86.8002451
12.8014340,0.0359712,107.1658282,83.6824045,86.8002451
12.8465290,0.0080920,107.4045408,83.5725619,87.0268318
12.9058470,-0.0134859,107.6117776,83.5639835,87.3177245
12.9168930,-0.0222665,107.6117776,83.5639835,87.3177245
12.9873990,-0.0194332,107.8838364,83.6758901,87.1488003
13.1394060,-0.0163253,107.6319014,83.8539732,86.3684856
13.1649160,-0.0289958,107.7552245,84.2485165,86.7932147
13.1779180,-0.0642199,107.7552245,84.2485165,86.7932147
13.2309530,-0.1161864,107.8948658,83.9947755,86.5342492
13.2990540,-0.1691896,107.8913184,83.5664345,86.7082043
13.3110160,-0.2002896,107.8913184,83.5664345,86.7082043
13.3473700,-0.1954858,107.1780186,83.7479360,86.6809211
13.4154090,-0.1611901,107.0335397,83.5932018,86.5848168
13.4779800,-0.1140502,106.8341073,83.5302503,86.3286249
13.5453230,-0.0713057,106.8561662,83.5734649,86.3451367
13.5573030,-0.0457625,106.8561662,83.5734649,86.3451367
13.5900700,-0.0385961,107.3624871,83.4860681,86.2696078
13.6010960,-0.0424371,107.3624871,83.4860681,86.2696078
13.6546630,-0.0471474,107.0523091,83.4677503,86.5721104
13.6660140,-0.0429330,107.0523091,83.4677503,86.5721104
13.7151080,-0.0237616,107.2330366,83.4811017,87.2366486
13.7269220,0.0126471,107.2330366,83.4811017,87.2366486
13.7819010,0.0577662,107.3408153,83.5356682,86.4855521
13.8354970,0.0941812,107.7847007,83.3922859,86.8578431
13.8969930,0.1123419,107.9706527,83.4374355,86.7518060
13.9464220,0.1101588,107.6601522,83.6164216,86.8866744
13.9582320,0.0874801,107.6601522,83.6164216,86.8866744
14.0114550,0.0580383,107.8593266,83.5023220,87.3617131
14.0234030,0.0436004,107.8593266,83.5023220,87.3617131
14.0594620,0.0484364,107.9044763,83.6150671,87.2054309
14.0715740,0.0619483,107.9044763,83.6150671,87.2054309
14.1250320,0.0745224,107.8337848,83.6896285,87.1964654
14.2576690,0.0720217,107.3650026,83.7683179,86.1380289
14.2696460,0.0372122,107.3650026,83.7683179,86.1380289
14.3153460,-0.0273071,107.4815531,83.6538958,86.0570175
14.3280610,-0.1002703,107.4815531,83.6538958,86.0570175
14.3768310,-0.1605478,107.2135578,83.2714783,86.2825722
14.4247460,-0.1862945,107.3591976,83.0655315,86.8626806
14.4941200,-0.1643805,107.4371775,83.0907508,86.2247807
14.5540030,-0.1053890,107.2792183,83.0537281,86.7221362
14.5664990,-0.0285323,107.2792183,83.0537281,86.7221362
14.6181270,0.0481171,107.2149768,83.1540248,86.7938596
14.6311830,0.1036203,107.2149768,83.1540248,86.7938596
14.6903590,0.1285071,106.8881579,83.1311275,86.7458075
14.7023580,0.1311616,106.8881579,83.1311275,86.7458075
14.7539880,0.1215682,107.1590557,83.0458591,86.8294634
14.7649770,0.1066248,107.1590557,83.0458591,86.8294634
14.8234450,0.0889778,106.9169247,83.1033927,86.3226909
14.8344470,0.0649239,106.9169247,83.1033927,86.3226909
14.8669590,0.0375867,107.1812436,82.7907637,86.7788958
14.9306990,0.0142012,107.1293860,82.9365325,86.2336816
14.9944200,-0.0076117,106.8877064,82.9113777,86.2725748
15.0064200,-0.0285309,106.8877064,82.9113777,86.2725748
15.0586820,-0.0444476,107.2703818,83.0214138,85.8732585
15.0697320,-0.0617966,107.2703818,83.0214138,85.8732585
15.1238460,-0.0872784,106.7794118,83.1907250,86.0432147
15.1868400,-0.1125166,106.9858746,82.9309211,86.1024252
15.2522540,-0.1259789,106.6680857,82.7861842,86.0943627
15.2650740,-0.1218405,106.6680857,82.7861842,86.0943627
15.2956900,-0.0996227,106.8966073,82.7971491,85.9384030
15.3668050,-0.0656950,107.3769995,82.6424794,86.1387384
15.4209590,-0.0295817,106.6918215,82.4603973,85.8178535
15.4329670,-0.0008329,106.6918215,82.4603973,85.8178535
15.4815440,0.0148639,107.1264190,82.4182147,85.7767028
15.4975440,0.0196250,107.1264190,82.4182147,85.7767028
15.6249760,0.0170741,106.6368679,82.3357198,85.3054051
15.6732880,0.0043208,106.9750387,82.6150026,85.1351909
15.6853260,-0.0216160,106.9750387,82.6150026,85.1351909
15.7388610,-0.0542672,106.8759675,82.4065402,85.2696723
15.8053020,-0.0834095,106.2634159,82.8217879,85.3168860
15.8817490,-0.1044829,106.7425826,82.8729360,85.2227167
15.8937480,-0.1151680,106.7425826,82.8729360,85.2227167
15.9452060,-0.1111098,107.1976264,82.8613261,85.6410604
15.9573570,-0.0925725,107.1976264,82.8613261,85.6410604
16.0102250,-0.0680509,107.0225748,82.9860681,85.3995098
16.0212250,-0.0454833,107.0225748,82.9860681,85.3995098
16.0742320,-0.0261712,107.0031605,82.7376806,85.2316821
16.0851820,-0.0104470,107.0031605,82.7376806,85.2316821
16.1402690,-0.0007503,106.9959365,82.6404799,85.1851135
16.1512680,0.0042809,106.9959365,82.6404799,85.1851135
16.2268970,0.0102141,106.8730650,82.8051471,85.3435888
16.2895900,0.0201698,107.0872678,82.9144092,85.5488906
16.3015860,0.0332927,107.0872678,82.9144092,85.5488906
16.3528270,0.0503661,107.5073529,82.7367131,86.1450593
16.3642090,0.0752644,107.5073529,82.7367131,86.1450593
16.4170580,0.1070065,107.0948787,82.7319401,85.9589783
16.4891840,0.1367601,107.2536120,82.9327915,85.8282379
16.5002210,0.1551871,107.2536120,82.9327915,85.8282379
16.5442800,0.1558985,106.9778767,83.0855263,85.8215944
16.6259380,0.1336920,106.9748367,83.1879242,85.6142912
16.6907270,0.0916373,107.1499552,83.1529005,85.7844154
16.7017270,0.0445196,107.1499552,83.1529005,85.7844154
16.7532040,0.0084066,106.7498399,83.0395057,85.9450634
16.7651130,-0.0086594,106.7498399,83.0395057,85.9450634
16.8246260,-0.0064403,107.0296453,82.6111538,85.6973364
16.8827420,0.0091334,106.7026508,82.5791395,85.3687412
16.8946400,0.0269650,106.7026508,82.5791395,85.3687412
16.9520110,0.0379079,106.5571776,82.3453707,85.2659111
17.0183810,0.0381523,106.5382251,82.5669100,85.2936355
17.0801360,0.0298667,106.5657575,82.4385325,85.6301063
17.0930980,0.0217649,106.5657575,82.4385325,85.6301063
17.1473810,0.0208161,106.9939813,82.4572288,85.5390575
17.1593920,0.0255318,106.9939813,82.4572288,85.5390575
17.2872720,0.0293862,106.2591241,82.4026764,85.0061468
17.3013040,0.0248479,106.2591241,82.4026764,85.0061468
17.3412220,0.0096807,106.7726341,82.5259316,85.6552055
17.3532210,-0.0082128,106.7726341,82.5259316,85.6552055
17.3869010,-0.0209648,106.5933538,82.6568062,85.5217057
17.4615270,-0.0274506,107.1058394,82.3559995,85.1615444
17.4725270,-0.0282013,107.1058394,82.3559995,85.1615444
17.5301970,-0.0274970,106.9950058,82.7076450,85.3253297
17.5909040,-0.0367414,106.8831477,82.8866692,84.7517608
17.6379500,-0.0590489,106.6942630,82.6607760,85.4989115
17.7033380,-0.0782107,106.7345371,82.5526956,85.7301191
17.7657100,-0.0789205,106.8652196,82.4971187,85.5514150
17.7775880,-0.0615614,106.8652196,82.4971187,85.5514150
17.8360920,-0.0292391,106.5436035,82.4380843,85.6546293
17.8481260,0.0141421,106.5436035,82.4380843,85.6546293
17.8794070,0.0534187,106.9179793,82.4499296,85.7066846
17.8912700,0.0751263,106.9179793,82.4499296,85.7066846
17.9413240,0.0803499,106.6527084,82.4023563,85.6431041
18.0048090,0.0742383,106.7530414,82.6140351,85.5594186
18.0168090,0.0584610,106.7530414,82.6140351,85.5594186
18.0722600,0.0372522,106.6947112,82.7141119,85.9086311
18.0864100,0.0183151,106.6947112,82.7141119,85.9086311
18.1088120,0.0051142,107.0703035,82.8266744,85.9348188
18.1208350,-0.0027931,107.0703035,82.8266744,85.9348188
18.1718480,-0.0067992,106.6020849,83.0760234,85.7752352
18.2339680,-0.0094793,106.9074498,83.0197051,86.2618866
18.2981420,-0.0136874,107.1135266,83.4419019,86.2206331
18.3103630,-0.0222334,107.1135266,83.4419019,86.2206331
18.4158290,-0.0378685,107.2559751,83.6957157,85.8362573
18.4299210,-0.0614722,107.2559751,83.6957157,85.8362573
18.4772950,-0.0892689,107.2959573,83.8066997,86.1816044
18.4892920,-0.1146718,107.2959573,83.8066997,86.1816044
18.5367030,-0.1315185,107.3649250,83.8106407,86.1409865
18.5477030,-0.1351076,107.3649250,83.8106407,86.1409865
18.6021510,-0.1185944,107.1620264,83.4800407,86.7602339
18.6639330,-0.0774897,106.7721841,83.6114925,86.8655606
18.7315020,-0.0198651,107.4462243,83.1760107,86.4910374
18.7435140,0.0405732,107.4462243,83.1760107,86.4910374
18.7807460,0.0951258,107.4717137,83.0978897,86.4468599
18.8505140,0.1329759,107.1229341,83.1583397,85.9754005
18.8625260,0.1393949,107.1229341,83.1583397,85.9754005
18.9145240,0.1161748,107.9010297,82.8404526,86.2113527
18.9265010,0.0824603,107.9010297,82.8404526,86.2113527
18.9766140,0.0521666,107.2012459,83.2552759,86.2154208
19.0421760,0.0277135,107.4769260,83.1074879,85.7329647
19.1086370,0.0093007,107.3468091,83.1078057,85.9443809
19.1554590,-0.0042769,107.2901729,83.1910755,85.9419019
19.1674560,-0.0184664,107.2901729,83.1910755,85.9419019
19.2188540,-0.0350856,107.0727816,83.1260488,85.8656878
19.2819510,-0.0474268,107.6011315,82.9674549,85.8966438
19.2939440,-0.0489048,107.6011315,82.9674549,85.8966438
19.3502400,-0.0381863,107.0874015,83.0127129,86.4337656
19.3622490,-0.0151927,107.0874015,83.0127129,86.4337656
19.4125590,0.0173694,107.0069921,83.0749428,86.5356598
19.4759160,0.0535672,107.3249428,83.1854818,86.7675439
19.4881280,0.0882898,107.3249428,83.1854818,86.7675439
19.5412640,0.1154048,107.3844394,83.1596110,86.7751716
19.5525830,0.1279470,107.3844394,83.1596110,86.7751716
19.5800820,0.1238074,107.2885202,83.0592423,86.4834732
19.5921500,0.1055217,107.2885202,83.0592423,86.4834732
19.6412280,0.0780365,106.8879990,82.9973938,86.3780829
19.7982190,0.0432219,106.4616705,82.8867277,85.4416476
19.8132540,-0.0022098,106.4616705,82.8867277,85.4416476
19.8492170,-0.0581939,106.4655479,83.0697305,85.0560641
19.8622950,-0.1196715,106.4655479,83.0697305,85.0560641
19.9128360,-0.1769652,106.3966438,82.8390542,85.3489067
19.9248360,-0.2151326,106.3966438,82.8390542,85.3489067
19.9759870,-0.2207866,106.7471396,82.9141876,86.1013221
19.9883120,-0.1891473,106.7471396,82.9141876,86.1013221
20.0424030,-0.1297614,106.8196669,83.3223366,85.8241800
20.0534490,-0.0663214,106.8196669,83.3223366,85.8241800
20.1085200,-0.0168369,106.8604755,83.1852911,86.3642893
20.1682450,0.0172928,106.8702644,82.9934528,86.3415332
20.1802710,0.0384917,106.8702644,82.9934528,86.3415332
20.2511090,0.0516400,106.8274218,83.3873633,86.4747012
20.3129910,0.0654502,106.3442029,83.2044241,86.1980041
20.3257580,0.0800446,106.3442029,83.2044241,86.1980041
20.3830150,0.0878533,106.9893211,83.2620137,86.7042970
20.4533860,0.0869199,106.8719807,83.2944953,86.6716247
20.5147250,0.0801190,107.0066743,83.3314900,86.4211162
20.5783250,0.0712465,106.7417366,83.2745995,86.5764048
20.6638530,0.0651131,106.8080346,83.1507119,86.4250572
20.7222670,0.0629843,107.0415078,83.0497712,86.6763285
20.7333210,0.0626697,107.0415078,83.0497712,86.6763285
20.7914040,0.0614278,106.4262649,83.4004577,86.4043987
20.8034030,0.0551933,106.4262649,83.4004577,86.4043987
20.8490870,0.0416019,106.8812950,83.3651395,86.5111069
20.8607730,0.0218192,106.8812950,83.3651395,86.5111069
20.9140200,-0.0023823,107.1452733,83.2527452,86.5310488
20.9257340,-0.0251889,107.1452733,83.2527452,86.5310488
20.9956730,-0.0373102,107.0552190,83.3131390,86.6595355
21.0580920,-0.0381411,106.7683958,83.6091127,86.4651647
21.0701040,-0.0369691,106.7683958,83.6091127,86.4651647
21.1300350,-0.0377727,106.8652657,83.4092515,86.8892465
21.1423970,-0.0353302,106.8652657,83.4092515,86.8892465
21.1741000,-0.0275480,107.0395052,83.6496277,86.9847280
21.1861000,-0.0163674,107.0395052,83.6496277,86.9847280
21.2416450,0.0005679,106.8765619,83.8455131,87.3841979
21.2536050,0.0228197,106.8765619,83.8455131,87.3841979
21.3043810,0.0402801,106.5396315,83.7993815,87.1061467
21.3163830,0.0453870,106.5396315,83.7993815,87.1061467
21.4455080,0.0383500,106.0791998,83.0131894,85.9791114
21.4605220,0.0192160,106.0791998,83.0131894,85.9791114
21.4985610,-0.0129649,106.1660987,82.9138584,85.5831756
21.5105230,-0.0548131,106.1660987,82.9138584,85.5831756
21.5615570,-0.1025936,106.2073709,82.9946359,84.6536665
21.5735220,-0.1555754,106.2073709,82.9946359,84.6536665
21.6425020,-0.2030232,106.1773949,82.6455888,85.2951534
21.6584750,-0.2265611,106.1773949,82.6455888,85.2951534
21.6785120,-0.2201215,106.4033826,82.7746434,85.3618579
21.7374740,-0.1868347,106.4531112,82.7831629,85.6498170
21.7511490,-0.1283478,106.4531112,82.7831629,85.6498170
21.8038720,-0.0550322,106.0991417,82.8277168,85.9842231
21.8618310,0.0146887,106.4112079,82.7822794,86.1400353
21.8738300,0.0713512,106.4112079,82.7822794,86.1400353
21.9134140,0.1126859,106.5393159,83.0354033,86.0845008
21.9254110,0.1361574,106.5393159,83.0354033,86.0845008
21.9773890,0.1409945,106.7112836,83.0726997,86.0195002
21.9892220,0.1279769,106.7112836,83.0726997,86.0195002
22.0387690,0.1017381,106.3751735,83.2579200,86.2908620
22.1084100,0.0732381,106.2678910,83.2648618,86.3332702
22.1524380,0.0521836,106.3803484,83.4145526,86.3128865
22.2177820,0.0413911,106.3434936,83.3628676,86.4361353
22.2818740,0.0418508,106.6409188,83.0526947,86.5046068
22.3638410,0.0544047,106.3503092,82.9428878,86.6093651
22.3968710,0.0762951,106.4263537,82.8010854,86.5836804
22.4580230,0.0997958,106.6178846,82.7280071,85.9926795
22.5213790,0.1150768,106.3829989,82.7857503,86.1263410
22.5333780,0.1160910,106.3829989,82.7857503,86.1263410
22.5849760,0.0992305,106.5088981,82.7751483,85.8337120
22.6308710,0.0648119,106.4167613,82.5957339,86.0098448
22.6438730,0.0251204,106.4167613,82.5957339,86.0098448
22.7076320,-0.0038038,106.4008583,82.7092642,86.1373848
22.7583010,-0.0188668,106.4837183,82.8677269,85.9658589
22.8222590,-0.0246845,106.3034835,82.8622996,86.2332450
22.8333050,-0.0234000,106.3034835,82.8622996,86.2332450
22.8729420,-0.0187137,106.4287517,82.9108292,86.3882999
22.8839420,-0.0145816,106.4287517,82.9108292,86.3882999
22.9380120,-0.0110500,106.2912407,83.0716269,86.3728386
22.9495360,-0.0077540,106.2912407,83.0716269,86.3728386
23.0033560,-0.0077428,106.0906853,83.3725230,86.4760192
23.0661790,-0.0136641,106.6289915,83.2107156,86.5496655
23.0785340,-0.0238177,106.6289915,83.2107156,86.5496655
23.1105980,-0.0359032,106.5375489,83.5634861,86.5295974
23.1235980,-0.0494604,106.5375489,83.5634861,86.5295974
23.1775960,-0.0642578,106.7138079,83.8328285,86.5541462
23.2392480,-0.0786113,106.8474694,83.6118894,86.7048466
23.2503230,-0.0894027,106.8474694,83.6118894,86.7048466
23.2928830,-0.0945930,106.4724852,83.5364761,86.3402120
23.3138280,-0.0943604,106.4724852,83.5364761,86.3402120
23.3529170,-0.0862909,106.5208886,83.2471286,86.5878455
23.4166570,-0.0678287,106.3475956,83.3196390,86.4252808
23.4822170,-0.0416710,106.7252303,83.1341032,86.9006058
23.4942180,-0.0080227,106.7252303,83.1341032,86.9006058
23.5295430,0.0314446,106.6802348,83.1985990,86.4273634
23.5413880,0.0639995,106.6802348,83.1985990,86.4273634
23.5951500,0.0786159,107.1626278,83.6332828,86.9129118
23.6564220,0.0771179,107.3770037,83.4668055,87.2603812
23.7210300,0.0617467,106.3674113,83.5446169,86.3181244
23.7688990,0.0349212,106.6194623,83.1487442,86.5123059
23.8360710,0.0089220,106.4534267,83.2884009,86.3373722
23.8970810,-0.0065338,106.4710968,83.2694686,86.6341032
23.9633300,-0.0136035,106.4328537,83.2235895,86.4425723
24.0162190,-0.0182279,106.5237915,83.3389499,86.2813959
24.0716810,-0.0229041,106.4699609,83.2521772,86.1688754
24.0826810,-0.0291891,106.4699609,83.2521772,86.1688754
24.1356240,-0.0363839,106.6813707,83.0073836,86.2921242
24.2039430,-0.0429399,106.3644453,82.9255964,85.8115613
24.2467270,-0.0465870,106.1833270,82.8516345,86.1514578
24.3117950,-0.0388802,106.5431024,82.6188313,86.3238672
24.3247930,-0.0139584,106.5431024,82.6188313,86.3238672
24.3765680,0.0217046,106.2599394,82.8300517,86.3915815
24.3883500,0.0572607,106.2599394,82.8300517,86.3915815
24.4403120,0.0835137,106.5487189,82.8099836,85.9271741
24.4522510,0.0887001,106.5487189,82.8099836,85.9271741
24.4926070,0.0699654,106.2425218,82.7497791,86.2113467
24.5046250,0.0402628,106.2425218,82.7497791,86.2113467
24.5526050,0.0130114,106.0125313,82.7373434,86.0978070
24.6135870,-0.0050817,106.1882832,82.6787594,85.9205514
24.6257030,-0.0110617,106.1882832,82.6787594,85.9205514
24.6809100,-0.0074148,106.1426692,82.7681078,86.2501880
24.6929210,-0.0006801,106.1426692,82.7681078,86.2501880
24.7280590,0.0022419,106.0483083,82.7711153,85.7927318
24.7399850,-0.0031449,106.0483083,82.7711153,85.7927318
24.7955990,-0.0142807,106.2924812,82.7903509,85.9679198
24.8536540,-0.0244757,105.8698622,82.8062657,86.2381579
24.9198610,-0.0311098,106.2601504,82.9175439,86.1426692
24.9308600,-0.0341883,106.2601504,82.9175439,86.1426692
24.9681080,-0.0284261,106.2995614,82.8501253,86.5667920
24.9801210,-0.0083975,106.2995614,82.8501253,86.5667920
25.0319560,0.0168271,106.1950501,82.9573935,86.0562030
25.0986110,0.0297219,106.2944862,82.8442982,85.8602130
25.1608060,0.0261691,106.3684211,82.8530702,86.1301378
25.1733120,0.0128165,106.3684211,82.8530702,86.1301378
25.2044720,-0.0047715,106.0941103,82.4473684,86.1536341
25.2155510,-0.0164239,106.0941103,82.4473684,86.1536341
25.2742710,-0.0119216,106.2439850,82.4002506,85.8832080
25.2856390,0.0056956,106.2439850,82.4002506,85.8832080
25.3376940,0.0225359,105.9293860,82.5672932,85.5569549
25.3487020,0.0240954,105.9293860,82.5672932,85.5569549
25.4039660,0.0068033,106.3885965,82.2796992,85.8014411
25.4486690,-0.0168827,106.3832080,82.2313910,85.8810777
25.5115300,-0.0346277,106.3283835,82.6587719,85.7160401
25.5245900,-0.0448302,106.3283835,82.6587719,85.7160401
25.5736380,-0.0473254,106.7585840,83.0122180,86.1176692
25.6383990,-0.0443360,106.4774169,82.6826552,85.8325246
25.6514460,-0.0437120,106.4774169,82.6826552,85.8325246
25.6898270,-0.0479875,106.0931318,82.5796939,85.6303347
25.7008820,-0.0510838,106.0931318,82.5796939,85.6303347
25.7505940,-0.0467782,106.1522956,82.4278960,85.8378748
25.8134950,-0.0336808,105.7246485,82.4131517,85.6436481
25.8785170,-0.0183085,105.6727013,82.6216250,85.3512505
25.8924880,-0.0103766,105.6727013,82.6216250,85.3512505
25.9270700,-0.0109767,105.8160383,82.5692423,85.5915142
25.9390720,-0.0153081,105.8160383,82.5692423,85.5915142
25.9943160,-0.0199621,105.5640786,82.5527560,85.7767824
26.0567510,-0.0207671,105.6310190,82.4633570,85.3096927
26.1203730,-0.0132099,105.3582283,82.1872992,85.3619348
26.1323730,0.0029531,105.3582283,82.1872992,85.3619348
26.1684530,0.0232029,105.2233753,81.8243761,85.2151594
26.2324560,0.0405648,105.1467754,81.9117247,84.9705955
26.2965490,0.0500402,105.0660366,81.6853842,84.8029404
26.3606440,0.0532029,105.0353348,81.5567087,84.8149246
26.3736080,0.0530879,105.0353348,81.5567087,84.8149246
26.4093110,0.0498061,104.9595379,81.6373857,84.8851001
26.4292680,0.0444638,104.9595379,81.6373857,84.8851001
26.4712400,0.0438480,105.5646158,81.3369780,85.2560539
26.4838290,0.0551045,105.5646158,81.3369780,85.2560539
26.5365800,0.0736439,105.0883370,81.5444774,84.8939338
26.6028520,0.0857737,105.0715962,81.6811218,84.7884853
26.6459260,0.0823454,104.8935014,81.7401161,84.7438844
26.7124050,0.0614743,105.2244255,81.7210279,84.8179516
26.7758660,0.0278065,104.7323944,81.7246726,85.3024463
26.7880050,-0.0036388,104.7323944,81.7246726,85.3024463
26.8386620,-0.0190931,105.0541142,81.9104275,85.1116877
26.8506590,-0.0183844,105.0541142,81.9104275,85.1116877
26.8888050,-0.0074802,105.1210156,81.8030640,85.2328268
26.8997960,0.0056447,105.1210156,81.8030640,85.2328268
26.9525160,0.0089043,105.1447986,82.0503459,85.1216951
27.0137730,-0.0034342,105.3863356,82.0154435,85.0144552
27.0254710,-0.0245407,105.3863356,82.0154435,85.0144552
27.0792890,-0.0476404,105.6388683,82.0280455,84.8248085
27.0912880,-0.0726621,105.6388683,82.0280455,84.8248085
27.1273100,-0.0956152,105.5387942,81.8372869,84.9802323
27.1946000,-0.1056384,105.1920558,81.6707438,84.9291450
27.2548330,-0.0953005,105.2522239,81.5787003,85.1923029
27.2658420,-0.0643892,105.2522239,81.5787003,85.1923029
27.3195660,-0.0195076,105.0260687,81.7812577,85.1072399
27.3648580,0.0230154,105.3622436,81.8725599,84.7386953
27.3758610,0.0444698,105.3622436,81.8725599,84.7386953
27.4329550,0.0400651,105.2029899,81.7735360,85.0693106
27.4958500,0.0202010,105.1946504,81.8125772,85.2034841
27.5068530,-0.0007712,105.1946504,81.8125772,85.2034841
27.5603470,-0.0116266,105.6958858,81.8321596,85.0345318
27.5713370,-0.0080554,105.6958858,81.8321596,85.0345318
27.6067850,0.0040699,105.2647640,82.1074870,85.2160242
27.6178210,0.0128418,105.2647640,82.1074870,85.2160242
27.6708290,0.0133415,105.6703113,81.9152459,85.4680010
27.7330960,0.0076928,105.5002471,82.2824314,84.9584878
27.7449190,-0.0045336,105.5002471,82.2824314,84.9584878
27.8025500,-0.0209849,105.4666420,82.2647640,85.3087472
27.8495860,-0.0317512,105.4558933,82.3476032,85.7748332
27.8612990,-0.0306137,105.4558933,82.3476032,85.7748332
27.9121750,-0.0203458,105.6512231,82.3170250,85.2991722
27.9231740,-0.0045885,105.6512231,82.3170250,85.2991722
27.9738650,0.0165581,105.2176303,81.9449592,85.7126884
27.9855210,0.0422815,105.2176303,81.9449592,85.7126884
28.0401230,0.0614508,105.5107487,82.2364097,85.1085372
28.0511240,0.0615596,105.5107487,82.2364097,85.1085372
28.0884880,0.0526178,105.2787868,81.8375957,85.8024463
28.1518980,0.0488970,105.4836916,81.8114653,85.1174944
28.2174160,0.0418719,105.2614282,82.0678280,85.2819372
28.2305080,0.0263597,105.2614282,82.0678280,85.2819372
28.2788680,0.0162158,105.5050037,82.0544230,85.4786879
28.2909100,0.0155836,105.5050037,82.0544230,85.4786879
28.3243680,0.0129966,105.5570175,82.0090190,85.2097233
28.3448720,0.0044759,105.5570175,82.0090190,85.2097233
28.3969140,-0.0034104,105.7226958,81.9765258,85.5607858
28.4543890,-0.0065269,105.3716333,82.1827279,85.4067210
28.5196400,-0.0063623,105.3395725,82.2623548,85.8291945
28.5664920,-0.0032367,105.6072399,82.4459476,85.7942303
28.6303070,0.0036684,105.8436496,82.4612676,85.8636027
28.6975070,0.0111984,106.2941543,82.6872118,86.1751215
28.7083970,0.0157154,106.2941543,82.6872118,86.1751215
28.7599180,0.0140885,106.1470148,82.8170261,85.8952387
28.7708950,0.0022501,106.1470148,82.8170261,85.8952387
28.8062660,-0.0182754,106.2684781,82.8364078,85.8597781
28.8172660,-0.0418857,106.2684781,82.8364078,85.8597781
28.8742360,-0.0626494,105.9738253,82.7682288,86.1472018
28.8852820,-0.0720891,105.9738253,82.7682288,86.1472018
28.9358310,-0.0640112,106.3822136,82.3919980,86.0146454
28.9488830,-0.0396836,106.3822136,82.3919980,86.0146454
29.0046660,-0.0076124,106.1593544,82.5818272,85.8555403
29.0455100,0.0208294,106.8649508,82.7123894,86.3842702
29.0568370,0.0389427,106.8649508,82.7123894,86.3842702
29.1111450,0.0439577,107.0289235,83.3526157,86.5418763
29.1775610,0.0331688,106.4422158,83.0851358,86.1392731
29.2416540,0.0130845,106.6114814,82.8486544,86.4429703
29.2536530,-0.0023954,106.6114814,82.8486544,86.4429703
29.2900830,-0.0103139,106.8710823,83.1713615,86.4618703
29.3513540,-0.0133517,106.8899251,83.1719325,86.7835300
29.4133700,-0.0082037,107.1228271,83.3499556,86.7644969
29.4246260,0.0026882,107.1228271,83.3499556,86.7644969
29.4799280,0.0104212,107.3158863,83.6491562,87.2737597
29.4926180,0.0142680,107.3158863,83.6491562,87.2737597
29.5263940,0.0148645,107.5173201,83.9276742,86.9603477
29.5383960,0.0060974,107.5173201,83.9276742,86.9603477
29.5933310,-0.0110346,108.1141353,84.0627458,87.4295775
29.6541960,-0.0291161,107.8974749,84.3505900,87.5421901
29.7029660,-0.0452656,108.0839995,84.6597513,87.9831240
29.7138820,-0.0550870,108.0839995,84.6597513,87.9831240
29.7677350,-0.0551062,107.9127449,84.6630757,87.3308133
29.8296240,-0.0516211,108.2605683,84.7600328,87.7662068
29.8956410,-0.0504418,108.0049770,84.5664966,87.6395766
29.9083430,-0.0510552,108.0049770,84.5664966,87.6395766
29.9437970,-0.0511835,108.1143451,84.3885844,87.7987148
29.9558070,-0.0440220,108.1143451,84.3885844,87.7987148
30.0060730,-0.0254083,107.3371133,84.2074592,87.1924022
30.0171010,-0.0037092,107.3371133,84.2074592,87.1924022
30.0730970,0.0133077,107.5501166,83.7404397,87.1914572
30.0840920,0.0259916,107.5501166,83.7404397,87.1914572
30.1389970,0.0381752,107.2738613,83.2383922,87.4011844
30.1499990,0.0589067,107.2738613,83.2383922,87.4011844
30.1849980,0.0938814,106.9634600,83.2206262,87.1909532
30.2443610,0.1339147,107.0366030,83.2308322,86.9920620
30.2572910,0.1629936,107.0366030,83.2308322,86.9920620
30.3102350,0.1687625,106.8512569,83.2797833,86.8336798
30.3222330,0.1447895,106.8512569,83.2797833,86.8336798
30.3733150,0.0975428,106.6439236,82.9065079,86.4621055
30.3843150,0.0444143,106.6439236,82.9065079,86.4621055
30.4233160,0.0018958,106.3790714,82.5825616,86.4034524
30.4348650,-0.0208297,106.3790714,82.5825616,86.4034524
30.4895620,-0.0209905,105.9594280,82.4259434,86.6741637
30.5509700,-0.0014920,105.8903799,82.6385686,86.5874126
30.5621800,0.0275753,105.8903799,82.6385686,86.5874126
30.6129330,0.0527031,106.0580231,82.6603037,86.4389214
30.6606550,0.0625456,105.8129528,82.7505828,86.3646444
30.6716930,0.0511377,105.8129528,82.7505828,86.3646444
30.7277650,0.0199382,106.1051677,82.9328078,86.4837337
30.7921900,-0.0198446,106.1373248,82.7955455,86.5862738
30.8041920,-0.0530329,106.1373248,82.7955455,86.5862738
30.8543220,-0.0698894,105.3629880,82.6472723,86.4089089
30.8663910,-0.0690340,105.3629880,82.6472723,86.4089089
30.9107380,-0.0578861,105.6762387,82.5680681,86.0291542
30.9237020,-0.0488988,105.6762387,82.5680681,86.0291542
30.9667420,-0.0474442,105.5202703,82.3618619,86.2953579
30.9787020,-0.0478437,105.5202703,82.3618619,86.2953579
31.0327330,-0.0470575,105.4162913,82.6007883,86.1502127
31.0948970,-0.0460963,105.3747497,82.4431306,86.1051051
31.1069350,-0.0413712,105.3747497,82.4431306,86.1051051
31.1401710,-0.0334412,105.7221597,82.4976852,86.1856231
31.1545580,-0.0305300,105.7221597,82.4976852,86.1856231
31.2076360,-0.0340460,105.8855105,82.4715966,86.2533784
31.2186830,-0.0368481,105.8855105,82.4715966,86.2533784
31.2700340,-0.0349660,106.1985736,82.6433308,86.4560811
31.3520340,-0.0301327,106.5333458,82.8235110,86.5298423
31.3867390,-0.0252842,106.5135135,82.7382382,86.5215215
31.4489290,-0.0218490,106.4953704,82.8708709,86.6336962
31.4609290,-0.0201438,106.4953704,82.8708709,86.6336962
31.5081570,-0.0216754,106.5606231,83.1450200,86.6027903
31.5199660,-0.0280993,106.5606231,83.1450200,86.6027903
31.5732700,-0.0392865,106.6510886,83.3664915,86.5830205
31.5852950,-0.0550061,106.6510886,83.3664915,86.5830205
31.6200720,-0.0718325,106.8709960,83.2505631,86.8427177
31.6901430,-0.0812692,106.9720971,83.2466842,86.8419670
31.7502580,-0.0788182,106.9839214,83.1550926,86.5322197
31.7612550,-0.0675812,106.9839214,83.1550926,86.5322197
31.8120760,-0.0487886,106.8138138,82.9307432,86.7675801
31.8231230,-0.0221549,106.8138138,82.9307432,86.7675801
31.8630690,0.0063757,106.7444945,82.7299800,86.5381006
31.8754440,0.0314051,106.7444945,82.7299800,86.5381006
31.9283860,0.0537520,106.9686562,82.8373999,86.6715465
31.9922990,0.0706533,107.1684810,82.8213839,86.4408158
32.0542280,0.0755279,107.4491366,82.6051677,86.6160536
32.0654080,0.0703733,107.4491366,82.6051677,86.6160536
32.1019700,0.0589322,107.7922297,82.8611111,86.2623248
32.1139260,0.0384671,107.7922297,82.8611111,86.2623248
32.1671620,0.0124843,107.9230480,83.0987237,86.8029905
32.1791530,-0.0092039,107.9230480,83.0987237,86.8029905
32.2307380,-0.0250968,108.3672422,83.1834960,86.7381131
32.2955350,-0.0357309,108.7312312,83.0471096,86.8459710
32.3464160,-0.0369231,108.4801677,83.5188939,86.8829454
32.4043610,-0.0303856,108.3704955,83.7120245,87.3192568
32.4152450,-0.0223987,108.3704955,83.7120245,87.3192568
32.4703850,-0.0133224,108.8358358,83.5784535,87.6129254
32.4853830,0.0009097,108.8358358,83.5784535,87.6129254
32.5372430,0.0175161,109.1499625,83.8988989,87.1727352
32.5492430,0.0261344,109.1499625,83.8988989,87.1727352
32.5862620,0.0219391,109.0945320,83.9602102,87.5137012
32.6464030,0.0091979,108.8816316,83.6981356,87.3479104
32.6589280,-0.0072777,108.8816316,83.6981356,87.3479104
32.7101650,-0.0192022,108.1489955,83.1372768,87.0017361
32.7221990,-0.0140039,108.1489955,83.1372768,87.0017361
32.7723770,0.0104762,108.1345486,83.0278398,87.1213418
32.8233090,0.0458625,108.4981857,83.2516892,87.6248749
32.8347530,0.0843057,108.4981857,83.2516892,87.6248749
32.8873460,0.1164139,108.3978979,83.1828704,87.1054179
32.9484010,0.1332395,107.8590030,82.5530134,86.8419519
32.9604020,0.1354325,107.8590030,82.5530134,86.8419519
33.0136150,0.1234006,108.1328829,82.9049675,86.6549049
33.0245720,0.0925173,108.1328829,82.9049675,86.6549049
33.0611070,0.0478235,108.5799550,82.8696822,86.5872748
33.0720850,0.0014559,108.5799550,82.8696822,86.5872748
33.1273560,-0.0390372,108.3885761,82.9893644,86.9802928
33.1921780,-0.0685696,108.3578579,82.9986236,86.5855230
33.2546490,-0.0829188,108.3358984,83.0560561,86.9592718
33.2675650,-0.0809362,108.3358984,83.0560561,86.9592718
33.3008880,-0.0655937,108.4090966,83.0578078,87.0225225
33.3630860,-0.0460515,108.6603478,83.4928679,87.2024525
33.4309200,-0.0308647,108.5270270,83.3979605,87.2719595
33.4950910,-0.0218257,108.2664540,83.6048549,87.1592217
33.5427100,-0.0180334,108.0280906,83.4907407,87.4876752
33.6068050,-0.0174390,107.9074074,83.4854229,87.0994119
33.6188160,-0.0187317,107.9074074,83.4854229,87.0994119
33.6714450,-0.0179608,107.9846722,83.1684184,87.4005255
33.6824770,-0.0070969,107.9846722,83.1684184,87.4005255
33.7346880,0.0133672,107.9439439,83.1602853,87.2032032
33.7466850,0.0339751,107.9439439,83.1602853,87.2032032
33.7830090,0.0495507,108.1846847,83.1838088,87.0922798
33.8443120,0.0583551,108.2220345,83.0116366,87.3285160
33.9132620,0.0595586,107.8468468,83.1076076,87.4968093
33.9724640,0.0556728,108.1374499,82.9253003,87.0748248
33.9854620,0.0489611,108.1374499,82.9253003,87.0748248
34.0206890,0.0412084,108.1358859,83.0528654,87.0885260
34.0320400,0.0323539,108.1358859,83.0528654,87.0885260
