ts,p0,p1,p2,p3
1.0183750,0.2194877,108.0031191,93.5745711,96.6871050
1.0314150,0.8697686,107.7576951,93.3123204,96.9304769
1.0733980,1.6813606,108.6447540,94.7082111,100.1533073
1.0853990,2.3311023,108.6447540,94.7082111,100.1533073
1.1370180,2.6676702,130.3793581,116.5439068,120.3402574
1.2011100,2.6066432,129.1022737,115.5354182,118.8945252
1.2121210,2.2566155,129.1022737,115.5354182,118.8945252
1.2673000,1.7297497,129.1854839,115.5547410,119.0456989
1.2806440,1.0407671,129.1854839,115.5547410,119.0456989
1.3451180,0.3079242,129.8327177,116.1483214,119.8972339
1.3569870,-0.2590466,129.8327177,116.1483214,119.8972339
1.4209890,-0.5727789,130.4592465,116.8209801,120.1151605
1.4329530,-0.7045512,130.4592465,116.8209801,120.1151605
1.4735050,-0.7677662,131.0373863,117.1972705,120.2530190
1.4872400,-0.8434563,131.0373863,117.1972705,120.2530190
1.5417190,-0.9602624,130.6181141,117.4131514,120.2988420
1.5537280,-1.0941471,130.6181141,117.4131514,120.2988420
1.6144420,-1.1990415,131.2862696,117.4616212,120.5007444
1.6284630,-1.2456040,131.2862696,117.4616212,120.5007444
1.6764280,-1.2255046,131.2060380,117.5240695,120.7927213
1.6884260,-1.1453722,131.2060380,117.5240695,120.7927213
1.7564660,-1.0248140,130.5201820,117.2601323,120.5177833
1.8210720,-0.8848556,130.5397022,116.8933002,120.2837883
1.8319060,-0.7407038,130.5397022,116.8933002,120.2837883
1.8840420,-0.6151348,130.4655914,116.7272953,119.7226634
1.8958200,-0.5376655,130.4655914,116.7272953,119.7226634
1.9498620,-0.5080208,130.3861042,116.6283706,119.9564103
1.9619010,-0.4963282,130.3861042,116.6283706,119.9564103
2.0148260,-0.4874105,129.6573914,116.1772142,118.9781663
2.0288590,-0.4821769,129.6573914,116.1772142,118.9781663
2.0779440,-0.4630584,129.2184191,116.3138800,119.4325700
2.0895200,-0.4114882,129.2184191,116.3138800,119.4325700
2.1583860,-0.3447500,129.5156365,116.1840269,119.0710827
2.1699690,-0.2864175,129.5156365,116.1840269,119.0710827
2.2216770,-0.2349517,129.8108840,116.4093409,119.1789379
2.2326790,-0.1925313,129.8108840,116.4093409,119.1789379
2.2884220,-0.1727084,129.9923664,116.2298284,119.1765575
2.2992660,-0.1690870,129.9923664,116.2298284,119.1765575
2.3368610,-0.1463125,129.6123287,116.1840269,119.8680949
2.3478600,-0.0656913,129.6123287,116.1840269,119.8680949
2.4031380,0.0667190,129.1934663,116.4034310,119.2832636
2.4141350,0.1987800,129.1934663,116.4034310,119.2832636
2.4677450,0.3006368,129.4154970,116.3316917,119.7942215
2.4788010,0.3707944,129.4154970,116.3316917,119.7942215
2.5463860,0.3875448,129.7234671,116.3725683,119.6271854
2.6115170,0.3655498,129.1421653,116.5366494,120.3902980
2.6235180,0.3856617,129.1421653,116.5366494,120.3902980
2.6733640,0.4710474,129.6252155,116.4709842,120.0737913
2.6843680,0.5537018,129.6252155,116.4709842,120.0737913
2.7375780,0.5988722,129.5932857,116.4995486,120.4040056
2.7482240,0.6165984,129.5932857,116.4995486,120.4040056
2.8032450,0.5658447,129.3554133,116.7718953,119.7402939
2.8140630,0.4052076,129.3554133,116.7718953,119.7402939
2.8688000,0.1882153,129.0849544,116.8317327,120.1681852
2.8807680,-0.0029649,129.0849544,116.8317327,120.1681852
2.9464070,-0.1476127,129.5366494,116.6703603,120.0018058
2.9587180,-0.2458965,129.5366494,116.6703603,120.0018058
3.0096010,-0.2697679,129.2145613,116.6815234,120.1824674
3.0236100,-0.2170053,129.2145613,116.6815234,120.1824674
3.0865670,-0.1495471,129.3938275,116.4143479,119.5442009
3.0981780,-0.1302628,129.3938275,116.4143479,119.5442009
3.1484160,-0.1617835,129.3096118,116.0024624,119.3385045
3.1604620,-0.2159188,129.3096118,116.0024624,119.3385045
3.2101370,-0.2741136,129.4491505,116.2771895,119.6990068
3.2211000,-0.3127513,129.4491505,116.2771895,119.6990068
3.2735630,-0.2978395,128.9347451,116.0238857,119.6664204
3.2845610,-0.2179079,128.9347451,116.0238857,119.6664204
3.3547560,-0.0993824,129.8031683,116.0549947,119.8201592
3.4186610,0.0197522,129.3742100,116.3030452,119.9949930
3.4306580,0.1174043,129.3742100,116.3030452,119.9949930
3.4821460,0.1709113,129.5451038,115.8944431,119.3393253
3.4947950,0.1508909,129.5451038,115.8944431,119.3393253
3.5477820,0.0782507,129.3479439,116.0251990,119.9551014
3.5597820,0.0183891,129.3479439,116.0251990,119.9551014
3.6128840,0.0017182,129.1742592,115.7591726,119.6241484
3.6259910,0.0253485,129.1742592,115.7591726,119.6241484
3.6669410,0.0768719,129.1679389,115.8021013,119.1859969
3.6789500,0.1073084,129.1679389,115.8021013,119.1859969
3.7434500,0.0640306,128.9549372,115.7613888,119.1203316
3.8074490,-0.0332419,128.5039810,115.6986785,119.5621768
3.8193660,-0.1124797,128.5039810,115.6986785,119.5621768
3.8735070,-0.1291512,129.5168678,115.4568661,119.3425265
3.8846730,-0.0842627,129.5168678,115.4568661,119.3425265
3.9357970,-0.0132790,128.6573914,115.3201182,118.6151194
3.9468580,0.0187143,128.6573914,115.3201182,118.6151194
4.0002560,-0.0306717,129.0844620,115.4448822,119.0949684
4.0122640,-0.1309820,129.0844620,115.4448822,119.0949684
4.0652580,-0.2126956,128.8707215,115.2793236,119.2671756
4.0778940,-0.2201134,128.8707215,115.2793236,119.2671756
4.1458060,-0.1407069,128.5181811,115.6035459,119.1711401
4.1570800,-0.0175966,128.5181811,115.6035459,119.1711401
4.2103860,0.0873330,128.9088894,115.4776328,119.0935730
4.2223900,0.1321462,128.9088894,115.4776328,119.0935730
4.2706900,0.1087990,129.0076336,115.8429779,119.6024789
4.2816880,0.0527486,129.0076336,115.8429779,119.6024789
4.3379530,0.0117308,128.7747681,115.9709431,119.6327670
4.3489230,0.0076826,128.7747681,115.9709431,119.6327670
4.4023170,0.0335148,129.2667652,116.0662398,119.6575556
4.4141880,0.0590405,129.2667652,116.0662398,119.6575556
4.4641790,0.0573026,128.4613806,116.1079373,119.5556924
4.4761900,0.0291699,128.4613806,116.1079373,119.5556924
4.5455170,-0.0107838,128.4379874,115.6894853,119.2158746
4.5566060,-0.0469382,128.4379874,115.6894853,119.2158746
4.6081100,-0.0452425,128.2545350,115.5369778,119.6973652
4.6191080,0.0321020,128.2545350,115.5369778,119.6973652
4.6705630,0.1550149,128.6723303,115.0122302,118.7177214
4.6815630,0.2387820,128.6723303,115.0122302,118.7177214
4.7349990,0.2564919,127.8490520,115.0023804,118.8814742
4.7470360,0.2317875,127.8490520,115.0023804,118.8814742
4.8021150,0.1478246,128.0372650,114.9638020,118.3449068
4.8131170,-0.0026535,128.0372650,114.9638020,118.3449068
4.8654420,-0.1395374,128.4303538,115.0480177,119.1905114
4.8785310,-0.1840491,128.4303538,115.0480177,119.1905114
4.9455590,-0.1614941,128.6012476,115.5542149,119.1278010
5.0081360,-0.1267922,128.8840187,115.6663383,119.4834606
5.0201350,-0.0756109,128.8840187,115.6663383,119.4834606
5.0737780,-0.0184108,129.0701798,116.0392350,119.6290733
5.0848260,-0.0141784,129.0701798,116.0392350,119.6290733
5.1355410,-0.0702234,129.0020520,116.2840844,119.8552902
5.1495410,-0.1340227,129.0020520,116.2840844,119.8552902
5.2073800,-0.1748084,129.1114668,116.1631782,119.8032504
5.2184550,-0.1887089,129.1114668,116.1631782,119.8032504
5.2647770,-0.1833787,129.0038578,116.0078798,119.3316096
5.2785620,-0.1839264,129.0038578,116.0078798,119.3316096
5.3306930,-0.1981214,129.1761471,115.7769843,119.5827793
5.3416970,-0.2032351,129.1761471,115.7769843,119.5827793
5.4090720,-0.1836866,129.0427645,115.6136420,119.4519412
5.4707190,-0.0748079,129.1561192,113.5392760,119.9955676
5.4820860,0.2635308,129.1561192,113.5392760,119.9955676
5.5711700,1.0026602,119.9537060,104.2056144,112.1522613
5.5844390,2.4980317,119.9537060,104.2056144,112.1522613
5.6643920,6.6298188,119.7570385,104.2546992,112.4635147
5.6773910,34.1461793,119.7570385,104.2546992,112.4635147
5.7836510,71.7052661,119.4754986,104.1882952,112.7665600
5.8013530,60.0337927,119.4754986,104.1882952,112.7665600
5.8724130,7.6078066,120.0654190,104.1280473,113.1995403
5.8841800,-35.7777798,120.0654190,104.1280473,113.1995403
5.9712860,-55.0679470,120.1761471,104.3051793,112.8031683
5.9852000,-54.8427749,120.1761471,104.3051793,112.8031683
6.0660880,-45.4294602,120.2860543,104.1791020,112.7343840
6.0790870,-35.1587319,120.2860543,104.1791020,112.7343840
6.1847790,-28.1434536,120.4668801,104.0182221,112.8696544
6.2047760,-24.5064900,120.4668801,104.0182221,112.8696544
6.2725260,-21.7625342,119.9303948,103.9924485,113.0465403
6.2845510,-17.6260645,119.9303948,103.9924485,113.0465403
6.3702480,-11.9339532,120.3604203,104.0414512,113.1740951
6.3856640,-5.9388120,120.3604203,104.0414512,113.1740951
6.4646050,-0.9113954,120.8722810,104.1741771,113.1194287
6.4776490,2.3301637,120.8722810,104.1741771,113.1194287
6.5986840,3.5309899,120.5985389,104.4339654,113.0769925
6.6146500,3.1100627,120.5985389,104.4339654,113.0769925
6.6736470,2.1284003,120.8676845,104.4039235,113.6376919
6.6856460,1.9875025,120.8676845,104.4039235,113.6376919
6.7672260,3.4110333,120.8251662,104.6480341,113.5534762
6.7802260,5.8685677,120.8251662,104.6480341,113.5534762
6.8655650,8.4027530,120.4448001,104.5503571,113.2670114
6.8805640,10.2403933,120.4448001,104.5503571,113.2670114
6.9889260,10.8083981,120.6205368,104.1976525,113.0207666
7.0069570,10.0677636,120.6205368,104.1976525,113.0207666
7.0746220,8.8147008,120.5364853,104.0206846,113.3499138
7.0855310,8.1064259,120.5364853,104.0206846,113.3499138
7.1714630,8.1251255,121.1394566,103.6762702,113.0870065
7.1874640,8.2748496,121.1394566,103.6762702,113.0870065
7.2645280,8.1794924,120.7404580,104.1139292,113.0115735
7.2771210,7.5757729,120.7404580,104.1139292,113.0115735
7.3607480,5.5565089,121.6658459,104.2292539,113.0493310
7.3747160,1.1611718,121.6658459,104.2292539,113.0493310
7.4759390,-5.6071644,121.3636214,104.1617007,112.9490273
7.4905880,-14.5722879,121.3636214,104.1617007,112.9490273
7.5750770,-25.7924854,120.8912419,104.1975704,112.8690799
7.5870870,-34.9396980,120.8912419,104.1975704,112.8690799
7.6643000,-34.5509890,120.7996388,103.7901174,112.5637364
7.6760510,-24.4836790,120.7996388,103.7901174,112.5637364
7.7632880,-10.1122897,119.9759501,103.5226956,112.3879176
7.7783780,4.8029922,119.9759501,103.5226956,112.3879176
7.8806900,16.7567908,120.2698843,103.3651810,112.1607978
7.8976850,23.2114168,120.2698843,103.3651810,112.1607978
7.9677570,25.3413222,120.3595994,103.1445457,112.6293195
7.9816850,25.9097291,120.3595994,103.1445457,112.6293195
8.0738030,25.9770020,120.1509480,103.5078388,112.7490766
8.0845760,25.6569894,120.1509480,103.5078388,112.7490766
8.1603000,25.3223448,120.6674054,103.3499959,113.1890339
8.1713380,24.8940875,120.6674054,103.3499959,113.1890339
8.2824490,23.8765183,120.4228023,103.5006977,113.4013790
8.3004420,22.1264294,120.4228023,103.5006977,113.4013790
8.3684890,19.8067172,119.7399708,103.3986519,112.7358291
8.3794980,17.0503560,119.7399708,103.3986519,112.7358291
8.4643630,13.9878710,119.6820692,103.0075524,112.3608088
8.4790410,10.7284833,119.6820692,103.0075524,112.3608088
8.5706940,7.4104239,119.5798278,102.5901413,112.3654377
8.5818010,4.3316192,119.5798278,102.5901413,112.3654377
8.6850530,1.6889353,119.7774078,102.5797466,112.0407666
8.6997930,-0.6115981,119.7774078,102.5797466,112.0407666
8.7683140,-2.5429178,119.4123762,102.8145201,112.3596719
8.7812510,-3.9475352,119.4123762,102.8145201,112.3596719
8.8663000,-4.9022879,119.2303070,102.8060744,112.3064804
8.8807440,-5.4910214,119.2303070,102.8060744,112.3064804
8.9613770,-5.6809953,119.2489849,102.8646256,112.1762222
8.9723030,-5.6694748,119.2489849,102.8646256,112.1762222
9.0790620,-5.8091728,119.1842618,102.8841156,112.0951762
9.0940570,-6.2464559,119.1842618,102.8841156,112.0951762
9.1699950,-6.8530091,119.4150560,103.0335391,112.4749066
9.1820210,-7.3432413,119.4150560,103.0335391,112.4749066
9.2669910,-7.5313774,119.3842781,102.9523307,112.2316875
9.2839900,-7.4686102,119.3842781,102.9523307,112.2316875
9.3722090,-9.5984638,117.1194391,103.1564313,107.4431012
9.3842960,-9.0830548,117.1194391,103.1564313,107.4431012
9.4551310,1.5225763,107.0705996,93.7873952,96.5453740
9.4667750,12.5615478,107.0705996,93.7873952,96.5453740
9.5218050,14.6886988,106.9015358,93.3912174,96.0891857
9.5328500,10.8215973,106.9015358,93.3912174,96.0891857
9.5835920,5.2341915,106.6475764,93.5787874,96.6128619
9.5969810,0.6463927,106.6475764,93.5787874,96.6128619
9.6324260,-2.0950893,106.6934890,93.6345385,96.8565829
9.6448810,-3.2873449,106.6934890,93.6345385,96.8565829
9.6968920,-3.6107824,106.5843065,93.6911694,96.7803551
9.7081630,-3.6523020,106.5843065,93.6911694,96.7803551
9.7592830,-3.7471123,106.7629179,93.6946089,96.4388098
9.8420610,-3.9935882,106.8007519,94.0220765,96.8115502
9.8539320,-4.3391431,106.8007519,94.0220765,96.8115502
9.9064090,-4.6698632,106.4101744,93.8717005,97.2580387
9.9177100,-4.8826538,106.4101744,93.8717005,97.2580387
9.9683920,-4.9409813,106.9629659,93.8709806,96.9910414
9.9813920,-4.8718083,106.9629659,93.8709806,96.9910414
10.0341580,-4.7234304,106.8252280,93.7915534,96.8802592
10.0471620,-4.5482976,106.8252280,93.7915534,96.8802592
10.0971960,-4.3883415,106.7492401,93.5918253,96.8561830
10.1082420,-4.2381630,106.7492401,93.5918253,96.8561830
10.1661850,-4.0562821,106.6854103,93.3513038,96.8111502
10.2391200,-3.8211701,106.5535114,93.3629019,96.5601504
10.2510390,-3.5470354,106.5535114,93.3629019,96.5601504
10.3051970,-3.2643255,106.5960646,93.4220125,96.4092945
10.3165000,-3.0009020,106.5960646,93.4220125,96.4092945
10.3679170,-2.7594786,106.4096145,93.4852824,96.8281075
10.3809250,-2.5158953,106.4096145,93.4852824,96.8281075
10.4334740,-2.2489283,106.9475284,93.3557831,96.8533835
10.4454720,-1.9554179,106.9475284,93.3557831,96.8533835
10.4997520,-1.6541879,107.2673172,93.5088786,96.5139178
10.5112880,-1.3895204,107.2673172,93.5088786,96.5139178
10.5634500,-1.1749612,106.9529675,93.4476084,97.4726444
10.6414070,-0.9767975,106.6502960,93.8575428,97.0849464
10.6524080,-0.7845359,106.6502960,93.8575428,97.0849464
10.7060430,-0.5990734,107.2639578,93.8479443,97.2398016
10.7170030,-0.4011507,107.2639578,93.8479443,97.2398016
10.7690960,-0.2118344,107.1254199,93.7623580,97.0263158
10.7820570,-0.0832590,107.1254199,93.7623580,97.0263158
10.8391620,-0.0203384,106.8364262,93.5263958,96.4405695
10.8503860,0.0007440,106.8364262,93.5263958,96.4405695
10.8960990,0.0037875,106.4846425,93.1139818,96.2814750
10.9615610,0.0181112,106.3761512,92.6302795,95.9622896
11.0382160,0.0536407,106.0987615,92.8609876,95.6942680
11.0504620,0.0987720,106.0987615,92.8609876,95.6942680
11.1044930,0.1481676,105.9480788,92.5459670,95.4474436
11.1165960,0.1977717,105.9480788,92.5459670,95.4474436
11.1755900,0.2364954,105.5589870,92.6927596,95.6523500
11.1875990,0.2674963,105.5589870,92.6927596,95.6523500
11.2338620,0.3084029,106.4656240,92.5461258,95.8257383
11.2460480,0.3667180,106.4656240,92.5461258,95.8257383
11.2963500,0.4342404,106.1336932,92.7122896,95.9203715
11.3084510,0.4963322,106.1336932,92.7122896,95.9203715
11.3601010,0.5377558,106.1026516,92.9279136,96.0323118
11.4431080,0.5360170,105.9644332,93.5401715,95.6559225
11.4561040,0.4667355,105.9644332,93.5401715,95.6559225
11.5165330,0.3476771,106.8494760,93.4587171,96.4657034
11.5297450,0.2336877,106.8494760,93.4587171,96.4657034
11.5832070,0.1628757,107.3122420,93.5966180,96.9152906
11.5942050,0.1562203,107.3122420,93.5966180,96.9152906
11.6448390,0.2196898,107.3541601,93.7195141,96.6769609
11.6558390,0.3123038,107.3541601,93.7195141,96.6769609
11.7106130,0.3742164,107.1429025,93.8139886,96.8324865
11.7216130,0.3807984,107.1429025,93.8139886,96.8324865
11.7722770,0.3419338,107.2723087,94.0571610,97.2364243
11.8410770,0.2877705,107.2229279,94.1531439,97.2120514
11.8521140,0.2494610,107.2229279,94.1531439,97.2120514
11.9188530,0.2270876,107.3831375,94.2546046,96.9102890
11.9312680,0.1944152,107.3831375,94.2546046,96.9102890
11.9816000,0.1472696,107.3276437,94.1130518,97.5231820
11.9937370,0.1132414,107.3276437,94.1130518,97.5231820
12.0445880,0.1073509,107.4198158,94.2923944,97.4851540
12.0555860,0.1254689,107.4198158,94.2923944,97.4851540
12.1104190,0.1614092,107.0481899,94.4907907,97.2467450
12.1234210,0.1850002,107.0481899,94.4907907,97.2467450
12.1789720,0.1547233,107.3185138,93.9345824,96.9195776
12.2415520,0.0753801,107.0072245,94.3080343,97.3739282
12.2525610,-0.0087823,107.0072245,94.3080343,97.3739282
12.3052590,-0.0592030,107.2276119,93.9946809,97.2940616
12.3163030,-0.0576636,107.2276119,93.9946809,97.2940616
12.3703340,-0.0191897,106.3398698,93.7634170,96.5416005
12.3813330,0.0129288,106.3398698,93.7634170,96.5416005
12.4348370,0.0172830,106.9133058,93.5200064,97.0301683
12.5032080,0.0097461,106.7471419,93.2166561,96.6432201
12.5142100,0.0032647,106.7471419,93.2166561,96.6432201
12.5617270,0.0034169,106.2560337,93.4068752,96.5739917
12.6257850,0.0219614,106.9352969,93.3393935,96.7645284
12.6374420,0.0518322,106.9352969,93.3393935,96.7645284
12.7053170,0.0625440,106.3552715,93.2431724,96.3958399
12.7164940,0.0380891,106.3552715,93.2431724,96.3958399
12.7698070,-0.0106507,106.6569546,93.2621467,96.4412512
12.7828070,-0.0660641,106.6569546,93.2621467,96.4412512
12.8422190,-0.1104801,106.3232772,93.2985869,96.7438076
12.8532190,-0.1233854,106.3232772,93.2985869,96.7438076
12.8977100,-0.0991090,106.6270245,93.2859638,96.6525087
12.9087080,-0.0542949,106.6270245,93.2859638,96.6525087
12.9624490,-0.0064860,106.6798190,93.6283741,96.9340267
13.0335500,0.0272952,106.6667990,93.7421404,96.9798349
13.0461880,0.0279074,106.6667990,93.7421404,96.9798349
13.1141220,-0.0033721,106.6335345,93.5808193,96.8186726
13.1260720,-0.0451630,106.6335345,93.5808193,96.8186726
13.1809920,-0.0802877,107.0317561,93.5386631,96.8890124
13.1920050,-0.1027484,107.0317561,93.5386631,96.8890124
13.2420550,-0.1164222,106.8994919,93.7148301,96.8067641
13.2537010,-0.1310425,106.8994919,93.7148301,96.8067641
13.3054800,-0.1446442,106.7960464,93.5646237,96.9591140
13.3170560,-0.1431706,106.7960464,93.5646237,96.9591140
13.3697070,-0.1260446,106.6856939,93.5380279,96.6981581
13.4335480,-0.1004077,106.5027787,93.4123531,96.7830264
13.4453030,-0.0606712,106.5027787,93.4123531,96.7830264
13.5183870,-0.0215229,105.8192283,93.7241982,96.3089870
13.5316800,-0.0247856,105.8192283,93.7241982,96.3089870
13.5767560,-0.0692190,106.2469038,93.5284217,96.7808034
13.5886620,-0.1086066,106.2469038,93.5284217,96.7808034
13.6425040,-0.1220515,106.4777707,93.8446332,96.9842013
13.6551970,-0.1088192,106.4777707,93.8446332,96.9842013
13.7072770,-0.0674680,106.5331057,93.9580025,96.6984757
13.7192590,-0.0267963,106.5331057,93.9580025,96.6984757
13.7733010,-0.0184703,106.3182756,93.8739282,97.0570022
13.8296020,-0.0371190,106.9417275,94.1107494,97.0069070
13.8416010,-0.0694132,106.9417275,94.1107494,97.0069070
13.9059040,-0.0919477,107.0854239,94.0126231,97.4107653
13.9196360,-0.0662551,107.0854239,94.0126231,97.4107653
14.0398820,-0.0026843,106.9986504,93.6079708,96.6024135
14.0528510,0.0449545,106.9986504,93.6079708,96.6024135
14.0979490,0.0460065,106.2481740,93.7368212,95.9020324
14.1094490,-0.0129315,106.2481740,93.7368212,95.9020324
14.1745110,-0.1286208,106.1427437,93.8330422,96.1128930
14.2450260,-0.2344475,106.1872023,93.3266116,97.3543188
14.2560260,-0.2314105,106.1872023,93.3266116,97.3543188
14.3049020,-0.0891574,106.2237218,93.4641950,96.7964433
14.3164040,0.1466761,106.2237218,93.4641950,96.7964433
14.3835730,0.4296858,106.0474754,93.3390759,97.1852969
14.3955720,0.6934562,106.0474754,93.3390759,97.1852969
14.4500980,0.8200180,105.5825659,93.3724198,96.7509527
14.4632280,0.7705618,105.5825659,93.3724198,96.7509527
14.5129710,0.6317912,106.3751191,93.3408225,96.8393141
14.5249690,0.4748944,106.3751191,93.3408225,96.8393141
14.5974240,0.3144531,106.0396951,93.4683233,97.1558431
14.6087550,0.1768920,106.0396951,93.4683233,97.1558431
14.6657250,0.0824651,105.9606224,93.4926961,96.6567164
14.6780970,0.0094039,105.9606224,93.4926961,96.6567164
14.7295810,-0.0599242,105.9699111,93.3427279,96.6607653
14.7415310,-0.1284607,105.9699111,93.3427279,96.6607653
14.7927230,-0.2049509,105.1854216,92.8914106,96.1665091
14.8045650,-0.2767476,105.1854216,92.8914106,96.1665091
14.8727210,-0.3138668,105.4101655,92.9652482,96.1260047
14.8838810,-0.3149442,105.4101655,92.9652482,96.1260047
14.9412000,-0.2922142,105.0049280,92.4813830,96.0786139
14.9526800,-0.2429165,105.0049280,92.4813830,96.0786139
15.0008210,-0.1952390,105.5285513,92.6322747,95.3406602
15.0143360,-0.2057305,105.5285513,92.6322747,95.3406602
15.0819190,-0.2804984,105.6069305,92.6199155,95.4030820
15.0950250,-0.3863062,105.6069305,92.6199155,95.4030820
15.1458820,-0.4966873,105.5202597,92.9747340,95.8770338
15.1588980,-0.5709104,105.5202597,92.9747340,95.8770338
15.2073760,-0.5623518,105.6145181,93.0757196,96.0481070
15.2189070,-0.4682801,105.6145181,93.0757196,96.0481070
15.2916030,-0.3367696,105.7599343,93.3972153,95.8017053
15.3032030,-0.2306730,105.7599343,93.3972153,95.8017053
15.3533510,-0.1669334,105.3182103,93.2509387,96.5123592
15.3667530,-0.1071685,105.3182103,93.2509387,96.5123592
15.4207970,-0.0326606,105.9733260,93.2682259,96.2025188
15.4317970,0.0444837,105.9733260,93.2682259,96.2025188
15.4891130,0.1259141,105.7686952,93.2864518,96.1250782
15.5001060,0.1954894,105.7686952,93.2864518,96.1250782
15.5536630,0.2115726,105.8293961,93.0155663,96.0623436
15.5662580,0.1766270,105.8293961,93.0155663,96.0623436
15.6224540,0.1322025,105.3806320,92.9842772,95.7212922
15.6334510,0.1009536,105.3806320,92.9842772,95.7212922
15.7817940,0.0846188,104.7451502,92.6260951,95.3235294
15.7987890,0.0771696,104.7451502,92.6260951,95.3235294
15.8237880,0.0718312,104.3556790,92.6463548,95.4502503
15.8358250,0.0743283,104.3556790,92.6463548,95.4502503
15.8887900,0.0876188,103.9450876,92.8466051,95.1342303
15.8997880,0.0959724,103.9450876,92.8466051,95.1342303
15.9633840,0.0935264,104.7288798,92.5337140,95.4194305
15.9756520,0.0919289,104.7288798,92.5337140,95.4194305
16.0325050,0.0826978,105.1177253,92.8566959,95.1774093
16.0445020,0.0479399,105.1177253,92.8566959,95.1774093
16.0922610,-0.0107510,105.0339487,93.1404099,94.8223561
16.1050890,-0.0938978,105.0339487,93.1404099,94.8223561
16.1766590,-0.1808392,104.7841834,93.0881571,96.2948217
16.1876940,-0.2055033,104.7841834,93.0881571,96.2948217
16.2362510,-0.1281894,105.3454318,92.9956195,96.1110763
16.2482640,0.0363249,105.3454318,92.9956195,96.1110763
16.3012010,0.2543218,104.9939768,92.8198529,95.4935075
16.3132030,0.4441371,104.9939768,92.8198529,95.4935075
16.3692780,0.5107946,104.9328849,93.0032854,96.1034887
16.3832410,0.4592642,104.9328849,93.0032854,96.1034887
16.4285220,0.3533645,105.0079005,93.0407541,95.6284418
16.4395240,0.2347651,105.0079005,93.0407541,95.6284418
16.4916120,0.1402483,105.1490926,92.8381571,95.7666615
16.5031990,0.0862730,105.1490926,92.8381571,95.7666615
16.5736630,0.0517061,105.7601690,92.7582134,95.9637046
16.5844510,0.0276690,105.7601690,92.7582134,95.9637046
16.6394380,0.0343668,105.5510795,92.8528630,96.1458855
16.6510230,0.0775291,105.5510795,92.8528630,96.1458855
16.6952790,0.1297816,105.7368586,93.1431477,96.2104975
16.7073130,0.1579512,105.7368586,93.1431477,96.2104975
16.7520860,0.1429929,106.1559762,93.4610451,96.2617334
16.7641330,0.0786836,106.1559762,93.4610451,96.2617334
16.8171510,-0.0298024,105.9730131,93.4422716,95.9382822
16.8290620,-0.1629570,105.9730131,93.4422716,95.9382822
16.8823640,-0.2923295,106.3191489,93.4844337,95.8916615
16.8945130,-0.3948507,106.3191489,93.4844337,95.8916615
16.9595830,-0.4514367,105.9794274,93.2150344,96.0122028
16.9709710,-0.4477130,105.9794274,93.2150344,96.0122028
17.0292520,-0.3863066,105.6784262,93.3127347,96.1121715
17.0412790,-0.2843709,105.6784262,93.3127347,96.1121715
17.0903490,-0.1659475,105.4482165,93.2139393,95.7514080
17.1033470,-0.0636744,105.4482165,93.2139393,95.7514080
17.1545130,0.0081426,105.7659574,92.7786295,96.2223091
17.1675000,0.0720305,105.7659574,92.7786295,96.2223091
17.2173650,0.1381121,105.4050375,92.7254380,95.6558980
17.2293970,0.1912137,105.4050375,92.7254380,95.6558980
17.2823670,0.2322487,105.4313204,92.8778942,95.9531446
17.2947860,0.2605295,105.4313204,92.8778942,95.9531446
17.3648250,0.2406823,105.8688204,92.6648936,95.3089018
17.3765840,0.1521494,105.8688204,92.6648936,95.3089018
17.4326110,0.0413533,105.9279568,92.3253285,95.7665050
17.4445940,-0.0278564,105.9279568,92.3253285,95.7665050
17.4960220,-0.0427716,105.4830257,92.6224186,95.7424906
17.5080310,-0.0188474,105.4830257,92.6224186,95.7424906
17.5600600,0.0392095,105.6889862,92.6202284,95.7374844
17.5720570,0.1080491,105.6889862,92.6202284,95.7374844
17.6254550,0.1359781,104.9950720,92.7304443,95.3378442
17.6374590,0.0964071,104.9950720,92.7304443,95.3378442
17.6915030,0.0049195,105.2974812,92.8994055,95.2320088
17.7024970,-0.1117676,105.2974812,92.8994055,95.2320088
17.7678630,-0.2222750,105.1618429,92.9955413,95.6571496
17.7807170,-0.2909592,105.1618429,92.9955413,95.6571496
17.8335320,-0.3033974,105.5373123,92.9770025,95.5192428
17.8454720,-0.2722995,105.5373123,92.9770025,95.5192428
17.8944690,-0.2084935,105.0603880,92.7479662,95.5964487
17.9054210,-0.1213617,105.0603880,92.7479662,95.5964487
17.9613710,-0.0245005,105.3655350,92.4371089,95.9775501
17.9724070,0.0873438,105.3655350,92.4371089,95.9775501
18.0295170,0.2086555,105.9030038,92.4084793,95.3197747
18.0410040,0.2931781,105.9030038,92.4084793,95.3197747
18.0894790,0.3218790,104.8652222,92.4916302,96.0007040
18.1005360,0.3261858,104.8652222,92.4916302,96.0007040
18.1711500,0.3081088,105.4161452,92.4675375,95.4832603
18.1830930,0.2552454,105.4161452,92.4675375,95.4832603
18.2245880,0.2021329,104.7920839,92.7176158,95.6516740
18.2368430,0.1666508,104.7920839,92.7176158,95.6516740
18.2904100,0.1064576,105.0750939,92.9565081,95.5596840
18.3022480,0.0005850,105.0750939,92.9565081,95.5596840
18.4273740,-0.1184584,105.0382509,93.1185075,95.3973717
18.4403720,-0.2254125,105.0382509,93.1185075,95.3973717
18.4954100,-0.3219037,105.5699312,93.2909105,95.3505163
18.5083740,-0.4092032,105.5699312,93.2909105,95.3505163
18.5593740,-0.4714077,105.1495620,93.3886108,95.6499531
18.5723730,-0.4879560,105.1495620,93.3886108,95.6499531
18.6263770,-0.4545473,105.5865926,93.1248436,95.5250313
18.6393740,-0.3819480,105.5865926,93.1248436,95.5250313
18.7034140,-0.2856166,106.0808824,93.2969337,95.6681790
18.7163840,-0.1878033,106.0808824,93.2969337,95.6681790
18.7723900,-0.0961998,105.5454474,93.0155663,96.3586514
18.7843880,0.0122871,105.5454474,93.0155663,96.3586514
18.8324750,0.1488491,105.7390488,93.0549906,96.2410044
18.8445120,0.2980505,105.7390488,93.0549906,96.2410044
18.9111430,0.4454347,105.8696026,93.0409105,96.2381101
18.9221760,0.5592658,105.8696026,93.0409105,96.2381101
18.9750400,0.5907066,105.3895494,93.1966521,96.3196183
18.9865450,0.5382751,105.3895494,93.1966521,96.3196183
19.0486110,0.4518392,105.3696809,92.8908792,96.2377190
19.0605740,0.3784542,105.3696809,92.8908792,96.2377190
19.1153610,0.3322056,105.4808354,92.9886577,96.1521433
19.1276490,0.2971742,105.4808354,92.9886577,96.1521433
19.1917520,0.2464766,105.6280507,93.1937578,96.0036765
19.2027490,0.1576940,105.6280507,93.1937578,96.0036765
19.2607010,0.0432996,105.8117178,93.3478567,96.7905194
19.2727010,-0.0462367,105.8117178,93.3478567,96.7905194
19.3199590,-0.0978721,105.7109668,93.3993273,95.8113267
19.3326730,-0.1512753,105.7109668,93.3993273,95.8113267
19.4011070,-0.2103205,105.8124218,93.4980444,96.5008605
19.4131070,-0.2505564,105.8124218,93.4980444,96.5008605
19.4660320,-0.2852085,106.0803348,93.4931946,96.3118742
19.4790710,-0.3203991,106.0803348,93.4931946,96.3118742
19.5268590,-0.3147522,105.7127660,93.4442272,96.5206508
19.5389070,-0.2488830,105.7127660,93.4442272,96.5206508
19.6073720,-0.1605209,105.9054287,93.3351064,96.4557259
19.6192970,-0.0840150,105.9054287,93.3351064,96.4557259
19.6736210,-0.0251283,105.8144556,93.4451658,96.2852003
19.6848250,0.0070214,105.8144556,93.4451658,96.2852003
19.7368830,0.0013478,105.3438673,93.3922090,96.2055695
19.7488940,-0.0328758,105.3438673,93.3922090,96.2055695
19.8231000,-0.0758260,105.4132509,93.2401439,96.0772059
19.8699940,-0.1137185,105.9057416,93.1342303,95.9137985
19.8838550,-0.1400303,105.9057416,93.1342303,95.9137985
19.9361760,-0.1543536,105.5692272,93.3535670,96.0661765
19.9481680,-0.1601220,105.5692272,93.3535670,96.0661765
19.9991310,-0.1633136,106.1260169,93.3207134,96.0039894
20.0111310,-0.1672371,106.1260169,93.3207134,96.0039894
20.1597790,-0.1654133,104.6246871,93.1497184,95.6464330
20.1758220,-0.1512923,104.6246871,93.1497184,95.6464330
20.2127770,-0.1300658,104.8159418,93.1796777,95.5911295
20.2247790,-0.1096286,104.8159418,93.1796777,95.5911295
20.2707780,-0.0878053,105.4816959,92.8280663,95.5648467
20.2837780,-0.0602728,105.4816959,92.8280663,95.5648467
20.3338150,-0.0156708,104.4351533,92.8321339,96.1555069
20.3486800,0.0727026,104.4351533,92.8321339,96.1555069
20.4130630,0.2085624,105.0503755,92.6984512,95.8954161
20.4241090,0.3576900,105.0503755,92.6984512,95.8954161
20.4797310,0.4822934,105.0000777,92.3379407,95.4428483
20.4907150,0.5404865,105.0000777,92.3379407,95.4428483
20.5453430,0.4964146,104.7501941,92.3618574,95.5237615
20.5563430,0.3744973,104.7501941,92.3618574,95.5237615
20.6075300,0.2350875,104.8804939,92.2373816,95.2180463
20.6194920,0.1140927,104.8804939,92.2373816,95.2180463
20.6697080,0.0338835,105.1197391,92.2751980,95.7289175
20.6819930,0.0087539,105.1197391,92.2751980,95.7289175
20.7333670,0.0260012,105.1602733,92.2909613,95.7730238
20.7462210,0.0662722,105.1602733,92.2909613,95.7730238
20.8148490,0.1083120,105.4430036,92.2633949,95.2174251
20.8264900,0.1088188,105.4430036,92.2633949,95.2174251
20.8800420,0.0460191,105.5701196,92.4603199,95.8035409
20.8910880,-0.0483910,105.5701196,92.4603199,95.8035409
20.9439910,-0.1377891,105.1909458,92.7070974,95.7791583
20.9555150,-0.1983649,105.1909458,92.7070974,95.7791583
21.0086120,-0.2096892,105.4844696,92.8216338,95.8182948
21.0206180,-0.1847377,105.4844696,92.8216338,95.8182948
21.0718080,-0.1660430,105.0677124,92.8058705,95.5830098
21.0848180,-0.1772536,105.0677124,92.8058705,95.5830098
21.1347930,-0.2154803,105.5423202,92.7272868,95.3256717
21.1481660,-0.2710041,105.5423202,92.7272868,95.3256717
21.2165410,-0.3213369,105.3231092,92.3828234,95.4221152
21.2285890,-0.3363874,105.3231092,92.3828234,95.4221152
21.2792840,-0.3035095,104.7729461,92.2126883,95.3059481
21.2909150,-0.2259378,104.7729461,92.2126883,95.3059481
21.3422430,-0.1096125,104.3987420,92.2665010,95.3766889
21.3559650,0.0257334,104.3987420,92.2665010,95.3766889
21.4088900,0.1534320,104.8283118,92.0447274,95.6503339
21.4198890,0.2653217,104.8283118,92.0447274,95.6503339
21.4708670,0.3455709,104.6363566,92.1181084,95.0469793
21.4836400,0.3603403,104.6363566,92.1181084,95.0469793
21.5364250,0.3089791,104.7538438,92.1366672,95.3793291
21.5483530,0.2241874,104.7538438,92.1366672,95.3793291
21.6153860,0.1116961,104.7685200,92.4399752,94.8546358
21.6273600,-0.0339757,104.7685200,92.4399752,94.8546358
21.6796720,-0.1632622,104.8550241,92.3544029,95.6990992
21.6916710,-0.2148727,104.8550241,92.3544029,95.6990992
21.7427610,-0.1920398,105.1111974,92.4598540,95.7415748
21.7537680,-0.1213527,105.1111974,92.4598540,95.7415748
21.8067590,-0.0122463,104.8683802,92.7041466,95.5198012
21.8197630,0.0922252,104.8683802,92.7041466,95.5198012
21.8744540,0.1262545,105.2701506,92.6610499,95.6140705
21.8866770,0.0782329,105.2701506,92.6610499,95.6140705
21.9360080,-0.0113503,104.7811772,92.6570896,95.5495419
21.9490620,-0.0932188,104.7811772,92.6570896,95.5495419
22.0139720,-0.1268640,104.9819071,92.4320547,95.7085728
22.0260170,-0.0974967,104.9819071,92.4320547,95.7085728
22.0780020,-0.0282425,105.1888492,92.2760522,95.3808045
22.0894320,0.0391949,105.1888492,92.2760522,95.3808045
22.1418050,0.0866291,104.7548532,92.3501320,95.6872185
22.1531160,0.1216672,104.7548532,92.3501320,95.6872185
22.2105590,0.1278634,104.9391986,92.4617953,95.0191800
22.2215600,0.0754454,104.9391986,92.4617953,95.0191800
22.2717150,-0.0151646,104.9624165,92.3818139,95.3807268
22.2839050,-0.0987759,104.9624165,92.3818139,95.3807268
22.3354470,-0.1583065,104.6937413,92.2707719,95.4410623
22.3504460,-0.1769078,104.6937413,92.2707719,95.4410623
22.4140850,-0.1309538,105.1394626,92.2724802,95.4104675
22.4240840,-0.0387597,105.1394626,92.2724802,95.4104675
22.4762230,0.0393529,104.8811927,92.5459699,95.0936481
22.4882270,0.0515159,104.8811927,92.5459699,95.0936481
22.5445630,-0.0119440,104.9429259,92.6803075,95.1006367
22.5565160,-0.1217687,104.9429259,92.6803075,95.1006367
22.6064630,-0.2283375,104.9784921,92.0935862,95.1030681
22.6175060,-0.2815247,104.9784921,92.0935862,95.1030681
22.6715370,-0.2590019,104.3709528,92.1173296,94.9266112
22.6846910,-0.1768001,104.3709528,92.1173296,94.9266112
22.7347000,-0.0591131,104.1409960,91.7167746,94.9128893
22.7465870,0.0726077,104.1409960,91.7167746,94.9128893
22.8358030,0.1880429,104.6826241,91.5302960,94.8832100
22.8538290,0.2688523,104.6826241,91.5302960,94.8832100
22.8818370,0.3269306,104.3827475,91.7829171,95.3026519
22.8938120,0.3796366,104.3827475,91.7829171,95.3026519
22.9418570,0.4180072,104.5778600,91.6568763,95.0578168
22.9529000,0.4243519,104.5778600,91.6568763,95.0578168
23.0088570,0.3940607,104.7496916,91.7546253,94.9157416
23.0208550,0.3214730,104.7496916,91.7546253,94.9157416
23.0701270,0.2039188,104.7571693,92.2071385,95.2260253
23.0830870,0.0625831,104.7571693,92.2071385,95.2260253
23.1360870,-0.0692436,105.0891150,92.2077552,95.2346593
23.1480870,-0.1688044,105.0891150,92.2077552,95.2346593
23.2191870,-0.2270625,105.2715850,91.7944804,94.9134289
23.2312430,-0.2498712,105.2715850,91.7944804,94.9134289
23.2799620,-0.2541645,104.3415713,91.7064073,94.4705568
23.2910500,-0.2559315,104.3415713,91.7064073,94.4705568
23.3407480,-0.2523660,103.8233410,91.6601068,94.7733791
23.3557100,-0.2244175,103.8233410,91.6601068,94.7733791
23.4054070,-0.1750719,103.9016018,91.4659802,94.1420290
23.4189410,-0.1314760,103.9016018,91.4659802,94.1420290
23.4716480,-0.1099522,103.9067887,91.3234935,93.8334859
23.4846800,-0.1201825,103.9067887,91.3234935,93.8334859
23.5364990,-0.1718363,103.7145690,91.4456140,93.7598017
23.5495080,-0.2484911,103.7145690,91.4456140,93.7598017
23.6137910,-0.2968712,104.1571320,91.0244088,94.4790236
23.6257890,-0.2629285,104.1571320,91.0244088,94.4790236
23.6772680,-0.1455744,103.7118230,91.3846682,94.2945843
23.6913270,0.0098500,103.7118230,91.3846682,94.2945843
23.7422980,0.1608278,103.1985612,91.0481636,93.7910640
23.7542990,0.2650634,103.1985612,91.0481636,93.7910640
23.8052950,0.2869834,103.2421810,91.1231352,94.1984097
23.8182970,0.2484814,103.2421810,91.1231352,94.1984097
23.8735050,0.2057507,103.3728891,91.1061719,94.2131011
23.8850620,0.1922901,103.3728891,91.1061719,94.2131011
23.9355820,0.2005224,103.1976524,91.2653540,93.7173798
23.9485620,0.1876030,103.1976524,91.2653540,93.7173798
24.0007180,0.1273152,103.6854979,91.2706551,94.1493374
24.0118730,0.0402615,103.6854979,91.2706551,94.1493374
24.0778850,-0.0441980,103.1738735,91.5124574,94.1417645
24.0894780,-0.1034931,103.1738735,91.5124574,94.1417645
24.1419180,-0.1217412,103.2084059,91.6265051,93.9438849
24.1541040,-0.1154207,103.2084059,91.6265051,93.9438849
24.2098200,-0.1099169,103.0706551,91.3088224,94.1125331
24.2208620,-0.1014122,103.0706551,91.3088224,94.1125331
24.2698200,-0.0915968,103.3712230,91.0724725,93.2657327
24.2818310,-0.1011305,103.3712230,91.0724725,93.2657327
24.3328590,-0.1188055,103.0787580,91.3378266,94.0589171
24.3475400,-0.1153000,103.0787580,91.3378266,94.0589171
24.3990920,-0.0892416,103.1312382,91.1731920,94.1659977
24.4103590,-0.0368071,103.1312382,91.1731920,94.1659977
24.4785740,0.0555723,103.5789474,90.9667550,93.7708444
24.4895740,0.1599189,103.5789474,90.9667550,93.7708444
24.5455580,0.2164779,103.2361227,91.2401363,93.5981825
24.5575370,0.1914476,103.2361227,91.2401363,93.5981825
24.6049830,0.1033327,103.2069671,91.3115487,94.0845892
24.6193390,0.0087966,103.2069671,91.3115487,94.0845892
24.6705010,-0.0548156,103.2535403,91.2743658,93.4608860
24.6835010,-0.0935445,103.2535403,91.2743658,93.4608860
24.7343770,-0.1092507,103.1233624,91.3656191,93.9634229
24.7467760,-0.0973103,103.1233624,91.3656191,93.9634229
24.7983260,-0.0812254,103.2570239,91.4803484,93.7190458
24.8103270,-0.0810733,103.2570239,91.4803484,93.7190458
24.8819160,-0.0835124,102.9110943,91.8203711,93.8718667
24.8929160,-0.0812238,102.9110943,91.8203711,93.8718667
24.9414450,-0.0807440,103.1816736,91.6217342,94.2839076
24.9532300,-0.0675351,103.1816736,91.6217342,94.2839076
25.0073970,-0.0210399,103.2262022,91.4399091,94.1308595
25.0183700,0.0571862,103.2262022,91.4399091,94.1308595
25.0705370,0.1534266,103.2119652,91.3216206,94.1382052
25.0823490,0.2450943,103.2119652,91.3216206,94.1382052
25.1333690,0.2998607,102.8840591,91.4424839,94.0386975
25.1452510,0.3031589,102.8840591,91.4424839,94.0386975
25.2051950,0.2584104,102.9532753,91.5973495,93.6633094
25.2188470,0.1670840,102.9532753,91.5973495,93.6633094
25.2789310,0.0426752,104.0152555,91.7280702,94.0585050
25.2899290,-0.0828980,104.4039954,91.8348060,94.2832885
25.3424360,-0.1745352,103.9950058,91.8729159,94.6159816
25.3580220,-0.2037232,103.9950058,91.8729159,94.6159816
25.4077190,-0.1592598,104.0016904,91.6890511,94.5953131
25.4197730,-0.0577740,104.0016904,91.6890511,94.5953131
25.4719100,0.0552371,104.1463696,91.8398002,94.1750288
25.4849190,0.1220385,104.1463696,91.8398002,94.1750288
25.5375260,0.1183121,103.9945448,91.9091817,94.5358433
25.5495610,0.0683581,103.9945448,91.9091817,94.5358433
25.5987710,0.0052857,104.1873223,92.1222436,94.7568959
25.6097820,-0.0419847,104.1873223,92.1222436,94.7568959
25.6791540,-0.0567249,103.5908567,92.3890127,94.3060315
25.6901550,-0.0601964,103.5908567,92.3890127,94.3060315
25.7409660,-0.0857807,103.9174030,92.3063388,94.2317326
25.7527970,-0.1412257,103.9174030,92.3063388,94.2317326
25.8074760,-0.2086144,103.7691126,92.0202843,94.2519401
25.8185140,-0.2544524,103.7691126,92.0202843,94.2519401
25.8734670,-0.2507144,103.8535536,91.9042643,94.2274299
25.8864760,-0.1967153,103.8535536,91.9042643,94.2274299
25.9351800,-0.1093029,103.8838264,91.9355359,94.4687668
25.9458310,-0.0092303,103.8838264,91.9355359,94.4687668
25.9982530,0.0785545,104.1312332,92.0224357,94.4719939
26.0102030,0.1365823,104.1312332,92.0224357,94.4719939
26.0787780,0.1706694,103.9040338,91.9235498,94.7323089
26.0897780,0.1994952,103.9040338,91.9235498,94.7323089
26.1420630,0.2263652,103.9890895,91.8738379,94.5456012
26.1531230,0.2437105,103.9890895,91.8738379,94.5456012
26.2102300,0.2492097,104.3682674,91.9915482,94.5543604
26.2213360,0.2345084,104.3682674,91.9915482,94.5543604
26.2717740,0.1846954,104.3103342,92.0149059,94.3749520
26.2841280,0.1015976,104.3103342,92.0149059,94.3749520
26.3351000,0.0174343,104.4927391,92.1772570,95.1373799
26.3500630,-0.0256667,104.4927391,92.1772570,95.1373799
26.3989100,-0.0143587,104.5904725,92.2396466,95.0650788
26.4109170,0.0343992,104.5904725,92.2396466,95.0650788
26.4787140,0.0986453,104.6055321,92.2918171,94.9811756
26.4897140,0.1479641,104.6055321,92.2918171,94.9811756
26.5451080,0.1564605,104.3052632,92.2633116,95.2531694
26.5568210,0.1364301,104.3052632,92.2633116,95.2531694
26.6056910,0.1182855,104.2312716,91.9331541,95.0105263
26.6182690,0.1197419,104.2312716,91.9331541,95.0105263
26.6738690,0.1379570,104.2945063,92.2441030,94.9409912
26.6864550,0.1446805,104.2945063,92.2441030,94.9409912
26.7342010,0.1064912,104.1680369,92.2466385,94.6719170
26.7462420,0.0150903,104.1680369,92.2466385,94.6719170
26.7972020,-0.1004813,104.5866308,92.0812140,95.0960430
26.8091540,-0.1889386,104.5866308,92.0812140,95.0960430
26.8818170,-0.2190200,103.9580484,92.0145985,94.7904725
26.8929210,-0.1952143,103.9580484,92.0145985,94.7904725
26.9443150,-0.1349761,104.4378794,91.9167883,94.8201306
26.9562100,-0.0668416,104.4378794,91.9167883,94.8201306
27.0069400,-0.0281601,104.4237418,92.1788705,94.8973492
27.0199600,-0.0332082,104.4237418,92.1788705,94.8973492
27.0717380,-0.0682956,104.5259316,92.3282367,94.9028813
27.0847110,-0.1159240,104.5259316,92.3282367,94.9028813
27.1345460,-0.1625906,104.6743757,92.5038801,95.1148675
27.1465570,-0.1964751,104.6743757,92.5038801,95.1148675
27.2016520,-0.2000704,104.5631963,92.2056857,95.4474837
27.2146720,-0.1522471,104.5631963,92.2056857,95.4474837
27.2791140,-0.0697609,104.4442566,92.3943143,94.6665386
27.2901180,-0.0098732,104.4442566,92.3943143,94.6665386
27.3433910,-0.0026994,104.2658471,92.4030734,94.7666539
27.3573490,-0.0426188,104.2658471,92.4030734,94.7666539
27.4062780,-0.1111745,104.6386477,91.8772186,95.1056473
27.4188310,-0.1559799,104.6386477,91.8772186,95.1056473
27.4703240,-0.1249398,104.2654629,91.8922013,94.8299654
27.4813230,-0.0251646,104.2654629,91.8922013,94.8299654
27.5364070,0.1020117,104.2607760,91.9780254,95.0117557
27.5483520,0.2129119,104.2607760,91.9780254,95.0117557
27.5978310,0.2693712,104.0470227,91.9634268,95.0274299
27.6086120,0.2708301,104.0470227,91.9634268,95.0274299
27.6764730,0.2451917,104.0192086,92.0464848,94.8855935
27.6878970,0.2071593,104.0192086,92.0464848,94.8855935
27.7431460,0.1581218,103.9224741,92.0846715,94.8669996
27.7553120,0.0997577,103.9224741,92.0846715,94.8669996
27.8070730,0.0263893,104.5436035,92.3655782,94.7791779
27.8194000,-0.0686946,104.5436035,92.3655782,94.7791779
27.8732900,-0.1711014,104.2643872,92.4014599,94.7977718
27.8862320,-0.2576950,104.2643872,92.4014599,94.7977718
27.9357610,-0.3138021,104.7888590,92.2916635,95.0524779
27.9477250,-0.3261883,104.7888590,92.2916635,95.0524779
27.9976660,-0.2884276,104.4746831,92.5459086,95.1402997
28.0089980,-0.2150811,104.4746831,92.5459086,95.1402997
28.0608960,-0.1279325,105.0474837,92.5232424,95.4495582
28.0718960,-0.0420333,105.0474837,92.5232424,95.4495582
28.1449880,0.0269120,104.4540914,92.3773338,95.0855935
28.1587600,0.0690942,104.4540914,92.3773338,95.0855935
28.2114700,0.0917948,104.4199769,92.1070303,95.0059163
28.2235450,0.1065455,104.4199769,92.1070303,95.0059163
28.2715470,0.1179398,104.4134460,91.6906646,94.8491740
28.2836090,0.1329788,104.4134460,91.6906646,94.8491740
28.3356270,0.1488494,104.1860930,91.7600461,94.3417595
28.3500340,0.1419812,104.1860930,91.7600461,94.3417595
28.3990470,0.1090763,104.0242797,91.4560891,94.6337303
28.4100520,0.0775359,104.0242797,91.4560891,94.6337303
28.4605850,0.0552591,104.1014214,91.4653861,94.2844410
28.4719740,0.0341739,104.1014214,91.4653861,94.2844410
28.5440920,0.0368681,103.2521706,91.3316942,94.5945448
28.6063980,0.0736340,103.3338456,91.4675375,94.1840184
28.6189550,0.0990627,103.3338456,91.4675375,94.1840184
28.6704640,0.1011504,102.9348444,91.4389551,94.7876297
28.6826290,0.1349509,102.9348444,91.4389551,94.7876297
28.7351260,0.2141601,103.4828275,91.2690741,94.6541683
28.7471380,0.2982217,103.4828275,91.2690741,94.6541683
28.7998350,0.3608342,103.4351902,91.6616212,94.4189013
28.8111110,0.3632714,103.4351902,91.6616212,94.4189013
28.8662170,0.2656759,103.0376489,91.2680753,94.1342297
28.8778450,0.0934210,103.0376489,91.2680753,94.1342297
28.9426490,-0.0912080,102.9247023,91.1806377,94.0030734
29.0044130,-0.2311949,102.7315405,91.2141375,94.1662697
29.0173670,-0.2853366,102.7315405,91.2141375,94.1662697
29.0713130,-0.2533416,102.5592009,90.9694967,94.1085670
29.0839940,-0.1683149,102.5592009,90.9694967,94.1085670
29.1343950,-0.0707864,102.6754514,91.0202843,93.9442950
29.1465860,0.0003831,102.6754514,91.0202843,93.9442950
29.2014950,0.0272803,102.5111026,91.1415290,94.1137149
29.2136940,0.0179234,102.5111026,91.1415290,94.1137149
29.2624730,-0.0241526,102.8444103,90.6545524,93.4465617
29.2744780,-0.0987140,102.8444103,90.6545524,93.4465617
29.3443780,-0.1780544,102.1569727,90.9908567,93.7984633
29.4062750,-0.2261586,102.0368037,91.1725701,94.0252785
29.4199710,-0.2334427,102.0368037,91.1725701,94.0252785
29.4732040,-0.2063029,102.9243181,91.3939301,94.2772186
29.4852120,-0.1496912,102.9243181,91.3939301,94.2772186
29.5366730,-0.0653291,102.7537457,91.4027660,94.8016904
29.5489190,0.0440668,102.7537457,91.4027660,94.8016904
29.5973510,0.1502459,102.7373031,91.5279293,94.4316558
29.6083890,0.2132978,102.7373031,91.5279293,94.4316558
29.6619670,0.2336070,103.1063388,91.2361122,94.4817518
29.6729030,0.2246416,103.1063388,91.2361122,94.4817518
29.7427980,0.1903594,102.8723780,91.2630811,94.9873992
29.8063280,0.1674895,103.0943527,91.0548598,94.6769881
29.8197150,0.1972396,103.0943527,91.0548598,94.6769881
29.8730330,0.2868554,102.9557434,91.1350749,95.0347292
29.8858850,0.4278053,102.9557434,91.1350749,95.0347292
29.9369220,0.5639521,103.3018056,90.9630426,94.7158663
29.9500030,0.6082992,103.3018056,90.9630426,94.7158663
29.9990760,0.5387805,103.2302728,91.1692662,94.6164426
30.0100610,0.3766282,103.2302728,91.1692662,94.6164426
30.0625050,0.1526110,103.3686516,91.1509028,94.9192470
30.0738450,-0.0640757,103.3686516,91.1509028,94.9192470
30.1418790,-0.2139782,103.0032270,91.3635036,94.7638878
30.2231730,-0.2957474,103.0982712,91.5460622,94.7697272
30.2381720,-0.3340179,103.0982712,91.5460622,94.7697272
30.2691720,-0.3634180,102.7968498,91.8445640,94.7717249
30.2821720,-0.4230951,102.7968498,91.8445640,94.7717249
30.3491730,-0.5030817,102.8672301,91.7170957,95.0662313
30.3651750,-0.5425336,102.8672301,91.7170957,95.0662313
30.3971710,-0.5194184,103.3751056,91.3237034,94.4492509
30.4091720,-0.4727114,103.3751056,91.3237034,94.4492509
30.4751710,-0.4364665,103.6508514,91.8212074,94.7705108
30.4901730,-0.4297761,103.6508514,91.8212074,94.7705108
30.5461710,-0.4659615,104.0448916,91.6489938,94.7363777
30.6058960,-0.5086302,103.5629257,91.6417957,95.1650155
30.6181280,-0.4846093,103.5629257,91.6417957,95.1650155
30.6708840,-0.3786732,103.3769350,91.7269350,94.6702012
30.6848470,-0.2437796,103.3769350,91.7269350,94.6702012
30.7332990,-0.1232705,103.7000774,91.6750774,94.8513158
30.7443000,-0.0397238,103.7000774,91.6750774,94.8513158
30.7983000,-0.0335232,103.5308824,91.9769350,94.3239938
30.8093520,-0.1210063,103.5308824,91.9769350,94.3239938
30.8645290,-0.2301576,103.6019350,91.7489164,95.1030960
30.8755270,-0.2660902,103.6019350,91.7489164,95.1030960
30.9446360,-0.2155658,103.8776316,91.8151703,94.8909443
31.0061990,-0.1072538,103.6547988,91.8625387,95.1252322
31.0176230,0.0600977,103.6547988,91.8625387,95.1252322
31.0709380,0.2593796,103.6933437,91.7346749,95.1846749
31.0829850,0.4151773,103.6933437,91.7346749,95.1846749
31.1356280,0.4760048,103.9716718,91.9130805,94.6581269
31.1474150,0.4292795,103.9716718,91.9130805,94.6581269
31.2016420,0.3090239,103.6341331,91.7756966,95.0725232
31.2136430,0.1862108,103.6341331,91.7756966,95.0725232
31.2636970,0.1007043,103.0838235,91.8513158,94.9384675
31.2764140,0.0679188,103.0838235,91.8513158,94.9384675
31.3422860,0.1136047,103.7527864,91.9294118,95.2717492
31.4069460,0.2120171,103.1945820,91.9700464,94.8487616
31.4199460,0.2768857,103.1945820,91.9700464,94.8487616
31.4724590,0.2781437,103.2167957,91.8512384,95.3220588
31.4845370,0.2663763,103.2167957,91.8512384,95.3220588
31.5389860,0.2653178,103.4324303,92.0572755,95.0538700
31.5509760,0.2519572,103.4324303,92.0572755,95.0538700
31.5977740,0.2295672,103.7322755,91.9416409,95.2373839
31.6108680,0.2067703,103.7322755,91.9416409,95.2373839
31.6616250,0.1542410,103.2568111,92.0839783,95.0694272
31.6735880,0.0657091,103.2568111,92.0839783,95.0694272
31.7410960,-0.0265262,103.8106811,92.1245356,94.8979102
31.8056190,-0.1147600,103.0616099,92.0834365,94.6676471
31.8176150,-0.2114275,103.0616099,92.0834365,94.6676471
31.8747950,-0.3031973,103.2561146,91.6889319,94.7169505
31.8873080,-0.3574194,103.2561146,91.6889319,94.7169505
31.9338610,-0.3545931,103.0975232,91.8180341,94.7500774
31.9458870,-0.2946186,103.0975232,91.8180341,94.7500774
31.9983770,-0.1956082,103.2260836,91.6068885,94.5929567
32.0103720,-0.0935951,103.2260836,91.6068885,94.5929567
32.0614780,-0.0278925,103.1636223,91.5704334,94.3879257
32.0734780,-0.0155962,103.1636223,91.5704334,94.3879257
32.1404310,-0.0298220,103.0617647,91.7532508,95.0325077
32.2083230,-0.0148050,103.2811920,91.5958204,95.1557276
32.2193210,0.0635493,103.2811920,91.5958204,95.1557276
32.2692920,0.1725572,103.2032508,91.8273994,94.3845201
32.2811460,0.2377922,103.2032508,91.8273994,94.3845201
32.3322530,0.2197940,103.5805728,91.8971362,94.8863003
32.3433030,0.1261702,103.5805728,91.8971362,94.8863003
32.3984200,-0.0166050,103.5843653,92.2236842,95.0764706
32.4094260,-0.1526618,103.5843653,92.2236842,95.0764706
32.4609140,-0.2054413,103.6907895,91.9503096,95.1934211
32.4723280,-0.1503818,103.6907895,91.9503096,95.1934211
32.5287100,-0.0184867,103.8314241,91.8399381,95.7585913
32.6054040,0.1328834,104.4906043,92.2804678,95.0425731
32.6174110,0.2177219,104.4906043,92.2804678,95.0425731
32.6703270,0.2030859,104.7877455,92.2065200,95.6073056
32.6833720,0.1342748,104.7877455,92.2065200,95.6073056
32.7360990,0.0385863,104.5789474,92.1419482,95.1648075
32.7491000,-0.0737382,104.5789474,92.1419482,95.1648075
32.7962460,-0.1393040,104.4670856,91.9985860,95.5124902
32.8080430,-0.1122042,104.4670856,91.9985860,95.5124902
32.8638080,-0.0420637,104.3389631,92.1541241,95.1101335
32.8747310,0.0033014,104.3389631,92.1541241,95.1101335
32.9258800,0.0127287,104.3298507,92.1980361,95.1479183
33.0053480,0.0026252,104.0855460,92.0685782,95.3436764
33.0173480,-0.0183034,104.0855460,92.0685782,95.3436764
33.0684870,-0.0296196,104.1753339,92.3044776,95.6487824
33.0804480,0.0027329,104.1753339,92.3044776,95.6487824
33.1338720,0.0828986,104.1567164,92.2447761,95.4354281
33.1445470,0.1699369,104.1567164,92.2447761,95.4354281
33.2002120,0.2141225,104.4682639,92.2038492,95.4054988
33.2111960,0.1948430,104.4682639,92.2038492,95.4054988
33.2630890,0.1344415,104.3098193,92.0585232,95.6435192
33.2744500,0.0840044,104.3098193,92.0585232,95.6435192
33.3266000,0.0833334,104.2481540,91.9295365,95.6476826
33.4076540,0.1267436,103.8114690,92.0544383,95.1725844
33.4226850,0.1736467,103.8114690,92.0544383,95.1725844
33.4695790,0.1779585,104.0262372,91.9759623,95.0116261
33.4823970,0.1081649,104.0262372,91.9759623,95.0116261
33.5340100,-0.0321802,104.4266300,91.9338570,94.9454046
33.5460520,-0.2015201,104.4266300,91.9338570,94.9454046
33.5980160,-0.3362222,103.5358995,92.1108405,95.1569521
33.6089740,-0.3892220,103.5358995,92.1108405,95.1569521
33.6607480,-0.3456182,103.4791045,91.8750982,95.4975648
33.6720400,-0.2042699,103.4791045,91.8750982,95.4975648
33.7240000,-0.0001094,103.6986646,92.0242734,95.1328358
33.8046100,0.1847503,104.2695994,91.8912804,95.2012569
33.8191880,0.2832653,104.2695994,91.8912804,95.2012569
33.8721260,0.2787930,103.4857816,92.0725059,95.2311862
33.8851350,0.1843404,103.4857816,92.0725059,95.2311862
33.9331870,0.0495437,104.2239592,92.1934014,95.4503535
33.9451860,-0.0565859,104.2239592,92.1934014,95.4503535
33.9989320,-0.1140646,103.6090338,92.2406913,94.9198743
34.0098790,-0.1579066,103.6090338,92.2406913,94.9198743
34.0618640,-0.2097175,103.8150039,91.9061273,95.0805970
34.0731510,-0.2517213,103.8150039,91.9061273,95.0805970
34.1246840,-0.2687038,103.5138256,91.7589159,94.7680283
34.2089120,-0.2551157,103.8320503,91.7067557,94.9351925
34.2223830,-0.1979560,103.8320503,91.7067557,94.9351925
34.2711640,-0.1129294,103.5532600,91.8799686,94.8295365
34.2835780,-0.0478701,103.5532600,91.8799686,94.8295365
34.3344000,-0.0109311,103.3804399,91.8136685,95.2569521
34.3455280,0.0363864,103.3804399,91.8136685,95.2569521
34.3965030,0.1036202,103.6824038,91.8937156,95.0701493
34.4078180,0.1655918,103.6824038,91.8937156,95.0701493
34.4609460,0.2134074,103.4928515,92.1537313,95.2578162
34.4724210,0.2384852,103.4928515,92.1537313,95.2578162
34.5279950,0.2091391,104.0849961,92.1669285,95.2286724
34.6049410,0.1216959,104.0216025,92.2024352,95.2740770
34.6169410,0.0199466,104.0216025,92.2024352,95.2740770
34.6691820,-0.0578480,103.6966222,92.4167321,95.4001571
34.6811830,-0.1031726,103.6966222,92.4167321,95.4001571
34.7354030,-0.1071529,104.0375491,92.1016496,95.6689709
34.7483750,-0.0507254,104.0375491,92.1016496,95.6689709
34.7959490,0.0490714,103.4869599,92.2499607,95.2263158
34.8079470,0.1369882,103.4869599,92.2499607,95.2263158
34.8645510,0.1945758,103.6859387,91.9718775,95.6094266
34.8790460,0.2435887,103.6859387,91.9718775,95.6094266
34.9257030,0.2599183,103.6879811,92.3306363,95.1539670
35.0085900,0.2246346,103.9613511,92.0648861,95.7944226
35.0225910,0.2067549,103.9613511,92.0648861,95.7944226
35.0702960,0.2188240,104.1017282,92.0876669,95.0958366
35.0822960,0.1652379,104.1017282,92.0876669,95.0958366
35.1352970,0.0339775,103.6180676,92.2905734,95.4070699
35.1462950,-0.0965857,103.6180676,92.2905734,95.4070699
35.2002970,-0.2003153,103.9532600,92.1230951,95.5287510
35.2112970,-0.2641092,103.9532600,92.1230951,95.5287510
35.2632990,-0.2585918,104.0951296,92.2132757,95.2555381
35.2753320,-0.2105876,104.0951296,92.2132757,95.2555381
35.3243310,-0.1726775,104.0677141,92.4755695,95.6016496
35.4082910,-0.1731369,104.7449332,92.5658288,95.4971720
35.4232330,-0.2257586,104.7449332,92.5658288,95.4971720
35.4705940,-0.3172790,104.3435978,92.6279654,95.1459544
35.4833060,-0.4121718,104.3435978,92.6279654,95.1459544
35.5361510,-0.4848878,104.6261587,92.5302435,95.2641005
35.5958410,-0.5180275,104.2184603,92.2291438,95.1236449
35.6077950,-0.4968174,104.2184603,92.2291438,95.1236449
35.6626210,-0.4231944,103.7199529,92.4437549,95.0765122
35.6736700,-0.3135010,103.7199529,92.4437549,95.0765122
35.7238090,-0.1720649,104.1593873,92.1230951,95.7818539
35.8093820,-0.0069303,103.6731343,92.0265515,94.8952867
35.8237070,0.1372898,103.6731343,92.0265515,94.8952867
35.8722650,0.2323259,104.4978005,91.9865672,95.2687353
35.8852280,0.2966153,104.4978005,91.9865672,95.2687353
35.9342310,0.3351070,103.6589945,92.2121760,95.3875098
35.9462280,0.3409900,103.6589945,92.2121760,95.3875098
35.9983830,0.3258190,103.6797329,92.1269442,94.6926159
36.0123890,0.2821288,103.6797329,92.1269442,94.6926159
36.0632510,0.2212877,104.1510605,91.9419482,95.7233307
36.0753040,0.2014007,104.1510605,91.9419482,95.7233307
36.1242520,0.2244335,103.6363708,92.4388845,95.2004713
36.2084440,0.2410344,103.5089552,92.5062058,95.1339356
36.2204380,0.2442117,103.5089552,92.5062058,95.1339356
36.2696710,0.2486090,103.8150825,92.5708562,96.1960723
36.2844560,0.2522938,103.8150825,92.5708562,96.1960723
36.3314560,0.2625222,104.3787903,92.6592302,96.0333857
36.3434540,0.3041653,104.3787903,92.6592302,96.0333857
36.3978320,0.3765959,104.4842105,92.5424195,95.6498036
36.4088340,0.4104118,104.4842105,92.5424195,95.6498036
36.4635240,0.3266553,104.2117046,92.3802042,95.6133543
36.4755740,0.1456077,104.2117046,92.3802042,95.6133543
36.5280560,-0.0214019,103.8869599,92.2440691,96.1859387
36.5898530,-0.0941699,104.0882954,92.3676355,95.3607227
36.6032570,-0.0955076,104.0882954,92.3676355,95.3607227
36.6683350,-0.0768773,103.8648861,92.4216811,95.6739984
36.6795620,-0.0546215,103.8648861,92.4216811,95.6739984
36.7317510,-0.0698233,104.3615868,92.6668500,95.4460330
36.7439110,-0.1679908,104.3615868,92.6668500,95.4460330
36.7966180,-0.2886165,103.6722702,92.6681068,95.8547526
36.8084380,-0.3408827,103.6722702,92.6681068,95.8547526
36.8660220,-0.3375783,104.0732129,92.7671642,95.3481540
36.8775290,-0.3369794,104.0732129,92.7671642,95.3481540
36.9253950,-0.3316590,104.3384132,92.8113904,96.0108405
36.9897780,-0.2836836,104.1328358,92.7241948,96.1591516
37.0028180,-0.2007776,104.1328358,92.7241948,96.1591516
37.0702440,-0.1021468,104.0684211,92.8505106,95.8915161
37.0812490,0.0155748,104.0684211,92.8505106,95.8915161
37.1360750,0.1215486,103.9043205,93.0077769,95.5710919
37.1489970,0.1375494,103.9043205,93.0077769,95.5710919
37.2010410,0.0560164,103.8601728,92.5176748,96.1388845
37.2121340,-0.0214340,103.8601728,92.5176748,96.1388845
37.2640320,-0.0349215,103.9923016,92.6837392,95.3806756
37.2745630,-0.0222778,103.9923016,92.6837392,95.3806756
37.3251300,-0.0015625,103.9828751,92.4579733,95.5829537
37.3890660,0.0225802,103.8413983,92.4649647,95.5573449
37.4010670,0.0025331,103.8413983,92.4649647,95.5573449
37.4695840,-0.0625524,104.1499607,92.5945797,95.6077769
37.4802360,-0.1056211,104.1499607,92.5945797,95.6077769
37.5369190,-0.0831982,104.2238020,92.6135899,96.1490181
37.5488960,0.0005610,104.2238020,92.6135899,96.1490181
37.5955890,0.1011118,104.2038492,92.7436764,95.6717203
37.6074900,0.1591547,104.2038492,92.7436764,95.6717203
37.6634060,0.1627233,104.2433621,92.7759623,95.8470542
37.6746740,0.1272873,104.2433621,92.7759623,95.8470542
37.7254380,0.0515438,104.9809112,93.0906520,96.2895522
37.7903580,-0.0447426,105.0252160,93.0585232,96.1392773
37.8023580,-0.1152477,105.0252160,93.0585232,96.1392773
37.8751930,-0.1385033,104.9232522,93.0698350,96.2478397
37.8885720,-0.1258570,104.9232522,93.0698350,96.2478397
37.9344970,-0.0928521,104.8241948,93.1523959,96.4594658
37.9465080,-0.0424263,104.8241948,93.1523959,96.4594658
37.9965760,0.0121418,104.2923802,92.9868814,95.6685782
38.0085730,0.0326893,104.2923802,92.9868814,95.6685782
38.0633440,0.0121510,104.1905734,92.4569521,95.7933229
38.0753460,-0.0121507,104.1905734,92.4569521,95.7933229
38.1254270,-0.0213160,104.1910448,92.4181461,95.6717989
38.1381840,-0.0096705,104.1910448,92.4181461,95.6717989
38.1950270,0.0415721,104.0440691,92.0783975,95.3461901
38.2699350,0.1161944,104.1035350,92.0564022,95.3221524
38.2828420,0.1602032,104.1035350,92.0564022,95.3221524
38.3322430,0.1516623,103.9984289,92.1081697,95.3658288
38.3429190,0.1125387,103.9984289,92.1081697,95.3658288
38.3959340,0.0770811,103.8809112,92.1637078,95.6146112
38.4069450,0.0746605,103.8809112,92.1637078,95.6146112
38.4620040,0.1166651,103.9206599,92.3177533,95.8741555
38.4730170,0.1962407,103.9206599,92.3177533,95.8741555
38.5289300,0.2853397,104.5249018,92.3706206,95.8254517
38.5896950,0.3231706,104.8496465,92.4870385,95.5934014
38.6022050,0.2541492,104.8496465,92.4870385,95.5934014
38.6680240,0.0932989,104.6888109,92.2792203,95.6830409
38.6790230,-0.0926030,104.6888109,92.2792203,95.6830409
38.7327640,-0.2486782,104.3148538,92.3001949,95.4270565
38.7437660,-0.3422754,104.3148538,92.3001949,95.4270565
38.7963000,-0.3615401,104.1120468,92.0950487,95.1074464
38.8073610,-0.3339652,104.1120468,92.0950487,95.1074464
38.8652130,-0.3005913,103.9116569,91.8953606,95.1459649
38.8766100,-0.2696957,103.9116569,91.8953606,95.1459649
38.9265720,-0.2189008,103.8084211,91.7300585,95.3675634
38.9395730,-0.1220083,103.8084211,91.7300585,95.3675634
38.9897080,0.0195041,103.9186745,91.5373879,95.0548928
39.0698280,0.1587569,103.8081871,91.5214815,94.7953216
39.0806150,0.2388993,103.8081871,91.5214815,94.7953216
39.1313420,0.2394347,103.6205848,91.6106823,94.9706043
39.1432600,0.1739743,103.6205848,91.6106823,94.9706043
39.1992960,0.0802266,103.3034698,91.5510331,94.8975439
39.2113150,0.0101038,103.3034698,91.5510331,94.8975439
39.2628680,-0.0007640,103.6740741,91.3589864,94.9549318
39.2777480,0.0434206,103.6740741,91.3589864,94.9549318
39.3268010,0.1150239,103.1863548,91.6542690,95.2203509
39.3886260,0.1767369,104.2192593,91.6966082,95.0147368
39.4012960,0.1830985,104.2192593,91.6966082,95.0147368
39.4681700,0.1207476,103.9984405,91.6056920,94.9323197
39.4791110,0.0161272,103.9984405,91.6056920,94.9323197
39.5352750,-0.0960255,104.0808577,91.6480312,95.2213645
39.5462850,-0.1754501,104.0808577,91.6480312,95.2213645
39.5977080,-0.1813558,103.8963622,91.0490712,94.9052632
39.6097080,-0.1055565,103.8963622,91.0490712,94.9052632
39.6623290,0.0086835,103.5655573,91.1701238,94.5166409
39.6739260,0.0923529,103.5655573,91.1701238,94.5166409
39.7257940,0.0962008,103.7250000,91.0934985,94.2641641
39.7378400,0.0118018,103.7250000,91.0934985,94.2641641
39.7900440,-0.1186052,103.6049536,90.8051084,94.6476780
39.8712020,-0.2118237,103.2126935,91.1549536,94.8068111
39.8835400,-0.2090896,103.2126935,91.1549536,94.8068111
39.9315830,-0.1090694,103.5519350,91.0820433,94.8455882
39.9436200,0.0618982,103.5519350,91.0820433,94.8455882
