ts,p0,p1,p2,p3
0.9285770,-0.0423699,65.0486336,60.5483248,54.0428439
0.9425740,-0.1650187,65.0319638,60.7410150,54.1577922
0.9565740,-0.2993170,65.0576772,60.9992928,54.4159202
0.9805760,-0.3619357,65.2281905,60.5870430,55.5766742
1.0055760,-0.3446196,66.1612224,62.4072659,56.5408903
1.0416070,-0.2806776,66.2604662,62.4365791,56.4948936
1.0635760,-0.2071894,66.3325797,62.5914087,56.2063616
1.1055760,-0.1429697,65.8951431,61.6526078,55.7238637
1.1535770,-0.0947994,65.3714443,61.9056263,55.5235738
1.1755750,-0.0645514,65.5319818,61.8971397,55.8489706
1.2175860,-0.0445257,65.7762062,61.8008015,55.6125255
1.2415740,-0.0233328,66.0051862,61.8539997,56.0705642
1.2655750,0.0017745,65.7540468,62.2431243,56.0492692
1.3305770,0.0265966,65.8496778,62.1795537,56.0810152
1.3595750,0.0501952,66.2120069,61.9933993,56.0511551
1.3795750,0.0727478,65.6357850,62.0458903,56.0527267
1.4085750,0.0891690,65.5104510,62.0726858,55.6278485
1.4445740,0.0965444,65.6317775,61.9783907,55.6804180
1.4675770,0.0993609,65.7370737,61.9387867,55.7153072
1.4925770,0.1012317,65.5929593,61.9723401,55.8947038
1.5275750,0.1026304,65.7329090,61.9001257,56.2329876
1.5795770,0.1058046,65.6078894,61.9563099,55.8226466
1.6075730,0.1120871,65.8073810,61.9822222,56.2680952
1.6275740,0.1201076,65.9771429,61.9194444,56.1032540
1.6555740,0.1281649,66.3171397,62.1291486,56.3171397
1.6825760,0.1335086,66.2710438,62.3157768,55.9817220
1.7465760,0.1327629,66.0755972,62.2919673,56.0106622
1.7805750,0.1259971,66.3273405,62.3059605,56.2457078
1.8025750,0.1155485,66.4188533,62.3124393,56.0185455
1.8645760,0.1023685,66.2817460,62.5155491,56.3781179
1.8845750,0.0881302,66.3991740,62.3654843,56.3919663
1.9065740,0.0769886,66.2823129,62.2521056,56.3747166
1.9325740,0.0715355,66.5683511,62.1226919,56.2253806
1.9655770,0.0712826,66.5721574,62.0394396,56.5061548
1.9965770,0.0757817,67.2061063,62.1963881,56.4458212
2.0565840,0.0847831,67.0511824,62.0120667,56.8032070
2.0905740,0.0941457,66.5823838,62.2422626,56.1690505
2.1055770,0.0978288,67.0884040,62.0951111,56.5466667
2.1265750,0.0948162,67.1571717,62.1235556,56.6665051
2.2035800,0.0860474,67.2417778,62.2479192,56.0577778
2.2295750,0.0703627,67.0684444,62.2686061,56.3435960
2.2415750,0.0509084,67.4230303,62.1165253,56.2088889
2.2615730,0.0335562,66.8809697,62.3037576,56.3227475
2.3175900,0.0177481,66.9445657,62.2921212,56.4739394
2.3435730,0.0005300,66.7663838,62.4324848,55.9132121
2.3685780,-0.0164324,67.2275556,62.3109495,56.5918384
2.4265770,-0.0283412,67.3506263,62.1636364,56.8499394
2.4565760,-0.0319707,67.3927273,62.2459798,56.7086869
2.4785740,-0.0283650,67.2162424,62.2437980,56.4707071
2.4995740,-0.0213928,67.1406061,62.3935354,56.2194747
2.5545750,-0.0138135,67.5959596,62.2623838,57.0003232
2.5835760,-0.0086768,67.5865051,62.7520808,57.0037172
2.6075750,-0.0096282,67.7402828,62.5608889,56.9832727
2.6375760,-0.0149105,67.8268283,62.4877576,56.6770101
2.6685760,-0.0197172,67.0889697,62.5405253,56.8813737
2.7395850,-0.0244755,66.9945859,62.4362020,56.3661414
2.7665840,-0.0323191,67.1835152,62.4468687,56.6046869
2.7905780,-0.0414587,66.9347879,62.1544242,56.6256970
2.8025750,-0.0475825,67.6450101,62.2033939,56.6661818
2.8235750,-0.0480997,67.4459798,62.2210909,56.1382626
2.8785830,-0.0431904,67.2913939,62.2554343,56.0357172
2.9075750,-0.0352486,67.1532121,62.1425455,56.3828687
2.9275860,-0.0266987,67.1038384,62.1908687,56.8762020
2.9945800,-0.0203462,67.3748800,62.1511200,56.2306400
3.0275730,-0.0184556,66.9964000,62.0301600,56.0947200
3.0425740,-0.0200254,66.9022400,62.1452800,56.0668000
3.0625740,-0.0208581,67.3679200,61.8748000,56.6658400
3.0965770,-0.0202097,66.7405600,62.4364800,55.9060000
3.1565810,-0.0227057,67.3549600,62.5932000,56.6468000
3.1875790,-0.0283309,67.2512800,62.4912800,56.6271200
3.2115760,-0.0319483,67.2904800,62.3180800,56.3339200
3.2235730,-0.0334854,66.8939200,62.5873600,56.6627200
3.2505780,-0.0355671,67.0547200,62.4670400,56.2808800
3.3085770,-0.0356281,66.9006400,62.2317600,56.3759200
3.3345730,-0.0327358,66.8268800,62.4333600,56.1348000
3.3545750,-0.0306644,66.8190400,62.4481600,56.3958400
3.4245790,-0.0309074,66.5226400,62.4982400,56.3970400
3.4445760,-0.0308547,67.4207200,62.2760800,55.8337600
3.4685720,-0.0281136,66.9893600,62.4515200,56.0868800
3.4925730,-0.0240786,67.2864000,62.6945600,55.7436000
3.5235740,-0.0207500,66.6996000,62.5485600,56.1967200
3.5825760,-0.0155830,67.1913600,62.0874400,56.8452800
3.6025780,-0.0052970,66.9941600,62.1990400,56.0416800
3.6235740,0.0067535,66.7646400,62.2788800,56.2189600
3.6775790,0.0169392,66.7188000,62.0976800,56.0270400
3.6955750,0.0265153,66.8692800,62.0750400,56.0771200
3.7175740,0.0347614,66.8804762,62.0100000,56.3425397
3.7475740,0.0383344,66.5203175,61.9806349,56.3693651
3.8285870,0.0387584,66.9288000,62.0923200,56.7136800
3.8665780,0.0394087,66.8474400,62.2512000,55.9979200
3.8795730,0.0402395,67.0336800,61.9389600,56.3536000
3.8985730,0.0396055,66.9465600,62.2946400,55.9490400
3.9205760,0.0357877,67.0327200,62.0360800,56.1048000
3.9845820,0.0298381,67.0912000,62.1517600,56.4656000
4.0145710,0.0245684,67.5461600,62.5204000,56.3121600
4.0275730,0.0204223,67.0840000,62.4160800,56.4812800
4.0515780,0.0159567,66.9422400,62.5305600,56.7052000
4.1105750,0.0116613,67.2595200,62.2338400,56.3334400
4.1285760,0.0085767,66.8625600,62.0748000,56.4983200
4.1505760,0.0059122,66.7924000,62.1425600,56.1308000
4.2255820,0.0024142,66.6694400,62.2694400,56.1829600
4.2445780,-0.0010106,66.6543200,61.9549600,56.5844800
4.2665780,-0.0026217,66.6336000,62.1254400,56.3388800
4.3035740,-0.0050848,66.4002400,62.1740800,56.0287200
4.3285730,-0.0117564,66.4468000,62.3232000,56.1370400
4.3785750,-0.0206723,66.6486337,62.2220198,55.8975050
4.3955800,-0.0278896,66.7952475,62.0809505,56.1187327
4.4175770,-0.0321432,66.5451089,62.1784554,56.0884752
4.4485760,-0.0334396,66.5834455,62.0836436,55.6403960
4.5215790,-0.0301764,66.5381386,61.9767921,56.3923960
4.5455740,-0.0216519,66.2361188,61.9451881,56.0706535
4.5695750,-0.0098922,66.8689109,61.7033663,56.3799604
4.5965750,0.0015385,66.4045941,62.2048317,55.7598416
4.6355810,0.0084543,66.6534653,62.1140594,55.6198020
4.6635760,0.0093239,66.4559208,62.0381782,55.9675248
4.7135780,0.0056336,66.6024554,62.1871683,55.8350099
4.7385840,-0.0010278,66.7177822,62.0590099,56.0749307
4.7585740,-0.0073518,66.9462970,62.0714455,56.0356436
4.8135750,-0.0077371,66.6701782,62.1178614,56.3810693
4.8435740,-0.0009482,66.9775050,62.1077228,56.1447921
4.8575740,0.0097043,66.8462574,62.0857030,56.3123960
4.8815740,0.0203821,66.7002772,62.1778218,56.4400792
4.9445830,0.0270629,67.2268800,62.2622400,56.0789600
4.9645760,0.0280734,66.9773600,62.2972000,56.3131200
5.1049820,0.0236717,76.6464800,71.4732800,64.0810400
5.1620080,0.0138686,76.5512000,71.6210400,64.3001600
5.1810040,0.0002601,76.5512000,71.6210400,64.3001600
5.2770480,-0.0132466,77.5213600,72.0244800,64.4449600
5.3000490,-0.0230422,77.5213600,72.0244800,64.4449600
5.3801570,-0.0272096,77.1723200,71.9884000,64.9028000
5.4021530,-0.0252426,77.1723200,71.9884000,64.9028000
5.4831190,-0.0188350,77.1135200,71.9759200,64.4472800
5.5031210,-0.0119164,77.1135200,71.9759200,64.4472800
5.5851170,-0.0053861,78.3241600,71.7563200,64.9190400
5.6041530,0.0046707,78.3241600,71.7563200,64.9190400
5.6781170,0.0195019,78.3268000,71.8837600,64.8393600
5.6981170,0.0362219,78.3268000,71.8837600,64.8393600
5.7781600,0.0522737,78.7805600,72.2232000,64.8796800
5.8041170,0.0635668,78.7805600,72.2232000,64.8796800
5.8921230,0.0663558,80.5844000,72.6291200,65.3260000
5.9131170,0.0636222,80.5844000,72.6291200,65.3260000
5.9871180,0.0612332,80.9083333,72.7379365,65.6068254
6.0061160,0.0619523,80.7134646,72.6950394,65.5346457
6.0861190,0.0656900,81.0548819,72.8039370,65.7444882
6.1071160,0.0697292,81.0548819,72.8039370,65.7444882
6.1671540,0.0698180,81.3230709,73.0480315,65.9733071
6.1861220,0.0639292,81.3230709,73.0480315,65.9733071
6.2651250,0.0544447,81.4793701,72.7085827,66.2266929
6.2901190,0.0459714,81.4793701,72.7085827,66.2266929
6.3862140,0.0397374,81.1177953,72.6386614,65.6300000
6.4081960,0.0332036,81.1177953,72.6386614,65.6300000
6.4821780,0.0274010,81.7017969,72.1934375,66.4353125
6.5041970,0.0264659,81.7017969,72.1934375,66.4353125
6.5811680,0.0289855,81.2389062,72.4104688,66.4359375
6.6031680,0.0307143,81.2389062,72.4104688,66.4359375
6.6811850,0.0322907,81.6675000,72.1892187,66.3994531
6.7161690,0.0338968,81.6675000,72.1892187,66.3994531
6.7751640,0.0302633,82.1460938,72.3910937,66.0884375
6.7931640,0.0189986,82.1460938,72.3910937,66.0884375
6.8751740,0.0054367,82.3426563,72.5017969,66.8683594
6.9001680,-0.0046994,82.3426563,72.5017969,66.8683594
6.9701750,-0.0110056,82.0756250,72.1935938,66.4922656
6.9951660,-0.0150454,82.0756250,72.1935938,66.4922656
7.1011680,-0.0170042,81.7853906,71.9514063,66.3203906
7.1201700,-0.0180512,81.7853906,71.9514063,66.3203906
7.1531920,-0.0213508,81.3456250,71.9512500,66.3061719
7.1651930,-0.0286349,81.3456250,71.9512500,66.3061719
7.2840570,-0.0384168,81.5123437,71.8375000,66.1307031
7.3070530,-0.0480756,81.5123437,71.8375000,66.1307031
7.3735680,-0.0564756,81.4504687,71.8764063,65.8810156
7.3935660,-0.0637153,81.4504687,71.8764063,65.8810156
7.4886020,-0.0682907,81.5430469,71.7925781,66.3668750
7.5126090,-0.0679321,81.5430469,71.7925781,66.3668750
7.5628540,-0.0642679,81.2018750,71.9875000,65.9897656
7.5768570,-0.0614951,81.2018750,71.9875000,65.9897656
7.6810730,-0.0599417,80.9835156,71.7525781,66.3646094
7.7050920,-0.0576248,80.9835156,71.7525781,66.3646094
7.7470610,-0.0538155,81.2876562,71.5097656,66.6389063
7.7630600,-0.0458060,81.2876562,71.5097656,66.6389063
7.8950490,-0.0310274,81.2454688,71.4623438,66.1966406
7.9220330,-0.0128592,81.2454688,71.4623438,66.1966406
7.9590480,0.0028741,81.3444531,71.4843750,66.4111719
7.9770470,0.0126539,81.3444531,71.4843750,66.4111719
8.0639350,0.0142345,81.1057031,71.6287500,66.4064844
8.0779780,0.0082700,81.1057031,71.6287500,66.4064844
8.1826400,0.0005659,81.4897412,71.5424558,66.8549558
8.2046290,-0.0027027,81.4897412,71.5424558,66.8549558
8.2596270,-0.0017617,81.0742582,71.8265467,66.7571812
8.2746290,-0.0008978,81.0742582,71.8265467,66.7571812
8.3567020,-0.0014687,81.4187184,71.6940499,66.5298295
8.3687020,-0.0035333,81.4187184,71.6940499,66.5298295
8.4546810,-0.0087466,81.2980587,71.5321181,66.3712121
8.4724390,-0.0159859,81.2980587,71.5321181,66.3712121
8.5522310,-0.0208162,81.0419531,71.4796094,66.4627344
8.5662300,-0.0211803,81.0419531,71.4796094,66.4627344
8.6585930,-0.0191443,81.0335938,71.5015625,66.1839844
8.6705750,-0.0178763,81.0335938,71.5015625,66.1839844
8.7608100,-0.0190514,81.1619531,71.5848438,66.0824219
8.7778450,-0.0226854,81.1619531,71.5848438,66.0824219
8.8624470,-0.0273254,81.4499219,72.0335938,66.8936719
8.8754520,-0.0302590,81.4499219,72.0335938,66.8936719
8.9288720,-0.0338928,90.6065625,80.4477344,71.9949219
8.9418720,-0.0460757,90.6065625,80.4477344,71.9949219
8.9952950,-0.0684216,89.5146875,80.2982031,71.9323438
9.0082960,-0.0954878,89.5146875,80.2982031,71.9323438
9.0746080,-0.1204526,89.9953125,80.1532031,72.0093750
9.0876710,-0.1348378,89.9953125,80.1532031,72.0093750
9.1226580,-0.1327962,89.6165625,80.4025000,72.1408594
9.1355450,-0.1165707,89.6165625,80.4025000,72.1408594
9.1869480,-0.0922521,89.5700000,80.3282031,72.3384375
9.1988590,-0.0657858,89.5700000,80.3282031,72.3384375
9.2528260,-0.0418715,89.2018750,80.2014844,73.0814063
9.2641660,-0.0209113,89.2018750,80.2014844,73.0814063
9.3180910,-0.0016569,97.7775000,88.1560937,79.6342969
9.3300910,0.0146120,97.7775000,88.1560937,79.6342969
9.3778770,0.0266741,97.9835156,87.8952344,79.3982812
9.3899200,0.0349987,97.9835156,87.8952344,79.3982812
9.4568200,0.0403899,98.0006250,87.8976562,79.9531250
9.4688290,0.0452175,98.0006250,87.8976562,79.9531250
9.5229460,0.0506988,97.2360156,88.0812500,79.2361719
9.5349780,0.0535665,97.2360156,88.0812500,79.2361719
9.5860950,0.0514591,97.5725000,88.0425000,79.4869531
9.5990950,0.0457454,97.5725000,88.0425000,79.4869531
9.6532140,0.0369146,97.5241406,88.3078906,78.7768750
9.6642110,0.0256024,97.5241406,88.3078906,78.7768750
9.7157510,0.0162725,97.5777344,88.2657031,79.2576562
9.7277520,0.0122594,97.5777344,88.2657031,79.2576562
9.7805360,0.0126587,97.4202344,88.0440625,79.6753125
9.7925350,0.0169408,97.4202344,88.0440625,79.6753125
9.8430820,0.0252645,97.8518750,88.3327344,79.2183594
9.8550810,0.0349147,97.8518750,88.3327344,79.2183594
9.9218750,0.0419536,97.5177344,88.3155469,79.3997656
9.9348810,0.0441518,97.5177344,88.3155469,79.3997656
9.9881710,0.0419794,98.2015467,88.2479482,79.6033775
10.0000710,0.0390465,98.2015467,88.2479482,79.6033775
10.0496310,0.0384792,98.0248580,88.3174716,79.4386837
10.0616320,0.0400262,98.0248580,88.3174716,79.4386837
10.1158260,0.0425789,98.1094539,88.2233270,79.6364426
10.1288260,0.0450047,98.1094539,88.2233270,79.6364426
10.1812900,0.0450823,97.7624684,88.2263258,79.7320076
10.1933700,0.0419466,97.7624684,88.2263258,79.7320076
10.2423470,0.0370872,97.9587279,88.4358428,79.7655461
10.2548350,0.0315011,97.9587279,88.4358428,79.7655461
10.3238900,0.0247657,98.4247159,88.7058081,79.6272096
10.3375490,0.0168225,98.4247159,88.7058081,79.6272096
10.3861140,0.0096961,98.0642361,88.2176452,80.0890941
10.3981120,0.0064322,98.0642361,88.2176452,80.0890941
10.4519420,0.0075653,97.9870581,88.1639047,79.6484375
10.4662060,0.0109624,97.9870581,88.1639047,79.6484375
10.5156320,0.0149243,97.6661932,88.0465593,79.8884154
10.5286310,0.0178951,97.6661932,88.0465593,79.8884154
10.5809320,0.0170683,97.5319602,88.2050189,79.7226168
10.5929420,0.0112670,97.5319602,88.2050189,79.7226168
10.6528490,0.0038329,97.9139047,87.9550979,80.1111111
10.6658490,-0.0004278,97.9139047,87.9550979,80.1111111
10.7362080,-0.0016603,97.6767677,88.3288352,79.4361585
10.7477320,-0.0038369,97.6767677,88.3288352,79.4361585
10.7994280,-0.0072988,97.7341383,88.1034564,79.9409722
10.8113030,-0.0100840,97.7341383,88.1034564,79.9409722
10.8657260,-0.0134483,97.8431187,88.2932449,79.6547506
10.8777250,-0.0180168,97.8431187,88.2932449,79.6547506
10.9290040,-0.0202565,97.9986585,88.1318655,79.6395991
10.9419940,-0.0182912,97.9986585,88.1318655,79.6395991
10.9965660,-0.0140670,97.8491162,88.0114426,80.2320865
11.0095630,-0.0084842,97.8491162,88.0114426,80.2320865
11.0544630,-0.0014190,97.4261364,88.1120581,80.2961648
11.0674770,0.0054020,97.4261364,88.1120581,80.2961648
11.1362560,0.0097125,97.5396938,87.9730903,79.8435133
11.1482540,0.0101685,97.5396938,87.9730903,79.8435133
11.2038920,0.0058551,97.1994949,88.1145833,79.9268466
11.2147870,-0.0024780,97.1994949,88.1145833,79.9268466
11.2630450,-0.0106384,97.5865688,87.8786301,80.3779198
11.2774000,-0.0136479,97.5865688,87.8786301,80.3779198
11.3324100,-0.0116324,98.9337910,89.7698074,81.3828914
11.3464110,-0.0090065,98.9337910,89.7698074,81.3828914
11.3973640,-0.0069289,99.5138889,89.7076231,81.9493371
11.4093640,-0.0040266,99.5138889,89.7076231,81.9493371
11.4439650,-0.0020291,99.9145360,90.2276673,82.1328914
11.4575650,-0.0020285,99.9145360,90.2276673,82.1328914
11.5233960,-0.0016206,99.4453914,90.2652304,82.2424242
11.5364050,-0.0006716,99.4453914,90.2652304,82.2424242
11.5910110,-0.0025732,99.3361742,90.0405619,81.4988163
11.6030190,-0.0087899,99.3361742,90.0405619,81.4988163
11.6554090,-0.0167646,99.2340593,89.9466540,81.8005840
11.6674070,-0.0227401,99.2340593,89.9466540,81.8005840
11.7189270,-0.0245943,101.5808081,92.1195549,83.9021465
11.7309210,-0.0221749,101.5808081,92.1195549,83.9021465
11.7796550,-0.0164449,101.6433870,92.0833333,83.7183554
11.7925560,-0.0094826,101.6433870,92.0833333,83.7183554
11.8434830,-0.0043057,101.2054135,92.1026673,83.5190183
11.8564870,-0.0031449,101.2054135,92.1026673,83.5190183
11.9248680,-0.0048629,103.2781723,93.3701073,85.1294981
11.9378680,-0.0056953,103.2781723,93.3701073,85.1294981
11.9927040,-0.0044155,102.7316130,93.5537405,84.9772727
12.0047040,-0.0027622,102.7316130,93.5537405,84.9772727
12.0527610,-0.0011672,102.9266888,93.6133996,85.0967487
12.0646450,0.0000905,102.9266888,93.6133996,85.0967487
12.1176650,-0.0001135,103.1727431,93.4356850,85.3273359
12.1296640,-0.0001184,103.1727431,93.4356850,85.3273359
12.1908780,0.0024508,103.0141901,93.6022800,84.9794324
12.2028440,0.0064273,103.0141901,93.6022800,84.9794324
12.2518100,0.0102013,103.2673788,93.5822704,85.5165816
12.2648050,0.0136430,103.2673788,93.5822704,85.5165816
12.3351700,0.0150029,104.7936065,95.1139190,86.1631059
12.3471000,0.0127048,104.7936065,95.1139190,86.1631059
12.3938390,0.0081780,104.3106665,95.2722417,86.5494260
12.4078020,0.0024744,104.3106665,95.2722417,86.5494260
12.4585160,-0.0045422,104.6449298,95.2747130,86.7877870
12.4713640,-0.0108912,104.6449298,95.2747130,86.7877870
12.5215060,-0.0138834,104.3772321,95.1925223,86.6066645
12.5325060,-0.0131094,104.3772321,95.1925223,86.6066645
12.5866550,-0.0094715,104.4234694,95.2065529,86.7008929
12.5976530,-0.0046221,104.4234694,95.2065529,86.7008929
12.6542830,0.0001144,104.6323342,94.9487404,87.0031091
12.6692880,0.0056722,104.6323342,94.9487404,87.0031091
12.7314110,0.0124459,104.4284917,94.9405293,86.4218750
12.7424580,0.0183547,104.4284917,94.9405293,86.4218750
12.7948750,0.0214590,104.5086894,94.9359853,86.1109694
12.8079240,0.0205071,104.5086894,94.9359853,86.1109694
12.8606400,0.0144422,104.6576849,95.1169483,86.0566008
12.8726490,0.0046711,104.6576849,95.1169483,86.0566008
12.9258300,-0.0052308,104.4246652,95.1709981,86.1382334
12.9386340,-0.0128747,104.4246652,95.1709981,86.1382334
12.9875140,-0.0162865,104.7506378,94.7885842,86.6850287
13.0005140,-0.0130229,104.7506378,94.7885842,86.6850287
13.0450990,-0.0039791,104.5905612,95.0374681,86.4914700
13.0580450,0.0066044,104.5905612,95.0374681,86.4914700
13.1236230,0.0164580,104.6719547,94.7956792,86.7796556
13.1356590,0.0247927,104.6719547,94.7956792,86.7796556
13.1898950,0.0278373,104.4981665,95.2766263,86.4043367
13.2029180,0.0227248,104.4981665,95.2766263,86.4043367
13.3184720,0.0112768,105.1952328,95.5416932,85.2138871
13.3354660,-0.0043919,105.1952328,95.5416932,85.2138871
13.3846150,-0.0219829,105.4485810,95.1124841,85.3267698
13.3966500,-0.0359596,105.4485810,95.1124841,85.3267698
13.4566690,-0.0406212,105.0227200,94.6764987,85.8281250
13.5223510,-0.0341848,105.0337213,94.7747927,85.6611926
13.5343510,-0.0190463,105.0337213,94.7747927,85.6611926
13.5866090,-0.0010503,104.9473055,94.7602838,85.4703444
13.5986080,0.0132140,104.9473055,94.7602838,85.4703444
13.6673500,0.0199238,104.6819994,94.8498087,85.6112883
13.6783860,0.0186648,104.6819994,94.8498087,85.6112883
13.7350370,0.0121979,104.8495695,94.9099968,85.5613839
13.7470370,0.0045109,104.8495695,94.9099968,85.5613839
13.8028040,-0.0018428,104.7108578,94.8689413,85.3880740
13.8163330,-0.0061020,104.7108578,94.8689413,85.3880740
13.8822800,-0.0083862,104.3306760,94.9297672,85.8129783
13.8942850,-0.0092667,104.3306760,94.9297672,85.8129783
13.9457660,-0.0086606,105.2008131,94.6784120,85.4757653
13.9577690,-0.0053036,105.2008131,94.6784120,85.4757653
14.0110130,0.0007495,104.9453922,94.9072864,85.7015306
14.0240110,0.0074437,104.9453922,94.9072864,85.7015306
14.0930030,0.0119103,104.4857302,95.0482302,85.0651307
14.1060590,0.0107299,104.4857302,95.0482302,85.0651307
14.1554890,0.0030520,105.2085459,95.1987404,85.4805485
14.1674890,-0.0072934,105.2085459,95.1987404,85.4805485
14.2188360,-0.0155779,105.4495376,95.2474490,85.5312500
14.2298820,-0.0186690,105.4495376,95.2474490,85.5312500
14.2983870,-0.0150334,104.9878029,94.9778380,85.4978476
14.3131160,-0.0066091,104.9878029,94.9778380,85.4978476
14.3635190,0.0024091,105.1449298,94.8486926,85.3880740
14.3763350,0.0094448,105.1449298,94.8486926,85.3880740
14.4306210,0.0143071,105.0184949,94.7713648,85.7893814
14.4426310,0.0180685,105.0184949,94.7713648,85.7893814
14.4902380,0.0211152,105.1513074,94.8735651,85.3235013
14.5022390,0.0224178,105.1513074,94.8735651,85.3235013
14.5756710,0.0213258,105.2765466,94.8290019,85.2355708
14.5876710,0.0181657,105.2765466,94.8290019,85.2355708
14.6300060,0.0132769,104.9637277,94.7476084,85.2393973
14.6450050,0.0076006,104.9637277,94.7476084,85.2393973
14.7000060,0.0026428,105.3949298,95.2959981,85.6099330
14.7140050,-0.0012312,105.3949298,95.2959981,85.6099330
14.8380420,-0.0054079,104.3297194,94.8816964,84.7882653
14.8510080,-0.0116627,104.3297194,94.8816964,84.7882653
14.9000460,-0.0194484,103.9229911,94.5117187,85.1012436
14.9120050,-0.0260390,103.9229911,94.5117187,85.1012436
14.9629350,-0.0297472,103.3986767,94.3353795,85.0090880
14.9759320,-0.0302223,103.3986767,94.3353795,85.0090880
15.0341160,-0.0263099,103.7483259,94.2036033,85.2903380
15.0461130,-0.0177130,103.7483259,94.2036033,85.2903380
15.1151490,-0.0064026,104.1319356,93.9930644,85.1768176
15.1281160,0.0060519,104.1319356,93.9930644,85.1768176
15.1852430,0.0177807,103.8734056,94.4648437,85.0341996
15.1972420,0.0248816,103.8734056,94.4648437,85.0341996
15.2467390,0.0253391,104.0872130,94.3148119,85.1848693
15.3103160,0.0211736,104.1198980,94.3474171,85.5043846
15.3896190,0.0149699,104.4685906,94.4266582,85.1422194
15.4037700,0.0092641,104.4685906,94.4266582,85.1422194
15.4388140,0.0069209,104.2773437,94.4363839,85.1466837
15.4537710,0.0078488,104.2773437,94.4363839,85.1466837
15.5048160,0.0086334,104.1159120,94.5566805,85.0885682
15.5167680,0.0063969,104.1159120,94.5566805,85.0885682
15.5797600,0.0014305,103.9551977,94.5087691,85.4339126
15.5918350,-0.0039348,103.9551977,94.5087691,85.4339126
15.6457550,-0.0075761,104.1584024,94.5887277,85.6851084
15.6579540,-0.0081942,104.1584024,94.5887277,85.6851084
15.7102300,-0.0060749,104.2519133,94.7860332,85.3363361
15.7755290,-0.0041368,104.1469228,94.8372927,84.8371333
15.7875260,-0.0056465,104.1469228,94.8372927,84.8371333
15.8313220,-0.0109173,104.0422513,94.7079082,85.0424107
15.8453340,-0.0179386,104.0422513,94.7079082,85.0424107
15.8912770,-0.0240339,104.4396524,94.5610651,84.4850128
15.9033220,-0.0263425,104.4396524,94.5610651,84.4850128
15.9706470,-0.0227815,104.2256059,94.4114318,85.2700893
15.9826460,-0.0135596,104.2256059,94.4114318,85.2700893
16.0349050,-0.0019409,104.3170440,94.4964126,84.7614796
16.0469080,0.0079494,104.3170440,94.4964126,84.7614796
16.0995950,0.0142730,103.9147800,94.3286033,84.9862085
16.1647740,0.0171934,103.8325893,94.2756696,85.2590880
16.1777740,0.0171723,103.8325893,94.2756696,85.2590880
16.2279440,0.0150596,103.8885523,94.4316008,84.9104751
16.2399900,0.0120648,103.8885523,94.4316008,84.9104751
16.2921170,0.0087617,104.1371971,94.5563616,84.6933195
16.3051310,0.0047421,104.1371971,94.5563616,84.6933195
16.3701160,-0.0000140,104.0076531,94.5402583,85.2972736
16.3831150,-0.0038525,104.0076531,94.5402583,85.2972736
16.4371570,-0.0049884,103.9134247,94.4375000,85.1404656
16.4501170,-0.0032530,103.9134247,94.4375000,85.1404656
16.5031220,-0.0001001,103.8780293,94.5824298,84.8105867
16.5701200,0.0014424,103.8983578,94.8557876,84.8212691
16.5821170,-0.0013101,103.8983578,94.8557876,84.8212691
16.6361200,-0.0075402,104.0739796,94.6177455,84.8470982
16.6481150,-0.0138876,104.0739796,94.6177455,84.8470982
16.7061180,-0.0169640,104.1973852,94.2391582,84.7275191
16.7201150,-0.0140456,104.1973852,94.2391582,84.7275191
16.7801160,-0.0047438,104.1260364,94.3421556,85.1485172
16.7931170,0.0079946,104.1260364,94.3421556,85.1485172
16.8448670,0.0200061,104.0632972,94.1882972,84.9337532
16.8569290,0.0282785,104.0632972,94.1882972,84.9337532
16.9064900,0.0313572,103.4219547,94.1114477,85.1656569
16.9694630,0.0288305,103.5680804,94.3746014,84.7673788
16.9834610,0.0211612,103.5680804,94.3746014,84.7673788
17.0354580,0.0109796,103.7558992,94.1185427,85.0007175
17.0482910,0.0022948,103.7558992,94.1185427,85.0007175
17.0983190,-0.0034520,103.4049745,94.2870695,84.7648278
17.1132810,-0.0071433,103.4049745,94.2870695,84.7648278
17.1813720,-0.0088893,103.5712691,94.2957589,84.7548629
17.1943720,-0.0093168,103.5712691,94.2957589,84.7548629
17.2423710,-0.0112944,103.5783642,94.3269292,83.8919802
17.2573750,-0.0164680,103.5783642,94.3269292,83.8919802
17.3063830,-0.0219828,103.7173151,94.1288265,84.4910714
17.3884490,-0.0244385,103.4646843,94.3811384,84.4736129
17.4204440,-0.0242401,103.4646843,94.3811384,84.4736129
17.4464400,-0.0224135,103.6253986,94.4705835,84.7197864
17.4594400,-0.0182592,103.6253986,94.4705835,84.7197864
17.4954420,-0.0125364,103.6224490,94.5310108,85.0077328
17.5094460,-0.0073321,103.6224490,94.5310108,85.0077328
17.6025510,-0.0034166,103.4986448,94.4671556,84.3793048
17.6295470,-0.0012390,103.4986448,94.4671556,84.3793048
17.7445520,-0.0000420,103.4594228,94.0834662,85.0861767
17.7705460,0.0027745,103.4594228,94.0834662,85.0861767
17.7965440,0.0089011,104.4594228,93.9589445,84.6912468
17.8105470,0.0189723,104.4594228,93.9589445,84.6912468
17.8405440,0.0319858,104.1979432,94.2075893,84.6745057
17.8515450,0.0434965,104.1979432,94.2075893,84.6745057
17.9425470,0.0494042,104.1781728,94.0370695,85.2333386
17.9615460,0.0496922,104.1781728,94.0370695,85.2333386
17.9825450,0.0451149,104.1536193,94.2867506,84.7813297
17.9945450,0.0363781,104.1536193,94.2867506,84.7813297
18.0825500,0.0267826,104.6286671,94.2028858,84.8122608
18.1025470,0.0192270,104.6286671,94.2028858,84.8122608
18.1255440,0.0130585,104.0294165,94.1891741,85.1295440
18.1385500,0.0074350,104.0294165,94.1891741,85.1295440
18.2185510,0.0025833,103.8052455,94.5330835,84.8793846
18.2405460,-0.0031456,103.8052455,94.5330835,84.8793846
18.2705450,-0.0105429,104.2835619,94.6044324,85.9412468
18.2825450,-0.0167720,104.2835619,94.6044324,85.9412468
18.3565500,-0.0196097,104.6052296,94.7881059,85.6878189
18.3815470,-0.0188022,104.6052296,94.7881059,85.6878189
18.4095450,-0.0143889,104.0041454,94.5448820,85.4010682
18.4225480,-0.0089660,104.0041454,94.5448820,85.4010682
18.4565460,-0.0060142,103.8974809,94.2378029,85.8903858
18.4675810,-0.0050452,103.8974809,94.2378029,85.8903858
18.5715600,-0.0037532,103.8177872,94.0759943,85.5118371
18.6005510,-0.0011102,103.8177872,94.0759943,85.5118371
18.6295450,0.0024585,103.4779040,94.1386521,85.2264836
18.6415450,0.0043278,103.4779040,94.1386521,85.2264836
18.6655460,0.0025353,104.0274621,94.0141256,85.4058554
18.6775450,-0.0010568,104.0274621,94.0141256,85.4058554
18.7901760,-0.0047988,103.7596275,94.1384154,84.6826862
18.8191180,-0.0092094,103.7596275,94.1384154,84.6826862
18.8451140,-0.0127870,103.9830335,94.1438605,85.5033933
18.8591150,-0.0134598,103.9830335,94.1438605,85.5033933
18.8801130,-0.0127231,103.8031092,94.0774937,85.1344697
18.8921140,-0.0121595,103.8031092,94.0774937,85.1344697
18.9731160,-0.0107810,103.7638100,94.2944287,85.2117266
19.0131150,-0.0093952,103.4934501,94.3029514,85.1487532
19.0301440,-0.0110524,103.4934501,94.3029514,85.1487532
19.0981150,-0.0158752,103.8315972,94.3586648,85.3460385
19.1161640,-0.0207787,103.8315972,94.3586648,85.3460385
19.2503380,-0.0234334,103.6258681,93.7582071,84.1003788
19.2863230,-0.0231972,103.6258681,93.7582071,84.1003788
19.3103210,-0.0199574,103.2803819,93.6892361,84.6860795
19.3233630,-0.0144453,103.2803819,93.6892361,84.6860795
19.3503570,-0.0089123,102.9128788,93.7309817,84.6282355
19.3623210,-0.0053882,102.9128788,93.7309817,84.6282355
19.4473280,-0.0030415,103.5573706,93.6167929,84.7503946
19.4732860,0.0003752,103.5573706,93.6167929,84.7503946
19.4982830,0.0057217,103.5187027,93.3937816,84.9557292
19.5102840,0.0133309,103.5187027,93.3937816,84.9557292
19.5952940,0.0223354,103.2279830,93.6388100,84.6428346
19.6182860,0.0289417,103.2279830,93.6388100,84.6428346
19.6403030,0.0286553,103.1425979,93.9798769,84.2083333
19.6512840,0.0192567,103.1425979,93.9798769,84.2083333
19.6962830,0.0026667,103.2554451,94.0939078,84.8216540
19.7082840,-0.0151491,103.2554451,94.0939078,84.8216540
19.7882880,-0.0280524,103.4792456,94.0902778,84.7880366
19.8102860,-0.0328823,103.4792456,94.0902778,84.7880366
19.8332840,-0.0295030,103.2252210,93.9895833,84.7053346
19.8482830,-0.0210495,103.2252210,93.9895833,84.7053346
19.8832840,-0.0119907,103.6298927,94.0300663,84.5058396
19.8962830,-0.0049819,103.6298927,94.0300663,84.5058396
19.9852870,-0.0015823,103.3683712,94.2174874,84.0303030
20.0052850,-0.0028313,103.3683712,94.2174874,84.0303030
20.0322830,-0.0076907,103.0954072,94.2481061,84.3449337
20.0462840,-0.0139480,103.0954072,94.2481061,84.3449337
20.1172900,-0.0198342,103.0618687,94.1619318,84.4744318
20.1432850,-0.0232922,103.0618687,94.1619318,84.4744318
20.1752850,-0.0221828,102.9805082,94.0083649,84.4955019
20.1902870,-0.0163351,102.9805082,94.0083649,84.4955019
20.2172840,-0.0063414,103.5212279,93.5581597,84.6486742
20.2302840,0.0077908,103.5212279,93.5581597,84.6486742
20.2752840,0.0234784,103.3042140,93.8592961,84.3446181
20.2882860,0.0359039,103.3042140,93.8592961,84.3446181
20.3562830,0.0432915,103.4728535,93.6051926,84.5631313
20.3682850,0.0465069,103.4728535,93.6051926,84.5631313
20.4462930,0.0444638,103.7051768,94.2235638,84.5133365
20.4702860,0.0367707,103.7051768,94.2235638,84.5133365
20.4952970,0.0271780,103.7670455,94.1518308,84.6126894
20.5082830,0.0189245,103.7670455,94.1518308,84.6126894
20.5452830,0.0123014,103.6044034,93.9840593,85.1305240
20.5572840,0.0082864,103.6044034,93.9840593,85.1305240
20.6452870,0.0082238,103.2664931,93.7982165,84.6304451
20.6712850,0.0107367,103.2664931,93.7982165,84.6304451
20.6962840,0.0130850,103.3114741,93.8659249,84.6230271
20.7112850,0.0131566,103.3114741,93.8659249,84.6230271
20.7552840,0.0104165,103.8655303,93.8948074,84.8348327
20.7692870,0.0069505,103.8655303,93.8948074,84.8348327
20.8222840,0.0041950,103.3200758,94.1077967,84.4296086
20.8373000,0.0006697,103.3200758,94.1077967,84.4296086
20.8832830,-0.0043540,103.0141256,93.8508523,84.5269097
20.8962850,-0.0101852,103.0141256,93.8508523,84.5269097
20.9522850,-0.0164502,103.3281250,93.8790246,84.6710859
20.9652840,-0.0212023,103.3281250,93.8790246,84.6710859
21.0542870,-0.0212816,103.5707071,93.8656881,84.5729167
21.0772850,-0.0162711,103.5707071,93.8656881,84.5729167
21.1002840,-0.0088606,103.3835227,93.8038984,84.5078914
21.1132840,-0.0021983,103.3835227,93.8038984,84.5078914
21.1462840,0.0017864,103.3574021,93.8477746,84.6172664
21.1592840,0.0028512,103.3574021,93.8477746,84.6172664
21.2582890,0.0016244,103.5793087,94.0311711,84.5437973
21.2862870,-0.0010338,103.5793087,94.0311711,84.5437973
21.3112840,-0.0040546,103.2103851,93.9425505,84.6992582
21.3232840,-0.0066619,103.2103851,93.9425505,84.6992582
21.3552890,-0.0082399,103.4989741,93.8597696,84.6863163
21.3672830,-0.0079691,103.4989741,93.8597696,84.6863163
21.4472850,-0.0057605,103.4561237,93.8871528,84.5779672
21.4662850,-0.0026334,103.4561237,93.8871528,84.5779672
21.4902830,0.0002956,103.3349116,93.9683554,84.7585227
21.5032840,0.0020481,103.3349116,93.9683554,84.7585227
21.5732870,0.0010883,103.2340593,94.3012942,84.5963542
21.5952840,-0.0036651,103.2340593,94.3012942,84.5963542
21.6252840,-0.0100427,103.2810922,93.9380524,85.1420455
21.6362850,-0.0137432,103.2810922,93.9380524,85.1420455
