ts,p0,p1,p2,p3
0.8860320,0.0484523,108.9572791,85.9879847,82.7087730
0.9018870,0.1918476,108.5765800,86.0317278,83.7029179
0.9238970,0.3555904,108.8320707,85.8344697,83.6583333
0.9359340,0.4444894,108.7337121,86.0346591,83.9395833
0.9638970,0.4445354,110.8421717,87.5182449,85.0950126
0.9967130,0.3835534,110.4017677,87.4476010,84.3003788
1.0277240,0.2971460,109.5252665,86.8545455,84.2056426
1.0739680,0.2095224,110.7257680,88.5000627,85.6984326
1.0939700,0.1314885,111.2961088,88.3440683,85.7433724
1.1260170,0.0669233,111.5146473,88.1804492,85.4762417
1.2003490,0.0173453,115.5059791,92.0217653,89.2652325
1.2649580,-0.0166480,115.0972477,91.9220500,89.9487504
1.2789560,-0.0365692,115.0972477,91.9220500,89.9487504
1.3446650,-0.0465530,115.2220183,91.9591901,90.1166719
1.3576610,-0.0514683,115.2220183,91.9591901,90.1166719
1.4105500,-0.0550213,117.1206580,93.6616261,91.5531161
1.4235600,-0.0609609,117.1206580,93.6616261,91.5531161
1.4731760,-0.0725320,117.3262259,93.7018665,91.6582094
1.4861840,-0.0891127,117.3262259,93.7018665,91.6582094
1.5356000,-0.1080161,117.2196140,93.7652642,91.4623220
1.5486010,-0.1266678,117.2196140,93.7652642,91.4623220
1.5992730,-0.1424236,119.0733945,95.4228409,92.9640620
1.6128920,-0.1542226,119.0733945,95.4228409,92.9640620
1.6609920,-0.1623141,118.6041379,95.2677116,92.9691536
1.6739890,-0.1661807,118.6041379,95.2677116,92.9691536
1.7438250,-0.1657052,119.0299060,95.6349216,92.9888401
1.7559720,-0.1624620,119.0299060,95.6349216,92.9888401
1.8083020,-0.1579150,120.6271473,97.2798119,94.5379310
1.8203010,-0.1529862,120.6271473,97.2798119,94.5379310
1.8718250,-0.1476248,120.4557994,97.1685266,94.8092163
1.8838340,-0.1396159,120.4557994,97.1685266,94.8092163
1.9338660,-0.1273739,120.5328527,97.0713480,94.4676489
1.9468750,-0.1121852,120.5328527,97.0713480,94.4676489
2.0004630,-0.0950811,123.0546708,99.1868339,97.0289655
2.0130680,-0.0762721,123.0546708,99.1868339,97.0289655
2.0621110,-0.0580248,123.0131034,99.2861442,96.9990596
2.0731610,-0.0424908,123.0131034,99.2861442,96.9990596
2.1417600,-0.0294465,123.0053292,99.2227586,96.8424451
2.1538050,-0.0191961,123.0053292,99.2227586,96.8424451
2.2094240,-0.0124139,123.1115361,99.1297806,97.1559248
2.2215940,-0.0071081,123.1115361,99.1297806,97.1559248
2.2746740,-0.0021873,122.9048903,99.3007524,96.6510972
2.2866390,0.0001818,122.9048903,99.3007524,96.6510972
2.3247600,-0.0002533,123.2070219,99.2741066,96.9151097
2.3377600,-0.0017156,123.2070219,99.2741066,96.9151097
2.3866220,-0.0044742,123.0549843,99.3178683,96.7982445
2.3996790,-0.0080415,123.0549843,99.3178683,96.7982445
2.4511240,-0.0092025,122.8273354,99.4305956,96.9164890
2.4640680,-0.0070619,122.8273354,99.4305956,96.9164890
2.5315080,-0.0045837,123.3444514,99.4015674,96.6169906
2.5442840,-0.0042172,123.3444514,99.4015674,96.6169906
2.5963530,-0.0057235,123.1174922,99.7634483,96.9902194
2.6083510,-0.0078781,123.1174922,99.7634483,96.9902194
2.6600150,-0.0098285,122.4974837,99.3482448,96.5727866
2.6738320,-0.0108837,122.0281404,99.0543719,96.2735837
2.7250760,-0.0100776,122.2940271,98.8490148,96.1881158
2.7380730,-0.0067055,122.2940271,98.8490148,96.1881158
2.7868450,-0.0007541,121.6137321,98.4095209,95.9950565
2.8008420,0.0073634,121.1971567,98.1656382,95.7503327
2.8528820,0.0154044,120.9249244,98.3035088,95.3259528
2.8655290,0.0194285,120.9249244,98.3035088,95.3259528
2.9313090,0.0187014,121.4464449,98.3395179,95.8734818
2.9423130,0.0164189,121.4464449,98.3395179,95.8734818
2.9927730,0.0148408,121.5281660,98.2502899,95.8192859
3.0058230,0.0155775,121.5281660,98.2502899,95.8192859
3.0666130,0.0213598,121.9856195,98.4347960,96.2920354
3.0804290,0.0319883,121.9856195,98.4347960,96.2920354
3.1305730,0.0432050,121.9754794,98.4115044,96.3847714
3.1445860,0.0516687,121.9754794,98.4115044,96.3847714
3.1952960,0.0565746,122.1817847,98.4145157,96.3090585
3.2072930,0.0576008,122.1817847,98.4145157,96.3090585
3.2609860,0.0539800,122.2270772,98.5691372,96.2302114
3.2732460,0.0454089,122.2270772,98.5691372,96.2302114
3.3392550,0.0331831,121.9869100,98.6835669,96.4023476
3.3523580,0.0198156,121.9869100,98.6835669,96.4023476
3.4231900,0.0062224,122.3157571,98.8806539,95.9072026
3.4381910,-0.0086159,122.3157571,98.8806539,95.9072026
3.4681890,-0.0233367,122.1150442,98.7725541,96.1535152
3.4810040,-0.0347025,122.1150442,98.7725541,96.1535152
3.5370150,-0.0411563,122.2174902,98.5627458,96.1156588
3.5490140,-0.0415612,122.2174902,98.5627458,96.1156588
3.5868240,-0.0343869,121.8298304,98.5456613,96.3306908
3.5988260,-0.0210804,121.8298304,98.5456613,96.3306908
3.6508290,-0.0058990,122.2555924,98.2307030,96.1516716
3.6625580,0.0078419,122.2555924,98.2307030,96.1516716
3.7286250,0.0174811,121.9046829,98.3635693,95.8847714
3.7400940,0.0205330,121.9046829,98.3635693,95.8847714
3.7933360,0.0164038,122.0052852,98.3155728,95.5730703
3.8053860,0.0062635,122.0052852,98.3155728,95.5730703
3.8606330,-0.0072849,122.2701573,98.3384956,95.7732301
3.8746340,-0.0197509,122.2701573,98.3384956,95.7732301
3.9227710,-0.0258747,122.2570059,98.2243117,96.2151549
3.9349030,-0.0223745,122.2570059,98.2243117,96.2151549
3.9862070,-0.0107422,122.1983776,98.3120698,96.0063299
3.9992010,0.0033173,122.1983776,98.3120698,96.0063299
4.0478180,0.0142176,122.2386922,98.4000737,95.9454277
4.0598190,0.0184550,122.2386922,98.4000737,95.9454277
4.1140280,0.0147437,122.1103122,98.4295108,96.0294371
4.1260260,0.0057905,122.1103122,98.4295108,96.0294371
4.1938720,-0.0036305,122.1380900,98.5723328,96.0633604
4.2068720,-0.0106310,122.1380900,98.5723328,96.0633604
4.2570330,-0.0137619,122.0698746,98.4357178,96.2375860
4.2690450,-0.0123968,122.0698746,98.4357178,96.2375860
4.3201840,-0.0078887,122.3525074,98.2989184,95.9907817
4.3351450,-0.0023736,122.3525074,98.2989184,95.9907817
4.3862240,0.0032809,122.2200713,98.2573132,96.0824730
4.3982090,0.0084898,122.2200713,98.2573132,96.0824730
4.4482540,0.0118416,122.2409046,98.0640364,95.8615413
4.4603730,0.0128440,122.2409046,98.0640364,95.8615413
4.5115710,0.0121662,122.2389381,98.0874508,95.7333456
4.5236180,0.0099957,122.2389381,98.0874508,95.7333456
4.5938820,0.0065914,122.1806170,98.0935349,95.8995821
4.6067640,0.0031173,122.1806170,98.0935349,95.8995821
4.6600720,0.0006935,122.2670231,98.0261185,95.8928835
4.6717710,0.0000396,122.2670231,98.0261185,95.8928835
4.7228260,0.0013984,122.3502950,98.1214971,95.9486849
4.7359380,0.0037505,122.3502950,98.1214971,95.9486849
4.7876430,0.0048481,122.7779007,98.4739430,96.0073132
4.8006880,0.0026878,122.7779007,98.4739430,96.0073132
4.8503570,-0.0030130,122.4153761,98.4885079,95.9692109
4.8632550,-0.0109293,122.4153761,98.4885079,95.9692109
4.9146030,-0.0184465,122.1803712,98.3864921,96.2364798
4.9256470,-0.0222110,122.1803712,98.3864921,96.2364798
4.9918730,-0.0214273,122.4426622,98.4500983,95.7940020
5.0038820,-0.0188959,122.4426622,98.4500983,95.7940020
5.0565740,-0.0153872,122.3730334,98.2023107,96.3346239
5.0701280,-0.0089688,122.3730334,98.2023107,96.3346239
5.1274200,-0.0009557,122.4311087,97.9998156,95.7879179
5.1394190,0.0060406,122.4311087,97.9998156,95.7879179
5.1873300,0.0117148,122.5242748,98.2988569,95.7425639
5.2005450,0.0140123,122.5242748,98.2988569,95.7425639
5.2480440,0.0096560,122.9575959,98.4378073,95.9708088
5.2605680,0.0000278,122.9575959,98.4378073,95.9708088
5.3115600,-0.0095561,122.4014258,98.1599680,95.9658923
5.3236390,-0.0142979,122.4014258,98.1599680,95.9658923
5.4373670,-0.0131788,119.7450836,95.9698255,93.3722345
5.4548840,-0.0096397,119.7450836,95.9698255,93.3722345
5.5249000,-0.0074085,120.0286382,96.0432030,93.4529253
5.5378820,-0.0079614,120.0286382,96.0432030,93.4529253
5.6209570,-0.0116553,119.9864184,96.1248771,93.4613446
5.6379530,-0.0169398,119.9864184,96.1248771,93.4613446
5.7149260,-0.0199273,119.9917650,96.2085792,93.8860619
5.7289260,-0.0177976,119.9917650,96.2085792,93.8860619
5.8393100,-0.0112236,120.0755285,95.9708088,93.6057645
5.8563060,-0.0025496,120.0755285,95.9708088,93.6057645
5.9206020,0.0063955,119.8823746,96.0048550,93.6716445
5.9326130,0.0138744,119.8823746,96.0048550,93.6716445
6.0263180,0.0187912,120.0463373,95.7149705,93.6802483
6.0413180,0.0222399,120.0463373,95.7149705,93.6802483
6.1155210,0.0248363,120.0457227,95.6372911,93.1771141
6.1302090,0.0251884,120.0457227,95.6372911,93.1771141
6.2379600,0.0235790,119.9534784,95.5746681,93.5411750
6.2554310,0.0219336,119.9534784,95.5746681,93.5411750
6.3206490,0.0196211,119.9349189,95.7771632,93.3773353
6.3323030,0.0153063,119.9349189,95.7771632,93.3773353
6.4174630,0.0106915,119.9625737,95.7864430,93.5069444
6.4308310,0.0071953,119.9625737,95.7864430,93.5069444
6.5230530,0.0021762,120.4762671,96.3314562,93.3883904
6.5380670,-0.0071416,120.4762671,96.3314562,93.3883904
6.6313590,-0.0185095,120.1848505,96.1136828,93.4799802
6.6501830,-0.0277754,120.1848505,96.1136828,93.4799802
6.7233990,-0.0337427,120.4732020,96.1381030,93.3895052
6.7374050,-0.0361735,120.4732020,96.1381030,93.3895052
6.8228230,-0.0336907,120.3765424,96.0824505,93.3851427
6.8378200,-0.0269861,120.3765424,96.0824505,93.3851427
6.9118680,-0.0186478,120.2189954,95.8681914,93.5578960
6.9235030,-0.0095451,120.2189954,95.8681914,93.5578960
7.0462670,0.0002774,120.6103079,95.6699489,93.2591300
7.0612350,0.0099080,120.6103079,95.6699489,93.2591300
7.1215670,0.0184051,120.5334663,95.8847688,93.5645644
7.1345170,0.0247445,120.5334663,95.8847688,93.5645644
7.2211070,0.0276558,120.3676306,95.8121027,93.5377041
7.2391060,0.0273128,120.3676306,95.8121027,93.5377041
7.3131300,0.0245777,120.0590801,96.1248909,93.5465537
7.3261300,0.0193130,120.0590801,96.1248909,93.5465537
7.4329520,0.0113577,120.2267855,96.2485978,93.4674062
7.4479650,0.0011881,120.2267855,96.2485978,93.4674062
7.5276880,-0.0095603,120.0888072,96.1224604,93.6002119
7.5396890,-0.0177549,120.0888072,96.1224604,93.6002119
7.6239690,-0.0211425,119.9225975,96.1740621,93.5403216
7.6399660,-0.0201002,119.9225975,96.1740621,93.5403216
7.7139480,-0.0169481,120.0593917,96.3124143,93.2474137
7.7269190,-0.0153006,120.0593917,96.3124143,93.2474137
7.8305720,-0.0171392,120.1973701,96.4492708,93.6482612
7.8455750,-0.0206968,120.1973701,96.4492708,93.6482612
7.9226910,-0.0233807,120.1626574,96.6552412,93.8232581
7.9377020,-0.0235191,120.1626574,96.6552412,93.8232581
8.0339600,-0.0187863,120.3747975,96.6777390,94.4221613
8.0497310,-0.0079342,120.3747975,96.6777390,94.4221613
8.1260540,0.0055112,120.3392746,96.9216004,94.1888321
8.1390530,0.0160587,120.3392746,96.9216004,94.1888321
8.2326020,0.0219068,120.2910383,96.6060077,94.0127758
8.2506180,0.0235945,120.2910383,96.6060077,94.0127758
8.3216160,0.0212914,120.1209024,96.4007229,94.0311604
8.3346170,0.0175115,120.1209024,96.4007229,94.0311604
8.4225550,0.0171107,120.1260750,96.3470024,94.3298018
8.4375550,0.0224732,120.1260750,96.3470024,94.3298018
8.5203100,0.0309045,119.8640160,96.4924592,94.1319332
8.5363100,0.0371745,119.8640160,96.4924592,94.1319332
8.6322140,0.0378183,119.9055839,96.4907142,93.9943911
8.6482100,0.0320145,119.9055839,96.4907142,93.9943911
8.7240410,0.0209493,120.0228094,96.4343138,94.0783996
8.7366970,0.0084994,120.0228094,96.4343138,94.0783996
8.8299070,-0.0012819,119.8599028,96.3878225,93.8154057
8.8419430,-0.0074260,119.8599028,96.3878225,93.8154057
8.9305690,-0.0114246,119.9553160,96.3928705,93.4518260
8.9436130,-0.0159338,119.9553160,96.3928705,93.4518260
8.9957180,-0.0230145,117.6814783,94.4558769,91.3786613
9.0087060,-0.0322984,117.6814783,94.4558769,91.3786613
9.0722610,-0.0414711,117.8536084,94.5384520,91.4351240
9.0842700,-0.0479493,117.8536084,94.5384520,91.4351240
9.1338110,-0.0498744,117.7947152,94.3513025,91.3176493
9.1478200,-0.0468370,117.7947152,94.3513025,91.3176493
9.1992980,-0.0409665,117.4114421,94.5747850,91.0522872
9.2112570,-0.0361028,117.4114421,94.5747850,91.0522872
9.2635830,-0.0333487,117.6281316,94.5209398,91.4617350
9.2765520,-0.0304652,117.6281316,94.5209398,91.4617350
9.3307990,-0.0255204,117.3432631,94.5071669,91.8049358
9.3428080,-0.0167332,117.3432631,94.5071669,91.8049358
9.3920720,-0.0030112,115.6881466,93.1106195,90.2767668
9.4040820,0.0127759,115.6881466,93.1106195,90.2767668
9.4683890,0.0265392,115.8126636,92.9269600,90.5139599
9.4803780,0.0370598,115.8126636,92.9269600,90.5139599
9.5378310,0.0445695,116.1209024,92.8477502,90.5766546
9.5502580,0.0502799,116.1209024,92.8477502,90.5766546
9.5875140,0.0551195,114.1392870,91.4485230,88.8632058
9.5995020,0.0571149,114.1392870,91.4485230,88.8632058
9.6548170,0.0542104,114.2784495,91.5176368,89.1528730
9.6670350,0.0472799,114.2784495,91.5176368,89.1528730
9.7143900,0.0367525,114.0602019,91.7500935,88.7286551
9.7265330,0.0221984,114.0602019,91.7500935,88.7286551
9.7791420,0.0066609,114.4539449,91.6675807,88.9269600
9.7901790,-0.0058469,114.4539449,91.6675807,88.9269600
9.8599800,-0.0146862,114.3348498,91.8653247,89.1723794
9.8732560,-0.0196458,114.3348498,91.8653247,89.1723794
9.9250770,-0.0191266,114.4945158,91.8847688,89.1577963
9.9380770,-0.0141545,114.4945158,91.8847688,89.1577963
9.9595270,-0.0097472,110.1884582,87.7606880,84.4698367
9.9725250,-0.0106602,110.1884582,87.7606880,84.4698367
9.9945660,-0.0198571,110.1029540,88.3510532,83.8362832
10.0185140,-0.0380946,110.9095725,88.2301508,84.0957871
10.0505150,-0.0600073,110.8541693,87.9381154,84.2021688
10.0935170,-0.0761315,110.5872492,87.9241556,84.5900536
10.1345150,-0.0801846,110.3342889,87.6591051,84.2726536
10.1585140,-0.0703066,110.0252399,87.6367319,84.4761311
10.1845160,-0.0476004,110.3749221,87.7129503,84.5287299
10.2565200,-0.0193895,110.0782750,87.7419295,84.2492833
10.2795180,0.0042060,109.9228468,87.6719432,84.5333416
10.3015140,0.0199077,110.1377913,87.3942416,84.7462919
10.3385180,0.0284264,109.6946903,87.8699988,84.0385143
10.3725150,0.0286967,110.1556774,87.7522747,84.2203664
10.3955130,0.0224832,110.3273713,87.6480743,83.8253147
10.4335180,0.0155830,109.6729403,87.6796709,84.8790353
10.4615590,0.0124600,110.0459928,87.6049483,85.0127758
10.5235280,0.0149232,110.1913873,87.6096223,84.5946030
10.5455210,0.0233412,110.1215879,87.7914122,84.8701857
10.5675130,0.0362797,110.0939175,87.6055092,84.9070796
10.5885910,0.0494178,109.8916864,87.8088620,84.8600274
10.6966250,0.0548252,110.0248037,88.1237692,84.6976817
10.7146190,0.0482523,110.6437741,87.8837093,84.5865013
10.7306150,0.0343573,110.6437741,87.8837093,84.5865013
10.7496240,0.0194364,110.5972828,87.8637667,84.7364452
10.7724240,0.0070989,109.8653870,87.9020940,84.8926835
10.7844280,0.0001649,109.8653870,87.9020940,84.8926835
10.8954340,0.0001425,110.5360214,87.6792347,84.7598155
10.9184270,0.0057133,110.1766795,87.6728157,84.9311978
10.9334260,0.0138443,110.1766795,87.6728157,84.9311978
10.9544220,0.0208516,110.6101832,87.7646766,84.6690764
10.9764220,0.0240660,110.4741369,87.6507541,84.6825377
11.0024210,0.0227976,110.5186962,87.7687274,84.5491088
11.0924320,0.0173523,110.2499065,87.6442727,84.7031659
11.1124260,0.0091585,110.4780007,87.6510657,84.5380780
11.1254250,0.0006000,110.4780007,87.6510657,84.5380780
11.1464320,-0.0068643,110.4118160,87.5757198,84.0995887
11.1694240,-0.0122866,110.4797457,87.7232332,84.9002244
11.1934250,-0.0134372,110.4806182,87.6449582,85.0254892
11.2284280,-0.0097454,110.1152312,87.7846815,85.0463667
11.3090080,-0.0036128,110.4439113,87.7067805,84.8312975
11.3310010,0.0020178,110.3941169,87.8362832,84.4453446
11.3570310,0.0033864,110.5072292,87.8974199,84.2275333
11.3886120,-0.0013610,110.1263866,87.6962483,85.1152935
11.4055800,-0.0081386,110.1263866,87.6962483,85.1152935
11.4245790,-0.0132256,110.3532345,88.0251776,84.6591674
11.4906310,-0.0165144,110.4977565,87.8577839,84.7190577
11.5206280,-0.0164767,110.3650754,87.7913499,84.5317836
11.5336280,-0.0115665,110.6122398,87.4574349,85.3057460
11.6437620,-0.0053566,109.9866633,87.2739000,83.8405833
11.6787480,-0.0020827,109.8003864,86.9999377,84.2366322
11.6917470,0.0004274,109.8003864,86.9999377,84.2366322
11.7067480,0.0045726,110.3178362,86.9153060,83.7406830
11.7277480,0.0064606,110.3311729,87.0928580,83.8192073
11.7517490,0.0030881,110.0187586,87.0176368,83.9803689
11.7717460,-0.0018816,109.9971332,87.0275458,84.1046367
11.8347550,-0.0053611,110.0092858,87.0195064,84.1112427
11.8647500,-0.0066556,109.7840583,87.0344634,84.3674436
11.8767460,-0.0050393,109.5979060,87.0798953,83.9083884
11.9158010,-0.0025886,109.8284931,87.2332045,84.0036769
11.9447500,-0.0026976,109.7136358,87.1330550,83.8009473
11.9577500,-0.0068061,109.7136358,87.1330550,83.8009473
11.9847860,-0.0137927,109.5439985,87.1364826,84.1075657
12.0337510,-0.0203675,109.7975820,87.2297769,84.1545557
12.0677480,-0.0239515,109.5084756,87.2146329,83.6271968
12.0957840,-0.0235723,110.1789854,87.0655615,84.2929702
12.1507510,-0.0195197,109.6684532,87.4238439,83.7206157
12.1737480,-0.0149735,110.1300012,87.3129752,84.1400972
12.1947480,-0.0125191,109.8000748,87.4287673,84.1099339
12.2397500,-0.0112787,109.8883211,87.3726162,84.0436869
12.2617930,-0.0092247,109.8924343,87.0372055,84.3041256
12.3097480,-0.0045225,109.7210520,87.0558395,84.1189705
12.3377470,0.0032028,109.5758444,87.0589555,83.9644148
12.3497510,0.0113434,109.5758444,87.0589555,83.9644148
12.3707480,0.0169570,109.6321825,87.0815156,83.6524367
12.4657540,0.0179103,109.8036894,86.8003241,83.4893431
12.4907480,0.0139029,109.4421663,86.9416054,84.0013087
12.5177500,0.0089203,109.7146329,86.9070796,84.1100586
12.5387690,0.0067788,109.7002368,86.8378412,83.6996759
12.5677480,0.0079658,109.6442104,86.9049607,83.8906269
12.6087480,0.0121778,109.7399975,86.6919481,83.8216378
12.6367470,0.0183411,110.0002493,86.5915493,83.8452574
12.6637480,0.0235153,109.7194316,86.8050605,83.8860775
12.7367540,0.0259359,109.4478998,86.8833354,84.2585691
12.7627480,0.0263464,109.8513025,86.7822510,83.6874610
12.7757490,0.0244979,109.8513025,86.7822510,83.6874610
12.7967490,0.0192891,109.7554531,86.8286800,83.7914122
12.8337500,0.0119012,109.6747476,86.9952013,84.1720055
12.8847510,0.0030705,109.6703228,87.1232706,83.3477502
12.9287480,-0.0068445,109.9348747,87.1371058,84.4292659
12.9778550,-0.0141453,109.6975570,87.4429141,84.3622087
12.9906400,-0.0170726,109.6975570,87.4429141,84.3622087
13.0167650,-0.0160130,109.9632307,87.1358594,84.9918983
13.0287490,-0.0076919,109.9632307,87.1358594,84.9918983
13.0507850,0.0080983,109.9457809,86.9182974,84.3445719
13.0897410,0.0239170,109.7442353,86.9913374,84.2901658
13.1211430,0.0348087,109.9356849,87.0518509,84.5942291
13.1691080,0.0395833,110.1435872,86.8828368,84.2182475
13.2065100,0.0359950,110.2228593,86.9199177,84.3867007
13.2427860,0.0254027,109.9676555,87.0341518,84.3255640
13.2908860,0.0142082,110.2985168,86.8615231,84.6331796
13.3214270,0.0061174,110.0569612,87.1498816,83.9641032
13.3351780,-0.0018546,110.0569612,87.1498816,83.9641032
13.3574170,-0.0130665,110.1907017,87.0579584,83.5588309
13.4064200,-0.0247178,110.2050355,86.9657859,84.8895052
13.4314610,-0.0314656,110.0033030,87.1625950,84.5365823
13.4817580,-0.0309939,109.9684033,87.1523121,85.1386015
13.5133860,-0.0199656,110.2093357,86.8278076,85.3385891
13.5293850,0.0043820,110.2093357,86.8278076,85.3385891
13.5523860,0.0340471,110.0790851,87.0274835,84.7441730
13.5963850,0.0557531,110.2910383,86.9961361,85.2521501
13.6244280,0.0630430,109.8544809,87.3287424,84.5126511
13.6620730,0.0540069,110.1304375,87.2071544,84.9958245
13.6960750,0.0299706,109.8989779,87.4211642,84.4584943
13.7302810,-0.0021948,110.0111554,87.5592048,84.6910757
13.7655300,-0.0330068,110.5698616,87.4437243,84.8213262
13.8085630,-0.0544296,111.0686152,87.9383024,85.3346005
13.8726540,-0.0650328,109.8890689,87.5357098,84.0881840
13.8856700,-0.0703409,109.8890689,87.5357098,84.0881840
13.9076590,-0.0725631,110.0057958,86.9435997,84.1786115
13.9201460,-0.0697143,110.0057958,86.9435997,84.1786115
13.9411930,-0.0630658,109.4341269,86.8214508,84.1129877
13.9902230,-0.0539227,109.4899663,86.9460302,84.1028294
14.0161940,-0.0406171,109.9469650,86.8742989,84.1471395
14.0481620,-0.0252019,109.7932195,86.9751963,83.6996136
14.0801810,-0.0143307,109.8875732,86.8375919,83.8439486
14.1118340,-0.0093313,110.0378911,86.8134738,84.3350991
14.1474640,-0.0071189,109.8337280,86.9869749,83.6731896
14.1765020,-0.0064769,109.9796211,86.8169637,84.0732270
14.2084760,-0.0042352,109.7538951,86.7896049,84.4428518
14.2394630,0.0024606,110.0134613,86.9847314,83.9023433
14.2734650,0.0087259,109.8913125,87.0579584,83.7924093
14.3085230,0.0086420,109.7423034,87.0493581,83.3925589
14.3344750,0.0034370,109.9853546,87.1158544,84.1806681
14.3881500,-0.0041265,109.6542440,87.1647763,83.8130375
14.4153240,-0.0133691,109.6431509,87.4032781,83.9646018
14.4463480,-0.0213217,109.4077652,87.3195189,84.0937305
14.4820880,-0.0237933,109.8630188,87.3545432,83.9416677
14.5122860,-0.0218513,109.7952138,87.3647638,83.4772529
14.5448140,-0.0209030,109.9727035,87.4920853,83.5904275
14.5770810,-0.0216993,110.0434999,87.3528605,83.9703976
14.6080350,-0.0216628,109.7786987,87.4602393,83.5499813
14.6440180,-0.0198432,109.7413062,87.3009473,84.2739624
14.6719870,-0.0144918,109.8086751,87.3114172,83.7446092
14.7040330,-0.0054214,109.8536707,87.3703727,83.5856288
14.7370260,0.0058200,109.8546678,86.9301384,84.3258133
14.7849890,0.0188645,109.8072417,87.1084382,83.7227346
14.8205210,0.0316369,110.0378287,87.0819519,84.1079397
14.8496450,0.0415789,110.0191948,87.1936308,84.2337031
14.8797150,0.0494929,109.5965350,87.1367942,84.0568989
14.9112140,0.0535817,109.5888695,87.2967718,83.6382899
14.9486280,0.0490186,109.7162533,87.3515518,83.6789854
14.9811780,0.0368947,109.9076405,87.1778013,83.6478250
15.0081620,0.0224239,109.7891063,87.1812290,83.9401720
15.0417000,0.0098600,109.6028917,87.3086127,84.0243051
15.0716930,0.0022034,109.8773526,87.2601271,83.7861149
15.1032620,0.0009937,109.6856537,87.3463792,84.0869376
15.1402260,0.0055892,109.7645519,87.3518011,84.2807553
15.1687630,0.0126918,109.9835473,87.4358095,84.2552661
15.2147690,0.0182030,110.0860651,87.3803440,84.0418173
15.2467640,0.0204257,109.8250654,87.3375296,84.0555279
15.2787630,0.0196823,109.8701857,87.4621713,83.9391749
15.3142720,0.0154507,109.5527857,87.6061947,84.0405085
15.3443120,0.0083033,109.9768167,87.4709585,84.3018198
15.3765960,0.0008033,109.5239935,87.7936557,84.1930076
15.4087950,-0.0054540,110.1125514,87.5507915,84.1762433
15.4408370,-0.0091406,109.6303752,87.4490839,84.1405958
15.4750580,-0.0084752,109.6596036,87.3811542,84.2680419
15.5040220,-0.0036450,109.9174872,87.4238439,84.4065811
15.5362290,0.0035396,109.8757323,87.2104574,84.1441481
15.5694640,0.0105285,109.4176742,87.4398604,83.8619594
15.6154680,0.0145367,109.9383024,87.1748722,84.0740371
15.6496510,0.0152978,109.8701857,87.3991026,84.2115169
15.6813410,0.0132575,110.0900536,87.2644273,83.8607753
15.7107990,0.0085298,109.7343886,87.3261249,84.1930076
15.7456350,0.0041277,109.6511280,87.3375296,84.2904774
15.7773650,0.0019369,109.4986289,87.5507915,83.9374922
15.8135790,-0.0006396,109.7818148,87.4591799,84.0967842
15.8399620,-0.0050262,109.5360214,87.5677427,84.0054219
15.8721630,-0.0107992,109.4260252,87.6928206,84.0599526
15.9062210,-0.0175884,109.4362458,87.5132743,84.2433628
15.9351950,-0.0233765,109.7121401,87.7052848,84.0141468
15.9751920,-0.0267262,109.8081142,87.6258881,83.8496198
16.0171690,-0.0281536,110.0041132,87.7280942,84.0302256
16.0461630,-0.0279609,109.5962234,87.7894179,83.9908388
16.0800580,-0.0258880,109.6567369,87.5275458,84.3708089
16.1190630,-0.0223637,109.7093980,87.8589056,83.9550044
16.1480590,-0.0185838,109.6991774,87.7586938,84.0624455
16.1775220,-0.0150332,109.8247538,87.8589680,84.1731273
16.2075240,-0.0106090,109.8031285,87.8906893,84.6352985
16.2405260,-0.0058173,109.4281441,87.8459429,84.0288545
16.2715220,-0.0042120,109.8356600,87.8509286,83.5332170
16.3055930,-0.0061222,110.0281690,87.7542067,84.0001246
16.3445260,-0.0088402,109.3694379,87.9521376,83.8739250
16.3683950,-0.0114137,109.7009847,87.5441855,84.0205659
16.4656570,-0.0128024,109.4950767,87.6285055,83.8197682
16.4817420,-0.0108029,109.4950767,87.6285055,83.8197682
16.5046570,-0.0044543,109.9749470,87.5021812,84.0173252
16.5176600,0.0057151,109.8128773,87.4896253,84.2280558
16.5536580,0.0176910,109.6460639,87.7340292,84.2734532
16.5766930,0.0300911,110.3561997,87.3982017,85.0850101
16.6096890,0.0448463,110.1024899,87.6875629,84.9251132
16.6576590,0.0607607,110.1343687,87.6046906,84.6810236
16.6796570,0.0722501,110.1771881,87.7132168,84.7283073
16.7136600,0.0766150,109.9344819,87.7947057,84.8277163
16.7386580,0.0732966,110.0211268,87.8481514,84.9361796
16.7666750,0.0616090,110.0247108,87.6332998,84.5697938
16.8670770,0.0445123,109.6256916,87.8318662,84.7764713
16.8840020,0.0272878,109.6256916,87.8318662,84.7764713
16.9060270,0.0133568,110.0929955,87.9632168,84.9765468
16.9200000,0.0029082,109.9796278,88.1039361,84.7010186
16.9419990,-0.0055792,109.7613808,88.1403421,85.2007042
17.0140090,-0.0128382,109.9876132,88.0521253,84.4908199
17.0390020,-0.0178483,110.0721831,87.5976484,85.1141851
17.0620010,-0.0185299,109.8010563,87.7836393,84.8773893
17.0740030,-0.0143323,110.1653672,87.7855885,85.2092555
17.1230030,-0.0069080,110.4630910,87.6258174,84.5511821
17.1540000,0.0010313,109.7914990,87.6538607,84.8014965
17.1759980,0.0073218,110.3262701,87.2786092,84.6256288
17.1980000,0.0100057,109.8114940,87.5482897,84.7040996
17.2810130,0.0072370,110.0088657,87.6282696,84.3306087
17.3210030,-0.0019568,110.0105634,87.7306338,84.0318159
17.3459980,-0.0149509,110.0819920,87.6846076,84.7129024
17.3580000,-0.0263469,110.1504024,87.5862047,84.7157319
17.3830020,-0.0322254,110.1910840,87.5931841,85.2065518
17.4090000,-0.0314623,109.9263707,87.7931967,84.4984909
17.4390020,-0.0251010,109.5859532,87.8686494,85.1437374
17.5090180,-0.0147821,110.2577339,87.6402792,84.8860035
17.5320020,-0.0047706,110.1047535,87.8743712,84.8984532
17.5560010,0.0000658,109.9131665,87.7183099,85.1727238
17.5760010,-0.0018874,109.6312877,88.0050931,84.1631665
17.6720390,-0.0093773,110.0397384,87.9548541,84.8279049
17.6900030,-0.0186443,109.9832746,87.9387575,85.0323189
17.7130000,-0.0254607,109.9832746,87.9387575,85.0323189
17.7250000,-0.0287670,110.1290870,87.8738053,84.7397510
17.7460000,-0.0281111,109.6861167,87.8573315,85.0245850
17.7749980,-0.0213279,110.6341172,87.5865820,84.6152540
17.8090000,-0.0106254,110.6253144,87.5506791,84.6251258
17.8550090,-0.0005450,110.1409708,87.5426937,84.9634683
17.8830140,0.0082825,110.4054326,87.5696051,85.0078597
17.9060020,0.0172692,110.4561117,87.3880156,85.0859532
17.9480070,0.0279705,110.4593813,87.3026283,85.4909457
17.9790060,0.0400596,110.1688883,87.4497611,84.9466172
18.0500000,0.0502263,110.0916122,87.3518612,85.3169014
18.0840030,0.0554846,110.2451585,87.2960262,84.8055835
18.1000020,0.0540763,110.2451585,87.2960262,84.8055835
18.1270000,0.0465222,110.4264336,87.0982143,85.3980131
18.1579980,0.0375418,110.5536972,87.2738934,85.2817530
18.1799970,0.0301850,110.5300553,87.2537726,84.7437752
18.2069990,0.0239660,110.3415493,87.2831992,85.3715418
18.2349970,0.0202418,110.1241826,87.4253647,85.3489059
18.3000050,0.0180296,110.5731263,87.4271881,85.2825075
18.3350000,0.0113993,110.9405181,87.9517103,85.1139336
18.3469990,-0.0003320,111.0267228,87.9006539,85.8575201
18.3690000,-0.0114565,111.2100431,88.0078521,85.7639944
18.4790130,-0.0197715,110.9829027,87.8739235,85.5388804
18.5390030,-0.0257948,110.8926039,87.7356890,85.6339919
18.5530110,-0.0274220,110.8926039,87.7356890,85.6339919
18.5670000,-0.0234075,110.7099164,87.7735562,85.8375127
18.5790020,-0.0154777,110.9198328,87.5681358,86.1543186
18.6020020,-0.0060132,110.8401089,87.5549012,85.3008485
18.6129990,0.0010468,110.5027862,87.4620061,85.3061044
18.6430020,0.0022047,110.5958713,87.3145263,84.9517477
18.6880070,-0.0030791,110.5393870,87.4466185,84.9789134
18.7190000,-0.0134397,110.6875000,87.3370061,85.4239488
18.7400020,-0.0242159,110.7290400,87.4046353,85.5124747
18.7650070,-0.0307122,110.3194656,87.3766464,84.8506839
18.8690180,-0.0321105,110.5579407,87.2393617,85.3370694
18.9039990,-0.0288568,110.1704027,87.3126266,84.9551672
18.9170130,-0.0241725,110.1704027,87.3126266,84.9551672
18.9300020,-0.0225640,110.2489868,87.3485309,85.3176925
18.9500020,-0.0231456,110.4543440,87.3995061,85.1814210
19.0120020,-0.0222989,110.6016337,87.2864742,85.4344605
19.0300000,-0.0188555,110.4449721,87.4114108,85.3212386
19.0509960,-0.0128990,110.5610436,87.3743034,85.3908941
19.0729980,-0.0046734,110.4704281,87.4015324,85.7923632
19.0999990,0.0036888,110.2002913,87.6417806,85.4086246
19.1650050,0.0084447,110.7042173,87.4459220,85.3746834
19.1870030,0.0078850,110.3863349,87.6275963,85.4298379
19.2109980,0.0042626,110.4540274,87.5797239,85.7462006
19.3070060,-0.0007163,110.9654255,87.7842579,85.4164134
19.3370020,-0.0073719,110.9654255,87.7842579,85.4164134
19.3599980,-0.0128088,110.5029129,87.6081560,85.8945035
19.3729970,-0.0136282,110.1773683,87.6909195,85.5319782
19.3959980,-0.0122897,110.3750633,87.6802178,85.2574721
19.4180050,-0.0123268,110.5852330,87.5497720,85.3435284
19.4389970,-0.0130909,110.4899316,87.4920213,84.9867655
19.4980010,-0.0147666,110.5563576,87.5668060,85.1419073
19.5200020,-0.0179807,110.3872214,87.4110942,85.3745567
19.5419980,-0.0195806,110.4914514,87.4094478,85.0768110
19.5650200,-0.0157022,110.6203141,87.1597644,85.7794453
19.6720120,-0.0053342,110.4310410,87.2753926,85.1680598
19.7099990,0.0078086,110.5563576,87.5093718,85.2864742
19.7219970,0.0186345,110.8934271,87.2517730,85.3637918
19.7360000,0.0258268,110.8934271,87.2517730,85.3637918
19.7559980,0.0290879,110.1887031,87.5448961,85.7578521
19.7759980,0.0273603,110.6322822,87.4010258,85.4059017
19.8340010,0.0228330,110.7429078,87.3841185,85.2498100
19.8540010,0.0173299,110.3270643,87.6676798,85.2601317
19.8769980,0.0077664,110.3469478,87.6802178,84.7079534
19.9010020,-0.0070278,110.6309524,87.4182497,85.1855370
19.9570020,-0.0225845,110.6813576,87.5907421,85.0269757
19.9909990,-0.0338537,110.5317249,87.6288627,85.5637031
20.0610040,-0.0384303,110.3339032,87.7259372,85.1250000
20.0980050,-0.0361497,110.4176165,87.7591819,85.2574088
20.1200010,-0.0287920,110.5668693,87.6122087,85.2607016
20.1330090,-0.0198690,110.5668693,87.6122087,85.2607016
20.1540120,-0.0123349,110.2170719,87.6065096,85.3839919
20.1760170,-0.0072495,110.6236069,87.3912107,84.8441616
20.2059970,-0.0028141,110.5139311,87.3904509,85.3844352
20.2370020,0.0023976,110.6862969,87.5571809,84.9245187
20.2960010,0.0075036,110.4315476,87.3017984,85.4899316
20.3289970,0.0125069,110.1794580,87.4680218,85.2344858
20.3419970,0.0173817,110.5996707,87.4716312,85.3479610
20.3630100,0.0206225,110.5275456,87.5269757,85.1036601
20.4580050,0.0215226,110.3490375,87.4740375,85.4274316
20.5239970,0.0209787,110.4096378,87.4630826,85.2340426
20.5409960,0.0183030,110.3109802,87.6363982,85.2517097
20.5529970,0.0129649,110.3109802,87.6363982,85.2517097
20.5760160,0.0075834,110.7860309,87.5299519,85.4733409
20.5879980,0.0044992,110.3286474,87.7843212,85.4513678
20.6089990,0.0023966,110.7895770,87.6106256,85.1450101
20.6420010,0.0011958,110.3306738,87.7113728,85.9505446
20.6679990,0.0035174,110.7421479,87.6266464,85.4469985
20.7010150,0.0076498,110.4864488,87.8128799,85.5006332
20.7460050,0.0093570,110.3614488,87.9226824,85.5643997
20.7699980,0.0078217,110.5889058,87.8912741,85.3503040
20.8510000,0.0022665,110.5500887,87.9005826,85.0003166
20.8820050,-0.0079873,110.7424012,87.7337893,85.3984929
20.9120360,-0.0183684,110.7910334,87.6260765,85.2127026
20.9249980,-0.0238422,110.7910334,87.6260765,85.2127026
20.9460000,-0.0227800,110.6773683,87.5648430,85.4756839
20.9799990,-0.0143141,110.6900963,87.5595871,85.5470491
21.0150000,-0.0010184,110.6020137,87.6847138,85.2532295
21.0399980,0.0092400,110.6106890,87.5706687,84.7042173
21.0769990,0.0107917,110.4540274,87.6321555,84.8457447
21.1000100,0.0064062,110.4456687,87.5135512,85.8582827
21.1450030,0.0007699,110.5563576,87.7302432,84.9138171
21.1680060,-0.0046012,110.7583587,87.5827634,85.4894250
21.2490120,-0.0060161,110.7629813,87.6122087,85.3728470
21.2890090,-0.0002078,110.4746707,87.5719985,85.3553698
21.3150100,0.0089055,110.3979230,87.5772543,85.5421733
21.3290070,0.0162625,110.3979230,87.5772543,85.5421733
21.3520030,0.0222999,111.0690856,87.4219225,85.6066996
21.3730030,0.0272053,110.4638425,87.7068136,85.5230496
21.4120040,0.0276030,110.7451241,87.8632219,85.0902989
21.4360040,0.0220072,110.5766844,87.6325355,85.5396403
21.4800070,0.0125891,110.4951874,87.9055851,85.3686044
21.5030810,0.0006993,110.6628040,87.8493541,85.3118034
21.5500090,-0.0121874,110.4732143,87.8768364,85.6046099
21.5750080,-0.0202122,110.7116261,87.6823075,85.6391844
21.6600150,-0.0207373,110.1418440,87.8980496,85.2188450
21.6790040,-0.0171342,110.4435790,87.4823961,85.6135385
21.7080230,-0.0104672,110.4762538,87.6719225,85.4623860
21.7730130,-0.0023440,110.2241641,87.7016211,85.3399189
21.7930060,0.0024262,110.2241641,87.7016211,85.3399189
21.8080040,0.0033738,110.4184397,87.5018997,85.3935537
21.8280050,0.0033749,110.6828141,87.5250127,85.2237842
21.8400040,0.0008106,110.6160081,87.8263678,84.8716439
21.8780090,-0.0053137,110.4192629,87.5460360,85.3431484
21.9040060,-0.0103854,110.7771657,87.5083587,85.1773683
21.9320280,-0.0115308,110.3249113,87.5915653,85.4832194
21.9950040,-0.0086697,110.8584093,87.3339032,85.6082194
22.0360090,-0.0009733,110.3777229,87.7195415,85.4901216
22.0660130,0.0098492,110.6995314,87.6744554,85.5461626
22.1310080,0.0194170,110.8609422,87.5791540,85.6210106
22.1620080,0.0247777,110.6720491,87.8859549,85.5842199
22.1780070,0.0234543,110.6720491,87.8859549,85.5842199
22.2020030,0.0156406,111.2872340,88.2404382,86.0031028
22.2160280,0.0064873,111.4599797,88.2850811,86.1887665
22.2390040,-0.0003566,111.2481003,88.0656662,85.8105370
22.2760020,-0.0045083,110.7965426,87.9703014,85.9044453
22.3030030,-0.0047115,110.7754559,87.7367655,85.8571429
22.3520130,-0.0005854,110.6067629,88.0398936,86.0683257
22.3820050,0.0041683,110.4388931,88.0265957,85.6407042
22.4570060,0.0037366,110.8143997,88.0328014,85.0182371
22.4940040,-0.0043479,110.5820669,88.1769250,85.5934017
22.5170190,-0.0172688,110.7152989,88.0005066,85.5141844
22.5410030,-0.0295211,110.8817123,87.8661348,85.8860182
22.5530390,-0.0350268,110.8817123,87.8661348,85.8860182
22.5740030,-0.0299037,110.5206434,87.7108029,85.5876393
22.6250040,-0.0173048,110.5000633,87.9675152,85.0433131
22.6540060,-0.0058300,110.4114108,87.8833587,85.3585993
22.6750040,-0.0006930,110.9210993,87.8234549,85.4935410
22.6980050,-0.0012197,110.4447822,87.8040147,85.8638551
22.7289970,-0.0042245,110.3357396,87.8444149,85.5870061
22.7870010,-0.0050525,110.5671859,87.8529635,85.8094605
22.8269950,-0.0002972,110.3128166,87.8488475,85.4894250
22.8810060,0.0070907,110.4239488,87.8896910,85.4688450
22.9149980,0.0115298,110.6560917,87.8149696,85.6682497
22.9399970,0.0105866,110.3219985,88.0083587,85.3137031
22.9520410,0.0039753,110.3219985,88.0083587,85.3137031
22.9741180,-0.0066816,110.7119428,88.0457827,85.2063703
23.0031480,-0.0179217,110.6866135,88.0447695,85.1529889
23.0510430,-0.0273800,110.3758232,88.0961246,85.3785461
23.0780420,-0.0334393,110.3835486,88.1061930,85.5620567
23.1000370,-0.0341154,110.6511525,88.0653495,85.2650076
23.1410980,-0.0292028,110.7917933,87.9180598,85.4243288
23.1640370,-0.0194173,110.3782295,88.2177052,85.9328141
23.2320430,-0.0072964,110.8317503,88.2667173,85.3739868
23.2640420,0.0024231,110.9552938,88.0233029,85.3748100
23.3260420,0.0087051,110.5449595,88.0746581,85.8019883
23.3480390,0.0147872,110.4004559,87.8701874,85.9495947
23.3600390,0.0224853,110.4004559,87.8701874,85.9495947
23.3800570,0.0301055,110.6635005,87.9609296,85.1433004
23.4030400,0.0354172,110.7549392,87.8383992,85.5085486
23.4420440,0.0386057,110.5871960,87.8203521,85.8994428
23.4780420,0.0392506,110.1848404,88.0536981,85.7136525
23.5030390,0.0338407,110.5674392,88.0823202,85.3451748
23.5310420,0.0239625,110.4571302,88.0089919,86.0212133
23.5730410,0.0175103,110.6436170,87.9082447,85.8653749
23.6563790,0.0144977,110.3844985,88.2059271,85.3065476
23.6713940,0.0085984,110.3787361,87.9762538,85.3933637
23.6923930,0.0014000,110.4760005,87.8775329,85.6733156
23.7614000,-0.0034064,110.7383485,87.9945542,85.1975684
23.7773960,-0.0091228,110.7383485,87.9945542,85.1975684
23.7903920,-0.0161989,110.4245187,87.9816363,85.5677558
23.8113950,-0.0202323,110.7980623,88.0299519,85.0598404
23.8323920,-0.0211798,110.6553318,88.0479357,85.6774316
23.8924030,-0.0201489,110.5109549,88.0946049,85.6921226
23.9223950,-0.0163377,110.8812057,88.0790907,85.3920339
23.9353920,-0.0102835,110.5359043,88.0290020,85.9186930
23.9673920,-0.0031556,110.4030522,88.1958587,85.5652862
24.0614070,0.0034372,110.7339792,87.9618794,85.5423632
24.0903950,0.0080833,110.4143237,87.9484549,85.8212386
24.1153920,0.0106254,110.4343972,87.9376900,85.1547619
24.1424010,0.0101446,110.4905015,87.8962766,85.4031155
24.1824050,0.0075580,110.6842072,87.8674012,85.6862969
24.1983970,0.0068331,110.6842072,87.8674012,85.6862969
24.2193920,0.0093618,110.5179838,87.6578647,85.7489235
24.2403920,0.0151320,110.7579787,87.6415907,85.7784321
24.2883940,0.0240032,110.7669073,87.6586879,85.3896277
24.3193920,0.0322824,110.6479230,87.6902862,85.6509625
24.3403920,0.0351287,110.3982396,87.8208587,85.2870441
24.3603920,0.0304887,110.7755826,87.7487969,85.5568009
24.4564060,0.0208976,110.6818642,87.5521150,85.7203647
24.4923950,0.0115429,110.2137158,87.8042047,85.7360689
24.5043920,0.0034137,110.2279635,88.0080420,85.1049899
24.5634020,-0.0037939,110.8632219,87.6646403,85.9171733
24.5823930,-0.0053423,110.5581940,87.5521783,85.9573202
24.6053930,0.0001463,110.5581940,87.5521783,85.9573202
24.6183970,0.0065022,110.7097898,87.8175659,85.3703141
24.6403920,0.0087834,110.2876140,88.0326114,85.3772163
24.6654000,0.0059567,110.4107776,87.9239488,85.4945542
24.7244000,-0.0029538,110.4827128,87.8910841,85.6550152
24.7583950,-0.0164052,110.5101950,87.9231890,85.9876520
24.7713920,-0.0280115,110.6571682,87.8016084,85.7354357
24.8583990,-0.0323889,110.3891844,87.9818262,85.3294073
24.8833940,-0.0299947,110.8296606,87.6264564,85.2479103
24.9073920,-0.0247868,110.5115881,87.6828774,85.2646277
24.9373920,-0.0212037,110.3095871,87.7095998,85.2864742
24.9943990,-0.0211932,110.4235056,87.5533181,85.4769504
25.0133990,-0.0211644,110.4235056,87.5533181,85.4769504
25.0283980,-0.0171755,110.2102964,87.5803571,85.3556231
25.0513930,-0.0104631,110.1526722,87.5797239,85.3095871
25.0723950,-0.0040842,110.2909701,87.5809271,85.1999113
25.0973950,0.0000264,110.5704154,87.5143110,85.2777356
25.1573930,0.0007191,110.5863728,87.5312183,85.1904762
25.1723980,-0.0022470,110.2244807,87.6146783,84.9568769
25.2623970,-0.0069944,110.3554965,87.5792173,85.4397796
25.2863940,-0.0103258,110.4024189,87.7598784,85.2503799
25.3084020,-0.0112053,110.0896657,87.5527482,85.3480243
25.3383920,-0.0097834,110.3920339,87.6028369,85.5289387
25.3703940,-0.0055936,110.1883232,87.7834347,85.4726444
25.3824000,-0.0000585,110.1883232,87.7834347,85.4726444
25.4043940,0.0033771,110.2568389,87.7248607,85.0316616
25.4433960,0.0031707,110.5093718,87.5580041,85.1491895
25.4733940,-0.0006818,110.1756586,87.8016084,85.0433764
25.4973940,-0.0063778,110.3663880,87.6209473,85.6588146
25.5473940,-0.0091532,110.4016591,87.8174392,85.6422872
25.5753940,-0.0061009,110.4769504,87.8203521,85.6872467
25.6276000,0.0004643,110.2629813,87.8472011,85.1101824
25.6696080,0.0057312,110.1147416,87.9609929,85.3299772
25.6946040,0.0066013,110.4719478,87.7196049,85.0703521
25.7316040,0.0031256,110.4103343,87.6123354,85.5157042
25.7909490,-0.0024429,110.1385512,87.6904762,84.9867021
25.8079250,-0.0080140,110.1385512,87.6904762,84.9867021
25.8309250,-0.0103028,110.2505066,87.5205800,85.3598024
25.8419210,-0.0073150,110.1441236,87.6823708,84.9637158
25.8639280,-0.0022163,110.1334220,87.6712259,85.5591439
25.9259240,0.0009095,109.7739362,87.7289767,84.6922492
25.9449230,0.0027082,110.5602837,87.4228090,85.5543313
25.9719210,0.0057936,110.3238349,87.5956814,85.0210866
26.0519430,0.0090013,110.3239615,87.4671986,85.0072188
26.1009240,0.0108823,110.3125633,87.6141717,85.3041413
26.1169220,0.0121448,110.0950481,87.7508232,85.1301292
26.1389210,0.0119600,110.4150836,87.6285461,84.8898176
26.1699240,0.0090003,110.1909195,87.7817882,85.6583713
26.2319280,0.0060471,110.3138931,87.8308004,85.4810664
26.2529220,0.0052608,110.3138931,87.8308004,85.4810664
26.2669220,0.0051562,109.9660588,88.0146277,85.3364362
26.2899230,0.0054558,110.8234549,88.2513298,85.9095745
26.3119250,0.0059185,111.2257472,88.5093085,85.8505572
26.3349210,0.0039900,110.9733409,88.3472011,85.6396277
26.3629220,-0.0013687,110.4276849,88.2813450,85.5856130
26.4520180,-0.0069375,110.7886905,88.0003799,85.6436803
26.4940060,-0.0080681,110.5513551,87.8378926,85.8281408
26.5090020,-0.0035265,110.7264438,87.7580420,85.4159068
26.5310060,0.0046803,110.4274949,87.8303571,85.6295593
26.6010120,0.0154798,110.7312563,87.4831560,85.6358916
26.6240070,0.0269102,110.5264058,87.6960486,85.2954027
26.6490020,0.0332449,110.5264058,87.6960486,85.2954027
26.6620020,0.0304551,110.8005239,87.8973867,85.1469555
26.6820140,0.0203669,110.7091560,87.8271037,85.2850936
26.7030020,0.0070617,110.7641684,87.8025046,85.4193981
26.7490130,-0.0049881,111.2942943,87.6563159,85.4594595
26.7780100,-0.0113788,110.4068111,87.9519520,85.7106255
26.8030010,-0.0110882,110.6244968,87.9110600,85.4908952
26.8870150,-0.0066866,110.5711456,87.9512491,85.4735800
26.9160040,-0.0013368,110.8481886,87.7939429,85.6535685
26.9420010,0.0017643,111.0051754,87.8960450,85.1888697
26.9740040,0.0003091,110.7526037,87.8234618,85.4581816
27.0020020,-0.0029393,110.7445531,87.8293400,85.8971312
27.0150020,-0.0024172,110.7445531,87.8293400,85.8971312
27.0370010,0.0016042,110.8935531,87.9777650,85.4071305
27.0630140,0.0051989,110.7963069,87.8586672,85.6910102
27.0940010,0.0079749,110.7980321,88.0591017,85.8111942
27.1460070,0.0087856,110.9884991,88.0204460,85.5156220
27.1680020,0.0047221,111.0654271,87.9795540,85.6899879
27.2560510,-0.0026905,110.8301067,87.9248610,85.3577407
27.2792860,-0.0094254,110.8008434,87.7777778,85.4608012
27.3042810,-0.0133617,110.9399399,87.6865376,85.4550508
27.3263190,-0.0138176,110.7242988,87.7681937,85.4608012
27.3982920,-0.0115683,110.7710689,87.7095393,85.3355057
27.4202980,-0.0087888,110.6099930,87.8151556,85.2870743
27.4462850,-0.0072477,110.6099930,87.8151556,85.2870743
27.4612810,-0.0073122,110.9024982,87.6747812,85.5174110
27.4843190,-0.0079907,110.7883841,87.7225736,85.3160181
27.5043690,-0.0090005,110.7927928,87.7861478,85.1434413
27.5263680,-0.0098358,110.5119162,87.5521053,85.3441953
27.5893360,-0.0080198,110.7951569,87.7703022,85.6153600
27.6313900,-0.0045408,110.3444508,87.9573190,85.2248419
27.6553920,-0.0024489,110.7191873,87.6799566,85.7958597
27.6873810,-0.0003046,110.7164398,87.8305540,85.3891125
27.7204250,0.0026847,110.7873618,87.7363747,85.3867485
27.8014090,0.0039734,110.7673631,87.8492109,85.4537090
27.8523840,0.0037923,110.6367644,87.8398824,85.6118459
27.8663810,0.0040251,110.6367644,87.8398824,85.6118459
27.8793870,0.0042739,110.9061402,87.7946457,85.5854578
27.9003900,0.0039544,110.5561945,87.9743786,85.4040636
27.9113820,0.0020254,110.8232062,88.0220433,85.2825379
27.9333820,-0.0028325,110.6765063,87.8982174,85.1852917
27.9624240,-0.0099554,110.5566417,88.0511149,85.5173471
28.0614100,-0.0161304,110.8435244,87.5965753,85.6225800
28.0943990,-0.0177331,110.5310843,87.8080634,85.3454731
28.1213960,-0.0144238,110.7007220,87.7858284,85.2227973
28.1353950,-0.0082705,110.4347965,87.8590505,85.3568462
28.1573950,-0.0008317,110.7921539,87.5565779,85.3946713
28.1984450,0.0063862,110.7135646,87.6758674,85.6480097
28.2644020,0.0111541,110.4340298,87.6147850,85.2001789
28.2833990,0.0130458,110.4340298,87.6147850,85.2001789
28.3003960,0.0139271,110.4362022,87.7268545,85.5069325
28.3213940,0.0145357,110.6292250,87.7392499,85.3956936
28.3333950,0.0125870,110.5763849,87.8157306,85.2537218
28.3743980,0.0057833,110.5508913,87.9382787,84.9362341
28.4473990,-0.0037046,110.6163184,87.7809086,85.4631014
28.4883960,-0.0105902,110.3615743,87.8127915,85.6995080
28.5033960,-0.0116558,110.7277240,87.9631850,86.0036106
28.5253940,-0.0067855,110.9390716,87.8984526,85.7597034
28.5534340,0.0019865,110.7823340,88.1406834,85.4611219
28.5984010,0.0111463,111.0533204,88.0196003,85.8663443
28.6714020,0.0172702,110.9760155,88.0315925,85.7847195
28.6914790,0.0181555,110.9760155,88.0315925,85.7847195
28.7064470,0.0143075,111.2653772,87.9794971,85.7943907
28.7284450,0.0088956,110.7128949,88.1790458,85.5577692
28.7404460,0.0035163,110.7246937,88.0333978,85.3573179
28.7624490,-0.0030002,111.0698259,88.0375887,85.4080593
28.8575310,-0.0100970,110.5719536,87.9797550,85.6876209
28.8815530,-0.0162243,110.5983237,88.0226950,85.3805932
28.9045170,-0.0200581,111.0757576,87.8808511,85.6392650
28.9255180,-0.0193534,110.9864603,88.0385558,85.4541586
28.9535540,-0.0152380,110.8014829,87.9410703,85.1039329
29.0365240,-0.0107183,110.8377821,87.7779497,85.7468730
29.0645170,-0.0046274,111.0883301,87.8516441,85.9801418
29.0805190,0.0048349,111.0883301,87.8516441,85.9801418
29.1035160,0.0148120,110.7623469,87.9545455,85.4161186
29.1185180,0.0230343,111.2081883,87.7463572,85.8054159
29.1425190,0.0304152,110.9598968,87.9312057,86.0599613
29.1635200,0.0328486,110.8066409,88.1550613,85.1882012
29.2505320,0.0245248,111.0823340,88.0949065,85.6306254
29.3125200,0.0096808,111.0590587,88.0081238,85.7123791
29.3285190,-0.0026674,111.3790458,87.8993553,85.7801418
29.3405460,-0.0092246,111.2576402,87.9541586,86.0983237
29.3605180,-0.0087267,111.5599613,88.0089620,86.0265635
29.4325240,-0.0017749,110.5953578,88.4589942,85.7945841
29.4545200,0.0053860,111.5564797,88.1551257,85.8465506
29.4785580,0.0079814,111.5564797,88.1551257,85.8465506
29.4915180,0.0041979,110.9296583,88.1579626,85.3940039
29.5125200,-0.0057243,111.1530625,88.0773694,85.9610574
29.5345540,-0.0155196,111.2332689,87.9599613,85.6330754
29.5595660,-0.0189349,110.7336557,87.9676338,85.7839458
29.6605310,-0.0181906,110.7227595,87.9999355,85.0060606
29.6865190,-0.0171714,111.0226306,87.7172792,85.5130239
29.7125800,-0.0145265,110.8535783,87.7393295,85.6715023
29.7245810,-0.0097516,111.0300451,87.7806576,85.6396518
29.7635400,-0.0047632,111.0690522,87.7838814,85.5588008
29.8245400,0.0004290,110.7934236,87.8842682,85.5747260
29.8505390,0.0061663,111.1508059,87.8267569,85.4499678
29.8725330,0.0095242,111.1508059,87.8267569,85.4499678
29.8845340,0.0078504,110.9088975,87.8731141,85.4331399
29.9065340,0.0018086,110.8443585,88.1014829,85.5027724
29.9265690,-0.0049384,110.9866538,87.7491296,85.8185687
29.9985360,-0.0083778,111.1373308,87.9656995,85.4116054
30.0215340,-0.0077429,111.2498388,87.7453901,85.7751773
30.0575640,-0.0029333,110.8130883,87.9537073,86.0660219
30.0875620,0.0047298,111.0288846,87.9966473,85.3816248
30.1225450,0.0101406,111.3328820,88.0836879,85.6865893
30.1605470,0.0109785,111.0940039,87.9862025,85.9219213
30.1865820,0.0080682,111.3811090,88.1861380,85.2074790
30.2315910,-0.0001597,111.3828498,88.1775629,85.5904578
30.2435920,-0.0116550,111.3828498,88.1775629,85.5904578
30.2655910,-0.0205006,111.0150226,88.2998711,85.7021277
30.3005920,-0.0237663,111.4674404,87.9016763,86.0987750
30.3276360,-0.0196635,111.2230819,88.0136686,85.8938749
30.3675930,-0.0077562,111.1389426,88.0337847,86.1240490
30.3906320,0.0074121,111.1462282,88.3525467,85.9143133
30.4566360,0.0194340,111.5481625,88.2557705,85.7921341
30.4894560,0.0244798,111.6756931,87.9465506,85.7023856
30.5213030,0.0204419,111.0993553,88.2381689,85.2985171
30.5523130,0.0089230,110.8134107,87.9021277,85.8385558
30.5847840,-0.0032410,110.8817537,87.9919407,85.6210832
30.6371700,-0.0099328,110.9450677,87.9012895,85.6681496
30.6632610,-0.0098182,111.1030303,87.6623469,85.6645390
30.6752700,-0.0032991,111.1030303,87.6623469,85.6645390
30.6982700,0.0078057,110.7910380,87.7899420,85.7900064
30.7279150,0.0172797,110.8525467,87.8883946,85.2515152
30.7618670,0.0197620,111.1927144,87.8793037,85.4261767
30.7939040,0.0159193,111.1069632,87.8671180,85.8126370
30.8558470,0.0082604,111.2533849,88.0564152,85.4305609
30.8889390,-0.0018169,111.0366215,87.8545455,85.4945841
30.9211540,-0.0117362,111.0357189,88.0958736,85.3010961
30.9560740,-0.0189450,111.2604771,88.1083172,85.3604126
30.9871570,-0.0237480,110.8594455,88.0495809,85.5792392
31.0319840,-0.0253345,111.1903933,88.0245003,86.1606061
31.0634210,-0.0228038,110.9365571,88.4119923,85.4666022
31.0754350,-0.0199683,110.9365571,88.4119923,85.4666022
31.0974460,-0.0188693,110.8466796,88.3538362,85.7336557
31.1304520,-0.0172520,111.1622179,88.3751773,86.0813024
31.1609240,-0.0150512,110.7963894,88.3376531,85.9833656
31.2237560,-0.0142178,111.1891683,88.4606061,85.4666667
31.2569160,-0.0128822,111.1814313,88.1006447,85.6786589
31.2909170,-0.0078711,110.8553191,88.2421019,85.7611219
31.3215320,-0.0008277,111.1493230,88.1183752,85.7274662
31.3525170,0.0038646,111.1094133,88.1637008,85.3124436
31.3835160,0.0057421,110.6662798,88.1627982,85.8995487
31.4301570,0.0078050,110.7984526,88.1713088,85.6105738
31.4659430,0.0095819,111.0541586,88.1544165,85.4519665
31.4769390,0.0087813,111.0541586,88.1544165,85.4519665
31.4999380,0.0057536,110.6393295,88.2402966,85.4299807
31.5299390,0.0016621,110.9025145,87.9907801,85.1555770
31.5619590,-0.0024061,111.1841393,87.9511283,85.4950355
31.6059400,-0.0047575,110.7858801,88.2105093,85.3618311
31.6619410,-0.0045163,111.1676338,88.0749194,85.6097357
31.6879360,-0.0010765,110.8391360,88.1575113,85.7402321
31.7289360,0.0061571,111.1395229,88.1220503,85.8733720
31.7529360,0.0161327,111.1698259,87.8647969,85.8517730
31.7939360,0.0267316,110.7439716,88.1970342,85.9176660
31.8299900,0.0355094,110.9870406,88.0712444,85.7381689
31.8629530,0.0403559,110.8713088,88.1027079,85.9154739
31.8749340,0.0408957,110.8713088,88.1027079,85.9154739
31.8969400,0.0368634,111.1303675,88.1780142,85.6980013
31.9269360,0.0283981,110.6906512,88.2574468,85.9442295
31.9759400,0.0178971,111.2764023,88.4029658,85.7163121
32.0289500,0.0064711,111.1821406,88.4832366,85.5797550
32.0549360,-0.0058368,110.9985816,88.5107672,86.0241135
32.0939370,-0.0153484,110.8027724,88.3333978,86.4000645
32.1219340,-0.0192702,111.0854288,88.2971631,85.4055448
32.1519370,-0.0195226,111.2498388,88.2209542,85.8156028
32.1829340,-0.0165406,111.0272727,88.0789813,85.6335268
32.2239360,-0.0097295,110.9491941,88.1145068,85.9307544
32.2679360,-0.0030064,111.0626692,88.1794971,85.5901999
32.2829390,-0.0004176,111.0626692,88.1794971,85.5901999
32.3039360,0.0000587,110.9916828,88.0381689,85.9468730
32.3259340,0.0016740,111.2718246,87.9622824,85.6665377
32.3689400,0.0044095,110.8503546,88.0027079,85.9555770
32.4349410,0.0080297,110.7560284,88.1281754,86.1094133
32.4589340,0.0119663,110.6678272,88.2021277,85.4905867
32.4879340,0.0129700,110.9442940,88.1127015,85.6344939
32.5209360,0.0100669,111.0885235,87.9562863,86.0115409
32.5519800,0.0051426,110.6785300,88.2291425,85.5402321
32.5829730,-0.0022108,110.8748549,88.0168279,85.5531270
32.6180620,-0.0091543,110.8250806,88.0169568,86.0724694
32.6609850,-0.0103017,111.1321083,88.0718891,85.6285622
32.6949470,-0.0081326,110.9000645,88.1843972,85.6346228
32.7069570,-0.0078431,110.9000645,88.1843972,85.6346228
32.7299890,-0.0100796,110.8512573,88.3851709,85.3846551
32.7589340,-0.0153000,110.9357834,88.2092199,85.6441651
32.8229570,-0.0236001,110.6878143,88.4899420,85.5889104
32.8566840,-0.0304206,111.5949065,87.9838169,86.0005158
32.8880940,-0.0306905,110.8776918,88.1767247,85.5230174
32.9202060,-0.0237418,110.6291425,88.1431335,86.0809800
32.9532430,-0.0113679,111.2140554,88.0454545,85.6829142
32.9972180,0.0034668,111.1891683,88.0436493,85.9021921
33.0212060,0.0164079,111.5144423,88.0991618,85.7664732
33.0772400,0.0227711,111.0662798,88.2033527,85.5039974
33.1012650,0.0217311,111.2238556,87.9745326,85.6312701
33.1132230,0.0165788,111.2238556,87.9745326,85.6312701
33.1372420,0.0102063,111.2245003,88.0223727,85.4964539
33.1582680,0.0044855,111.2620890,88.0208253,85.9188910
33.2452410,0.0034215,111.7931657,88.1868472,86.4515796
33.2712410,0.0087688,111.2299162,88.0858156,85.6389426
33.2922410,0.0159402,111.4963894,87.9081238,85.8642166
33.3282460,0.0210500,111.0784010,88.0000000,85.5914894
33.3512800,0.0205944,110.9421663,88.1843327,84.9961960
33.3802850,0.0118853,111.1410703,87.7774984,85.8600903
33.4292490,-0.0005336,110.7614442,87.8980658,85.4035461
33.4642430,-0.0113976,110.8268214,88.0201805,85.4431979
33.4932430,-0.0193564,111.0658930,87.9910380,85.6672469
33.5062420,-0.0211896,111.0658930,87.9910380,85.6672469
33.5262770,-0.0156636,110.8602837,87.9963250,85.9119923
33.5772480,-0.0088233,110.8740812,88.0502257,85.2553836
33.6342720,-0.0056339,111.1612508,88.0798195,85.5313346
33.6572610,-0.0054620,111.0152160,88.0664732,85.6512573
33.7012460,-0.0058855,110.8720181,88.0441006,86.0302386
33.7262510,-0.0048765,111.0470019,87.9936170,85.9696970
33.7492430,-0.0027693,111.0087685,88.2047066,85.3110251
33.7952430,-0.0015006,110.7406834,88.1573823,85.5266280
33.8202410,-0.0019483,110.8013540,88.0941973,85.5861380
33.8802470,-0.0042015,110.8276596,87.8968407,85.4923275
33.9072410,-0.0069353,110.6925210,87.7911025,86.1232753
33.9192770,-0.0049349,110.6925210,87.7911025,86.1232753
33.9402410,0.0048680,110.9098646,87.8176660,85.4205029
33.9682420,0.0177188,110.9526757,87.7884591,85.5820761
34.0542870,0.0277065,111.1070922,87.7607995,85.4796260
34.0822450,0.0309094,110.8801418,87.7562218,85.4406834
34.1112470,0.0236606,110.5543520,87.8903933,85.1103804
34.1332400,0.0084807,111.1843972,87.7333333,85.5294649
34.1552680,-0.0058494,111.1284977,87.7981947,85.3310767
34.1952480,-0.0138662,110.8489362,87.8197292,85.8032882
34.2272440,-0.0152776,111.1208253,87.8168279,85.4974855
34.2602770,-0.0115979,110.7584784,87.7615732,85.4262411
34.3222410,-0.0046371,110.8794971,87.7297872,85.8200516
34.3382860,0.0038934,110.8794971,87.7297872,85.8200516
34.3532760,0.0118603,110.6145068,87.8437137,85.8635074
34.3752410,0.0168588,110.9777563,87.8212121,85.6501612
34.4542470,0.0177888,110.7983881,88.0689877,85.6359768
34.4842410,0.0129381,111.1593810,88.3379755,85.3706641
34.4952420,-0.0001613,110.9506125,88.6928433,85.8422953
34.5172430,-0.0188919,111.4308833,88.6317215,86.0789813
34.5752440,-0.0357697,111.2949710,88.3798839,86.0962605
34.6072420,-0.0447046,110.9069632,88.2691812,85.8867182
34.6292950,-0.0436979,111.2401676,88.0796260,85.5548678
34.6512840,-0.0329861,110.5555126,88.0098646,86.0661509
34.7242540,-0.0173705,111.0062540,88.0670535,85.0003868
34.7462720,-0.0048871,110.7783366,87.9094133,85.8733720
34.7702720,0.0026573,110.7783366,87.9094133,85.8733720
34.7852410,0.0075498,110.7427466,88.0023211,85.4850419
34.8462430,0.0089755,110.6365571,88.0934236,85.6201805
34.8792430,0.0078310,110.9251451,87.7994197,85.4937460
34.8912760,0.0072154,110.8724055,88.0827640,85.5008784
34.9172830,0.0064297,111.2339124,87.9901100,85.9716963
34.9512850,0.0044976,111.3410762,88.2286421,85.4530549
34.9822780,0.0031637,111.2820613,88.0387794,85.9403344
35.0142450,0.0041972,111.2638428,88.0510768,85.7742859
35.0692420,0.0069582,111.1730106,88.1619494,85.6583382
35.0952820,0.0088300,110.9169107,88.1102869,85.8144967
35.1292420,0.0092007,111.4545514,88.1730757,85.8815798
35.1422440,0.0095376,111.4545514,88.1730757,85.8815798
35.1632710,0.0094219,111.1214783,88.2278613,85.9258898
35.2462460,0.0092786,111.6647147,88.0630490,86.0676036
35.2722390,0.0099548,110.8256881,88.3291040,85.5947036
35.2932710,0.0086424,111.2279914,88.2322858,85.6740191
35.3172730,0.0046067,111.4789511,88.1115883,85.9137875
35.3712420,0.0007336,111.6574924,88.0654564,85.6795497
35.3962430,-0.0020440,111.1847876,87.9870519,85.7371983
35.4172430,-0.0038304,110.9056542,88.0389746,85.5907346
35.4482470,-0.0026314,110.9756653,87.9456048,85.8781964
35.5192440,0.0013491,110.9955104,87.9433275,85.5081007
35.5352770,0.0042939,111.2546685,87.8476804,85.4470688
35.5562820,0.0042926,111.2546685,87.8476804,85.4470688
35.5682840,0.0020727,111.0631791,87.8488516,85.2739280
35.6492460,-0.0008567,111.3900709,87.7123430,85.5986076
35.6652680,-0.0023814,111.1676101,87.9536079,85.7967337
35.6882760,-0.0011645,111.0994860,87.8902987,85.6679029
35.7172410,0.0013769,110.9656451,87.9832130,85.4597567
35.7782430,0.0045658,111.3116663,87.7260720,85.9799597
35.8162410,0.0074629,111.2365151,88.0119071,84.9620014
35.8292400,0.0056937,110.9820418,87.9746242,85.6309454
35.8522500,-0.0007045,111.0798360,87.9994795,85.6604854
35.9222450,-0.0062354,111.2402889,88.0005856,85.9003188
35.9372730,-0.0095034,111.2203787,88.0127529,85.2576615
35.9612510,-0.0129796,111.2203787,88.0127529,85.2576615
35.9752420,-0.0150649,111.1958488,87.9197736,85.7033639
36.0542450,-0.0135112,111.0964279,88.0090442,85.7684950
36.0752700,-0.0104216,110.9748845,87.9184722,85.5345175
36.0992430,-0.0074255,111.3885744,87.7522285,85.4575444
36.1212840,-0.0018191,111.2058039,87.8109181,85.9521114
36.1502870,0.0083728,111.2833626,87.7080487,85.8951135
36.2062460,0.0191644,111.4452469,87.8199623,85.4791463
36.2312400,0.0265813,111.1933763,87.7579543,85.9579023
36.2522400,0.0311868,111.7918537,87.8559438,85.7932201
36.3342470,0.0334535,111.4756328,87.9403344,86.1283753
36.3582420,0.0313032,111.3287787,88.0597957,85.7126684
36.3742410,0.0238688,111.3287787,88.0597957,85.7126684
36.3952410,0.0137081,111.2086017,87.9271260,85.8264038
36.4452470,0.0038312,111.2630620,87.7735702,85.6744746
36.4742410,-0.0035149,111.3445898,87.6092134,85.8690871
36.4942420,-0.0061405,111.4876049,87.6755156,85.7597111
36.5162910,-0.0030565,111.1806884,87.6062854,85.7189798
36.5722410,0.0023457,110.9770968,87.9076062,85.3693799
36.5952410,0.0045337,110.9558202,87.8119591,85.7606871
36.6182780,0.0022674,111.3827835,87.7029085,85.7501464
36.6452430,-0.0035016,111.2270805,87.8435162,85.4525994
36.7082520,-0.0123719,111.1981261,88.0148351,85.6463010
36.7532450,-0.0214979,111.1491314,88.1262932,85.7673889
36.7672790,-0.0266111,111.1425597,88.0828941,86.0327282
36.7892740,-0.0271144,111.1425597,88.0828941,86.0327282
36.8462490,-0.0245995,111.5224153,87.7235995,85.6183226
36.8702400,-0.0193344,111.3359360,87.6858611,85.5406988
36.8912400,-0.0105043,111.0921335,87.3504457,85.8844427
36.9172430,0.0019453,111.0898562,87.6200143,85.9487930
36.9802780,0.0142628,110.9051988,87.5986727,85.6111653
37.0052410,0.0214186,111.1177045,87.5633418,85.3739996
37.0282420,0.0225728,111.1843321,87.4857180,85.5883922
37.0502760,0.0199381,110.9719565,87.5230008,85.8627757
37.0762780,0.0141635,111.1091808,87.6643894,85.5401132
37.1683150,0.0051107,111.0234238,87.7185894,85.3244844
37.1973140,-0.0049165,110.8761793,87.6320515,85.4207821
37.2173090,-0.0131049,110.8761793,87.6320515,85.4207821
37.2393170,-0.0180058,110.7012818,87.5530614,86.1523196
37.2603100,-0.0195843,110.8629058,87.8857440,85.4337302
37.2883090,-0.0185363,111.1323443,87.6066107,85.6861865
37.3393140,-0.0145709,110.8922506,87.7026482,85.6177370
37.3773100,-0.0086145,111.0982497,87.7978398,85.7471534
37.3893110,-0.0051388,111.1325395,88.0050101,85.6605505
37.4123110,-0.0076359,111.2232416,88.0408615,85.5122649
37.4683140,-0.0145813,111.2583122,88.0940855,85.4915739
37.5033120,-0.0226483,111.1504978,88.0193246,85.8349925
37.5293140,-0.0290766,111.5295075,88.0532240,85.5658794
37.5583100,-0.0330540,111.0130132,88.2546034,85.5451233
37.5713110,-0.0351654,111.0130132,88.2546034,85.5451233
37.6613140,-0.0339909,111.4546815,87.7264624,85.5088815
37.6843110,-0.0274766,111.2603943,87.8090962,85.9063700
37.7133100,-0.0162112,111.0610319,87.8063635,85.8102674
37.7273090,-0.0019278,111.3373024,87.7101958,85.6840393
37.7533150,0.0146181,110.8832065,87.7613378,85.9115102
37.7843140,0.0309852,111.2545384,87.6956211,85.6894398
37.8143140,0.0410951,111.0270675,87.8957642,85.4918993
37.8463700,0.0403682,110.7203462,87.9588132,85.6164357
37.8786880,0.0304565,111.0098900,87.9363654,85.4650921
37.9270990,0.0174995,111.0426833,87.7908127,86.0756067
37.9620310,0.0076645,111.4583903,87.9522415,85.8792374
37.9790420,0.0036894,111.4583903,87.9522415,85.8792374
38.0000420,0.0052358,111.2249984,88.0031232,85.7913332
38.0531300,0.0091846,111.1516039,88.2519357,85.6698549
38.0871400,0.0098347,111.5989980,88.4234498,85.8265339
38.1210930,0.0041972,111.6651701,88.2428265,86.0350706
38.1491000,-0.0042922,111.5033509,88.1815343,85.9747544
38.1824170,-0.0113793,111.3929989,88.2833626,85.8264038
38.2144180,-0.0155145,111.7269178,88.2998894,85.7152059
38.2544200,-0.0161453,111.0486694,88.3941701,85.8543171
38.2784190,-0.0143287,111.1473095,88.2723665,85.9761208
38.3484220,-0.0110051,111.3155703,87.9327217,86.1645520
38.3724610,-0.0053485,111.4917691,87.9835383,85.8261435
38.3854550,0.0026709,111.4917691,87.9835383,85.8261435
38.4319820,0.0114997,111.1662437,88.1111328,85.8171644
38.4559750,0.0191152,110.8474201,88.0430087,85.9569263
38.4869730,0.0228646,111.1614939,87.9449541,85.7922441
38.5279910,0.0204075,111.4221485,88.0633743,85.5283363
38.5530190,0.0124434,110.7541154,88.1430802,85.7253562
38.6029850,0.0026982,111.6376472,88.0269373,85.5831869
38.6280420,-0.0045241,111.4095907,88.0966881,86.1185503
38.6499870,-0.0076754,110.7800768,88.1333854,85.7565879
38.6789850,-0.0073806,111.7973843,88.0324680,85.9705251
38.7110480,-0.0030706,111.3778385,88.0443100,85.9895244
38.7780530,0.0041222,111.2965710,88.1034550,85.7794261
38.7950510,0.0095784,111.2965710,88.1034550,85.7794261
38.8198560,0.0089215,111.4422539,88.4524042,85.4283948
38.8778630,0.0010772,111.3244844,88.1650725,85.4774546
38.8968880,-0.0109963,111.3558576,87.7013396,85.2314815
38.9228940,-0.0224789,110.2164434,87.0855661,84.4313107
38.9528570,-0.0296131,109.1502347,85.9263172,83.6232394
39.0028610,-0.0296165,107.7335535,85.0541311,82.6953509
39.0259070,-0.0213429,107.3410276,84.3071205,82.1934664
39.0488640,-0.0089721,106.9572498,83.8324796,81.1545180
39.0788550,0.0021197,106.9662037,83.1856481,81.1661376
39.1138610,0.0127350,106.5788036,82.6637357,81.2069678
39.1818610,0.0254410,106.1097122,82.7183586,81.0806688
39.2088530,0.0390952,106.7318841,82.6296296,81.0417338
39.2298570,0.0523380,107.1728170,82.6491619,81.0657610
39.2548560,0.0648484,107.1335496,82.6607867,81.1822114
39.2968560,0.0737639,107.8193764,82.6977124,81.4313725
39.3198550,0.0764898,108.0505487,82.8469822,81.5932785
39.3598530,0.0726967,107.9672840,83.0888889,81.1399863
39.3839030,0.0632187,108.5365533,83.0511332,81.7474433
39.4128550,0.0517334,108.7424116,83.2825815,81.9305904
39.4598560,0.0418578,109.0206071,83.0591757,82.0673907
39.4809450,0.0339917,108.8774185,83.0338585,81.7072968
39.5288580,0.0286159,108.6593422,83.1727474,82.1507048
39.5578570,0.0256471,108.5600470,83.1347430,81.4536346
39.5908900,0.0205013,108.6748120,83.2513924,81.6202311
39.6339080,0.0104437,109.3041632,83.0552771,81.9235589
39.6558930,-0.0014701,108.8040936,83.1216931,81.9086605
39.6948580,-0.0121612,109.2823726,83.0629351,81.7331523
39.7198910,-0.0219381,108.9683236,83.1679198,81.0218602
39.7509550,-0.0311779,109.0957254,83.3170426,81.7112921
39.7998620,-0.0378176,108.7809106,83.2758981,82.2390003
39.8218980,-0.0413846,108.7457533,83.2922584,81.7791701
39.8458910,-0.0436669,108.7994291,83.3830409,82.0339738
39.9028900,-0.0447072,108.7668477,83.4397104,81.4989557
39.9188650,-0.0440982,108.8371624,83.4602478,81.6334586
39.9668550,-0.0444431,108.4968672,83.1558758,81.4596213
39.9908910,-0.0469041,108.7262601,83.0962128,81.7694932
40.0218550,-0.0475446,108.8799081,82.8978697,81.8246310
40.0658600,-0.0423016,108.3747563,83.0492203,81.7797271
40.0878610,-0.0306736,108.6291423,82.7808410,81.4993734
40.1368570,-0.0157301,108.0985102,82.8407129,81.5160123
40.1598910,-0.0033793,108.2188109,82.7900306,81.1356168
40.1808680,0.0006896,108.4603175,82.7589808,81.1684767
40.2238610,-0.0035387,108.1058897,82.7728349,81.4813422
40.2478990,-0.0101215,108.1332498,82.6700084,81.5273601
40.2918900,-0.0133565,108.2917711,82.5410749,81.4922723
40.3148580,-0.0111636,108.1739070,82.6554581,81.3393901
40.3718590,-0.0048024,108.2176970,82.4265525,81.0719855
40.3988600,0.0015191,107.8056948,82.6022696,80.9818992
40.4208560,0.0048691,108.5401003,82.4144389,81.6707742
40.4738590,0.0074783,108.7025814,82.5651655,81.9487233
40.4948690,0.0116209,108.7009680,82.7259400,81.6208614
40.5158590,0.0164649,108.5333895,82.7252385,81.6994949
40.5488650,0.0215080,108.6689641,82.7782651,81.6601921
40.6028580,0.0249958,108.3337510,82.9791145,81.8119605
40.6268550,0.0233525,109.0792955,82.8529657,82.1214146
40.6489260,0.0176250,109.1026873,82.8776107,82.0186578
40.6888880,0.0115833,108.9727096,83.4216096,82.2002924
40.7118560,0.0067466,108.7213868,83.4686021,82.6244779
40.7418570,0.0038382,108.9514063,83.6322751,82.4678363
40.8108990,0.0015188,109.0858396,83.7288360,82.6854637
40.8388550,-0.0020808,109.1120162,83.7563353,82.9912281
40.8598550,-0.0057322,109.1213450,83.8988443,82.7755500
40.8968600,-0.0085304,109.5743525,83.8425230,82.7021721
40.9208560,-0.0096793,109.9307296,83.7972013,83.2956001
40.9638580,-0.0079298,110.0506823,84.0500557,82.7587023
40.9899000,-0.0067969,109.8703704,84.3244222,83.0570872
41.0288680,-0.0088657,110.2634364,84.4491089,83.6028265
41.0538750,-0.0123395,110.2894041,84.7921192,83.1490532
41.0888560,-0.0176253,110.1838032,84.5674406,83.5754561
41.1158580,-0.0250605,109.6451303,84.5046639,82.9676269
41.1418530,-0.0320355,109.4167347,84.5305011,83.1137663
41.2128650,-0.0359329,109.1744390,84.3156934,83.4916194
41.2548580,-0.0346035,109.0961487,84.2794552,83.1641841
41.2668540,-0.0283573,109.4251208,84.3687601,83.1645196
41.2888570,-0.0209659,109.2574477,84.5042271,83.1019860
41.3148690,-0.0144823,109.2195384,84.7408749,83.5106012
41.3478560,-0.0098898,109.0430322,84.3475886,83.0881295
41.3788910,-0.0099984,108.7844391,84.4924727,82.8122169
41.4308610,-0.0143002,109.1584066,84.5371703,83.4319211
41.4548560,-0.0195403,108.8810285,84.7158273,82.6488809
41.4898560,-0.0249378,109.0541567,84.6185718,83.0560885
41.5138580,-0.0298373,108.9397149,84.7809086,83.2118305
41.5498860,-0.0322214,109.2714495,84.7921663,83.0999867
41.6118540,-0.0316160,109.4042100,84.5857980,83.0212497
41.6358550,-0.0281952,108.9700240,84.8174793,83.2150946
41.6578540,-0.0208035,109.0829337,84.7010392,83.3417266
41.6878560,-0.0105564,108.9100053,84.7151612,83.1676659
41.7368590,-0.0005186,109.3467226,84.6020517,83.1041833
41.7618560,0.0082112,109.0528244,84.5947242,83.2592593
41.7838960,0.0148755,109.0913936,84.7007727,82.9275246
41.8118560,0.0194059,109.2644551,84.4427791,83.5192513
41.8608590,0.0232979,108.9312550,84.7086331,83.1640021
41.8858560,0.0270197,109.5855316,84.5466960,83.3243405
41.9078560,0.0294574,109.3781641,84.7175593,83.0953237
41.9538560,0.0303211,109.4732214,84.7326805,83.4401146
42.0048720,0.0293756,109.2431388,84.7075007,83.0486944
42.0348620,0.0262638,109.2249534,84.6753930,83.6737943
42.0568980,0.0227032,109.0946576,84.8098854,83.2075673
42.0868550,0.0202462,109.0105820,84.4342593,83.3377646
42.1218550,0.0183016,109.0488095,84.6751323,82.7102513
42.1488720,0.0159348,109.3812169,84.4456349,83.3325397
42.1899200,0.0125605,109.2662037,84.7783069,82.8228836
42.2138550,0.0074066,108.8749015,84.5413055,83.2802732
42.2538570,0.0023190,109.0710533,84.5527318,83.2255056
42.2798580,0.0008425,108.9961912,84.6136722,83.4303257
42.3129010,0.0029408,108.8768059,84.8219070,83.1623982
42.3417000,0.0049662,109.5601524,84.8196743,83.1289073
42.3903980,0.0046244,109.1612818,84.9082611,83.1618729
42.4220460,0.0011532,109.3161939,85.0252824,83.4628973
42.4573650,-0.0054350,109.3224324,84.7855267,83.0775545
42.4859490,-0.0127720,109.2979380,84.7744287,83.1372472
42.5180190,-0.0159619,109.0557526,84.6384949,83.6155766
42.5493190,-0.0115486,108.9223798,84.6736932,83.2622143
42.5803200,-0.0023282,109.4152876,84.8006961,83.3074599
42.6174340,0.0064789,109.0041371,84.9837799,83.4447071
42.6465290,0.0116152,108.6724700,84.8774126,83.1005477
42.6791630,0.0098770,109.3733046,84.7476526,82.6777517
42.7107350,0.0012738,109.5538602,84.7852765,83.5212572
42.7426980,-0.0089864,109.5976135,85.2091810,83.1219353
42.7926980,-0.0177370,109.5954617,84.9092332,83.0543818
42.8229120,-0.0227534,109.6161972,84.9595722,83.4991523
42.8539430,-0.0216524,109.3566771,85.0577074,83.0346896
42.8878750,-0.0174192,108.8876500,85.0341028,83.3380934
42.9172530,-0.0144049,108.9469223,85.2640845,83.2995566
42.9556510,-0.0123790,109.2425665,85.0872457,83.3506781
42.9847480,-0.0103996,109.0591168,85.0509583,83.3569671
43.0160300,-0.0075173,108.8341751,84.9754597,83.7024087
43.0470530,-0.0030893,109.1596089,85.1042476,82.8405853
43.0790520,-0.0006484,108.7275317,85.2397695,82.9821937
43.1139970,-0.0010620,108.7278807,84.9022634,83.5140818
43.1426070,-0.0012190,108.8553884,85.0351080,83.1540638
43.1728710,-0.0008348,108.9072788,84.9909979,83.5990226
43.2223990,0.0005073,108.7811214,84.8090921,83.0404450
43.2531790,0.0056563,108.5091950,84.9902906,83.3544239
43.2881870,0.0146568,108.9412294,84.5752958,83.3191229
43.3171440,0.0240869,108.8022119,84.7015818,83.1824846
43.3482250,0.0315670,108.6487912,84.6032665,83.4517747
43.3799990,0.0360138,108.4789738,84.7929527,83.1149048
43.4140810,0.0373195,108.6722608,84.7379758,83.3655478
43.4494270,0.0367291,108.9101080,84.7485854,83.6182485
43.4804750,0.0355513,108.5817901,84.6181199,83.4355067
43.5114720,0.0331827,108.4711291,84.7344393,83.1549640
43.5415570,0.0273778,108.5193544,84.7381687,82.8777006
43.5743020,0.0175194,108.2134131,84.8724923,82.9661137
43.6254500,0.0058517,108.3936471,84.6988169,83.6629372
43.6534160,-0.0042445,108.2874228,84.8320473,83.3900463
43.6838320,-0.0117128,108.7021605,84.9651492,83.1502701
43.7175490,-0.0164116,108.4994856,85.0584491,83.4134516
43.7484520,-0.0166692,108.3911394,84.9708719,83.4103652
43.7835250,-0.0159621,108.8171939,85.2388117,82.8163580
43.8126070,-0.0207567,109.0020576,84.9699717,83.2995756
43.8452100,-0.0302384,108.6315586,85.3157150,82.8315972
43.8793650,-0.0392103,109.0411523,84.8316615,83.2121271
43.9103680,-0.0431523,109.1792695,84.8683771,83.2613169
43.9464440,-0.0389445,108.5679012,84.9713220,83.3827803
43.9764290,-0.0266427,108.7413837,84.9076003,83.6010159
44.0273690,-0.0088848,109.0973508,84.8577032,83.4054784
44.0633690,0.0103700,108.9565329,84.9628987,83.5084234
44.0873700,0.0266695,108.9729295,84.6405607,83.7151492
44.1193670,0.0372821,108.9591692,84.8514660,83.1644805
44.1593750,0.0407449,108.9585262,84.9016847,83.5551055
44.1813770,0.0368942,108.8049769,85.0230195,83.2439558
44.2223710,0.0266933,109.0702160,85.1554784,83.0359439
44.2453670,0.0117462,108.8484439,84.9402649,83.5027649
44.2793670,-0.0028351,109.3416281,84.7917310,83.3546811
44.3083670,-0.0124711,108.7256944,85.2573302,83.3832305
44.3523740,-0.0180396,109.3137860,85.3007973,83.3706276
44.3753660,-0.0195829,109.5172325,85.2424126,83.6705890
44.4413720,-0.0172614,109.3768647,85.2476209,83.1402392
44.4673720,-0.0156393,109.2229295,85.2234439,83.6522634
44.4893670,-0.0151947,109.3279321,85.1918724,83.7565586
44.5154060,-0.0113093,109.5394805,85.0314429,83.6604938
44.5614010,-0.0032828,109.0784465,85.1088606,83.5751029
44.5853670,0.0063281,109.0841692,85.0054012,83.6636445
44.6273700,0.0157386,109.1957948,84.9454090,83.3506301
44.6504740,0.0232975,109.1183128,84.8571888,83.9672068
44.6784210,0.0287160,109.0208333,84.9063143,83.7564943
44.7083680,0.0330106,109.3282536,84.7436343,83.7812500
44.7423650,0.0368102,109.5326646,84.8324974,83.6687243
44.7755240,0.0395565,109.3733282,84.8762860,83.6000514
44.8221270,0.0391096,108.8013760,84.9896476,83.7391332
44.8535340,0.0329243,109.4580761,84.7278164,83.2208076
44.8818570,0.0209729,109.5860983,84.8975051,83.4639918
44.9164970,0.0064851,108.9963349,84.8976337,83.6098894
44.9500330,-0.0066598,108.9722222,84.9447016,83.4339635
44.9820490,-0.0155903,109.4892618,84.6763760,83.5737526
45.0139980,-0.0182584,109.0558128,84.9519033,83.8341692
45.0450370,-0.0154658,109.1282793,85.0859053,83.6662166
45.0770360,-0.0124779,108.9931199,85.1093107,83.3090278
45.1119980,-0.0138682,109.2628601,85.1714249,83.4383359
45.1406380,-0.0193810,109.1989455,85.0514403,83.6017876
45.1743840,-0.0265913,109.2284594,85.2181070,83.8171296
45.2056730,-0.0342138,109.4502315,85.2294239,83.1032665
45.2510740,-0.0401289,109.2804141,85.1043596,83.6942515
45.2885770,-0.0410760,108.9899691,85.0593493,83.1494985
45.3175850,-0.0361890,108.9574331,84.8930684,84.0456533
45.3460930,-0.0267424,109.3309542,84.8682485,83.5012860
45.3792190,-0.0154239,109.3198302,84.8229167,83.0629501
45.4117690,-0.0052774,109.2473637,84.7958462,83.3093493
45.4477430,0.0024357,108.7384259,84.9787809,83.5134388
45.4767710,0.0077966,109.4885545,84.6968236,83.6586934
45.5081210,0.0100097,109.3246528,84.7636960,83.2604810
45.5418200,0.0090454,108.9849537,84.9140303,83.1937371
45.5738580,0.0072954,109.3281893,84.8885031,83.5607639
45.6078640,0.0065271,109.1586934,84.9518390,83.4124871
45.6518230,0.0054761,109.3052984,84.9023277,83.4576260
45.6838250,0.0038611,109.2371399,84.9087577,83.9670782
45.7168590,0.0044733,109.3110211,85.1035880,83.4787166
45.7488480,0.0070090,109.0684799,85.0947788,83.6813272
45.7828840,0.0082842,109.1431970,85.2123200,83.5461677
45.8128200,0.0064783,109.3784079,85.2769419,83.5019290
45.8474410,0.0004618,109.0376157,85.2029321,83.5681584
45.8767070,-0.0088510,109.5025077,85.2372685,83.4813529
45.9075640,-0.0180317,109.2977109,85.2575231,83.3839378
45.9429450,-0.0252397,109.0346579,85.3796296,83.3575103
45.9749820,-0.0297943,109.0909208,85.3348765,83.5327932
46.0069460,-0.0300222,108.8404064,85.0456533,83.6156121
46.0514850,-0.0250891,109.2148920,85.0837834,83.5779321
46.0848900,-0.0172416,109.0208333,85.2126415,83.1746399
46.1180320,-0.0094364,109.3643904,85.0923354,83.3892104
46.1485770,-0.0032201,109.3225952,85.4749228,83.2992541
46.1809560,-0.0010519,109.2255015,85.4643776,83.5602495
46.2110170,-0.0029488,109.4321631,85.3237526,83.9499100
46.2450530,-0.0036219,109.1486626,85.0841049,83.6151620
46.2801000,0.0000092,109.3214378,84.9843107,83.0960005
46.3088370,0.0059496,109.4531250,84.9699717,83.1631301
46.3418900,0.0140622,109.3748071,84.9913837,83.8880530
46.3728460,0.0228296,108.9316487,85.1077032,83.1265432
46.4059970,0.0244940,109.1162551,85.1340664,82.6998457
46.4549310,0.0162132,109.3369985,85.1260931,83.1212063
46.4849290,0.0041821,109.1060314,85.2682613,83.2002315
46.5162140,-0.0064605,108.8052984,85.2492927,83.7291667
46.5476520,-0.0124965,109.1653164,85.3056199,83.9988426
46.5816070,-0.0099019,109.0563915,85.4219393,83.5927212
46.6166070,0.0008248,109.3970550,85.3948045,83.8454218
46.6464870,0.0143855,109.4604552,85.3921039,83.6113683
46.6775700,0.0251642,109.0797968,85.3500514,83.7591307
46.7087160,0.0283188,109.3252315,85.4198174,83.4376286
46.7427100,0.0244481,109.0265561,85.1698174,83.9686857
46.7748260,0.0201029,109.4055427,85.1260288,83.6284079
46.8035580,0.0175524,109.1067387,85.3394419,83.2971322
46.8532580,0.0155433,109.3266461,85.1082819,83.8789223
46.8860040,0.0151780,109.1134259,85.1866641,83.3717850
46.9163980,0.0149275,109.2454990,85.2916667,83.5104167
46.9496100,0.0117172,109.4709362,85.2062757,83.7762989
46.9826200,0.0079088,109.6792052,85.2405478,83.6073817
47.0136180,0.0066931,109.3403421,85.1717464,83.8384131
47.0452290,0.0077929,109.5718236,85.1470550,83.7731481
47.0762320,0.0097088,108.9778807,85.4612912,83.4416152
47.1102660,0.0093812,109.1981096,85.2164995,83.5432742
47.1405730,0.0059281,109.5009002,85.2867155,83.8187371
47.1730840,0.0014422,109.6248071,85.2502572,83.6288580
47.2049940,-0.0040901,109.2811214,85.3057485,83.4842464
47.2363350,-0.0096070,109.4735725,85.3559671,83.7840149
47.2871700,-0.0133723,109.4746656,85.6481481,83.1918081
47.3175750,-0.0186335,109.0796039,85.7301955,83.5934285
47.3475860,-0.0266717,109.3514660,85.5600566,83.8939043
47.3797140,-0.0333879,109.4400077,85.5073945,83.5239841
47.4127790,-0.0358509,109.4051569,85.5682870,84.0480324
47.4457820,-0.0322116,109.0759388,85.3863169,83.7123200
47.4747590,-0.0205116,109.5092593,85.2466564,83.9176955
47.5087430,-0.0031925,109.4166667,85.3069059,83.8964120
47.5417950,0.0131486,109.1434542,85.3184799,83.6094393
47.5737960,0.0235270,109.2684542,85.2105838,83.6196631
47.6058330,0.0266070,109.3631044,85.3765432,83.6561857
47.6457990,0.0225924,109.2549511,85.5189043,83.5169753
47.6998060,0.0140817,109.1502058,85.3361626,84.2998328
47.7238320,0.0071066,109.2632459,85.1979167,83.6209491
47.7468340,0.0041297,109.4509388,85.3734568,83.5533693
47.7947980,0.0028765,109.2015175,85.4275334,83.7496142
47.8178240,0.0026740,109.1644162,85.5239841,83.7840792
47.8517980,0.0021314,109.3878601,85.5661651,83.7614455
47.8757950,-0.0019933,109.3418853,85.4874614,83.6865355
47.9078310,-0.0077657,109.5298354,85.4555041,83.9555684
47.9428310,-0.0100745,109.1525849,85.4958205,83.9996142
47.9837970,-0.0082317,109.6075103,85.4546682,83.6599151
48.0078310,-0.0053964,108.9403292,85.7192644,83.7665895
48.0468010,-0.0024481,109.7723765,85.3578961,84.2154064
48.0907960,0.0020517,109.4069573,85.4811600,83.9484311
48.1187950,0.0063596,109.0412809,85.4463735,83.9108153
48.1477970,0.0090749,109.6833848,85.2264660,83.8404707
48.1807930,0.0112620,109.3074846,85.4474666,83.4103009
48.2117950,0.0115884,109.0491898,85.3863169,83.9485597
48.2438410,0.0079945,109.3166795,85.3613683,83.5437243
48.2788310,0.0017190,109.5041795,85.3139146,83.6938014
48.3088390,-0.0039890,109.8027906,85.1721965,83.7764918
48.3398300,-0.0065485,109.3249100,85.3401492,83.5579990
48.3727970,-0.0054585,109.5308642,85.2072402,83.7563657
48.4038310,-0.0019151,109.1388246,85.3795653,83.9041281
48.4397950,0.0024314,109.4798740,85.2936600,83.6408179
48.4826630,0.0035706,109.0588349,85.5120242,83.3244599
48.5145760,-0.0023859,109.2755273,85.4781379,83.1980453
48.5486180,-0.0136883,109.2180427,85.4870113,83.5752315
48.5816240,-0.0243501,109.3227238,85.2750129,83.9758230
48.6156730,-0.0294110,109.4660494,85.3568673,83.5835262
48.6438590,-0.0265751,109.5691872,85.4735082,84.1973380
48.6758760,-0.0150678,109.0664223,85.7246013,84.0999228
48.7089090,0.0006917,109.5939429,85.8099280,83.8813657
48.7398600,0.0109260,109.5664223,85.7062757,83.5344650
48.7742840,0.0093951,109.4700360,85.6858282,83.4251543
48.8016160,-0.0022979,109.0978009,85.6167052,83.4136445
48.8353280,-0.0178976,109.3903678,85.4577546,83.6403035
48.8832830,-0.0288490,109.3948045,85.3498585,83.7609311
48.9164960,-0.0281481,109.6149691,85.2999614,84.0158179
48.9496720,-0.0148690,109.4949203,85.1974666,83.6967593
48.9805540,0.0047873,109.2635674,85.3707562,83.3598894
49.0124290,0.0219976,109.3497942,85.1427469,83.5180684
49.0436990,0.0312666,109.3173225,85.3088992,83.4693287
49.0758800,0.0306230,109.4313272,85.2366255,83.4145448
49.1096830,0.0224639,109.3720422,85.2534722,83.8117284
49.1396820,0.0144733,109.7984182,85.2717978,83.8492798
49.1717350,0.0112981,108.9443801,85.5371013,83.5625000
49.2036820,0.0106921,109.3650334,85.1663452,83.5137603
49.2466850,0.0114303,109.5411523,85.4999357,84.0226980
49.2856830,0.0122000,109.4361497,85.4234182,83.3580890
49.3146900,0.0080480,109.0401878,85.5914995,83.4530607
49.3526830,-0.0010102,109.3703061,85.4506173,83.7078832
49.3886870,-0.0090449,108.8661908,85.6666667,83.8958333
49.4117180,-0.0137656,109.3020833,85.6340664,83.9128086
49.4466830,-0.0161073,109.0513760,85.7229295,83.7611883
49.4776820,-0.0166096,109.4470165,85.6479552,83.2395833
49.5057020,-0.0174290,109.5154964,85.7861368,83.4845036
49.5527180,-0.0194548,109.7109697,85.6304012,83.9891975
49.5756820,-0.0209439,109.3106996,85.7490355,83.6260931
49.6057280,-0.0214513,109.6659594,85.6766332,83.6283436
49.6327250,-0.0197040,109.3753858,85.5353009,83.6040381
49.6636840,-0.0133294,109.1628729,85.6539995,83.7951389
49.7358560,-0.0044482,109.5182613,85.4960777,83.5506687
49.7598700,0.0018960,109.6761188,85.5221836,83.2790638
49.7818580,0.0038159,109.1303369,85.5107382,83.2978395
49.8228570,0.0021000,109.3022119,85.4988426,83.2379758
49.8458520,-0.0013591,109.4646991,85.5243056,83.6802341
49.8838560,-0.0037844,109.2615098,85.5578704,83.6053884
49.9078920,-0.0019996,109.1795910,85.4239326,84.1257073
49.9418530,0.0068678,109.3207948,85.4751800,84.0195473
49.9829160,0.0220265,109.5983153,85.3180298,83.8670910
50.0068520,0.0382935,109.2839506,85.4808385,83.8544239
50.0318550,0.0488663,108.9787166,85.6453832,83.5901492
50.0658530,0.0485889,109.3386060,85.5725952,83.5261703
50.1318520,0.0368592,108.9812886,85.6538709,83.6527135
50.1538510,0.0189744,109.3041409,85.4660494,83.8177083
50.1798510,0.0028330,109.5148534,85.5815329,83.9594264
50.2158530,-0.0047085,109.3514660,85.5997299,84.4497814
50.2438520,-0.0011270,109.6029450,85.7234439,84.0031507
50.2795480,0.0093038,109.3414352,85.8029192,84.2795782
50.3085560,0.0185219,109.1658951,85.7042824,83.5182613
50.3405560,0.0195268,109.3083848,85.7178498,83.7290381
50.3708410,0.0106203,109.3958333,85.6423611,83.6678241
50.4014340,-0.0031543,109.8006044,85.3971836,83.9323560
50.4384340,-0.0140590,109.4418081,85.3971836,83.7119985
50.4664340,-0.0166409,109.1992027,85.2352109,84.0703447
50.5144330,-0.0105071,108.9328061,85.5597994,83.5039223
50.5466030,-0.0005870,109.4713220,85.2846579,83.8092207
50.5817790,0.0075961,109.3519162,85.4132587,83.6950874
50.6147770,0.0117142,109.1951517,85.2947531,84.0733668
50.6422400,0.0101606,109.3192515,85.4187886,83.0533693
50.6759640,0.0021706,109.6251619,85.7532375,83.8692049
50.7061830,-0.0092178,109.5907796,85.7246827,83.3613054
50.7383530,-0.0207305,109.6918544,85.7504533,83.9513727
50.7743540,-0.0303898,109.7522663,85.6030174,83.7394457
50.8023540,-0.0362504,109.3495208,85.8281533,83.7368557
50.8443850,-0.0363425,109.6629112,85.6010101,83.8791116
50.8683550,-0.0294564,109.5951826,85.7232582,84.0903911
50.9323550,-0.0186047,109.5955063,85.7288915,83.5100363
50.9573540,-0.0095917,109.5756281,85.8599456,84.1952862
50.9823590,-0.0040792,109.9175084,85.7072650,83.7292152
